#Point,Corner,eventN,t0,tarrival,Pass/Fail,/I219/I,/L11/PLUS,/L1/PLUS,/I219/Vout_Sh,/I219/I3/net49,/I219/I3/net50,Sh_meas,BX-1,TH_meas_BX0,BX1,TH,/I219/VDD,Power,/I219/VDDA,Sh_peak,VoSH,VoTH,TH_DC
1,nom,1,267e-9,-15e-9,,,,,,,,43.72e-3,27.2e-3,4.383e-3,-125.7e-6,,,6.986e-3,,742.8e-3,721e-3,713e-3,717.4e-3
2,nom,1,268e-9,-14e-9,,,,,,,,43.72e-3,20.64e-3,7.67e-3,153.5e-6,,,6.986e-3,,742.8e-3,721e-3,709.7e-3,717.4e-3
3,nom,1,269e-9,-13e-9,,,,,,,,43.71e-3,13.46e-3,12.64e-3,558.3e-6,,,6.986e-3,,742.8e-3,721e-3,704.7e-3,717.4e-3
4,nom,1,270e-9,-12e-9,,,,,,,,45.04e-3,6.918e-3,19.31e-3,1.175e-3,,,6.986e-3,,743.5e-3,721e-3,698.1e-3,717.4e-3
5,nom,1,271e-9,-11e-9,,,,,,,,44.32e-3,2.285e-3,27.18e-3,1.792e-3,,,6.986e-3,,743.1e-3,721e-3,690.2e-3,717.4e-3
6,nom,1,272e-9,-10e-9,,,,,,,,43.65e-3,195.1e-6,33.9e-3,2.244e-3,,,6.986e-3,,742.8e-3,721e-3,683.5e-3,717.4e-3
7,nom,1,273e-9,-9e-9,,,,,,,,43.74e-3,-60.43e-6,37.37e-3,2.591e-3,,,6.986e-3,,742.9e-3,721e-3,680e-3,717.4e-3
8,nom,1,274e-9,-8e-9,,,,,,,,43.81e-3,10.99e-6,37.58e-3,2.616e-3,,,6.986e-3,,742.9e-3,721e-3,679.8e-3,717.4e-3
9,nom,1,275e-9,-7e-9,,,,,,,,43.62e-3,10.84e-6,37.45e-3,2.58e-3,,,6.986e-3,,742.8e-3,721e-3,679.9e-3,717.4e-3
10,nom,1,276e-9,-6e-9,,,,,,,,43.71e-3,7.857e-6,37.72e-3,2.545e-3,,,6.986e-3,,742.8e-3,721e-3,679.7e-3,717.4e-3
11,nom,1,277e-9,-5e-9,,,,,,,,43.71e-3,7.76e-6,37.87e-3,2.502e-3,,,6.986e-3,,742.8e-3,721e-3,679.5e-3,717.4e-3
12,nom,1,278e-9,-4e-9,,,,,,,,43.71e-3,7.756e-6,38.06e-3,2.369e-3,,,6.986e-3,,742.8e-3,721e-3,679.3e-3,717.4e-3
13,nom,1,279e-9,-3e-9,,,,,,,,43.71e-3,7.759e-6,38.31e-3,2.332e-3,,,6.986e-3,,742.8e-3,721e-3,679.1e-3,717.4e-3
14,nom,1,280e-9,-2e-9,,,,,,,,43.71e-3,7.762e-6,38.57e-3,2.19e-3,,,6.986e-3,,742.8e-3,721e-3,678.8e-3,717.4e-3
15,nom,1,281e-9,-1e-9,,,,,,,,43.71e-3,7.779e-6,38.9e-3,2.008e-3,,,6.986e-3,,742.8e-3,721e-3,678.5e-3,717.4e-3
16,nom,1,282e-9,2.068e-24,,,,,,,,43.71e-3,7.807e-6,39.21e-3,1.798e-3,,,6.986e-3,,742.8e-3,721e-3,678.2e-3,717.4e-3
17,nom,1,283e-9,1e-9,,,,,,,,43.71e-3,7.854e-6,39.54e-3,1.558e-3,,,6.986e-3,,742.8e-3,721e-3,677.8e-3,717.4e-3
18,nom,1,284e-9,2e-9,,,,,,,,43.71e-3,7.941e-6,39.88e-3,1.285e-3,,,6.986e-3,,742.8e-3,721e-3,677.5e-3,717.4e-3
19,nom,1,285e-9,3e-9,,,,,,,,43.72e-3,8.071e-6,40.2e-3,983.3e-6,,,6.986e-3,,742.8e-3,721e-3,677.2e-3,717.4e-3
20,nom,1,286e-9,4e-9,,,,,,,,43.72e-3,8.248e-6,40.25e-3,774.5e-6,,,6.986e-3,,742.8e-3,721e-3,677.1e-3,717.4e-3
21,nom,1,287e-9,5e-9,,,,,,,,43.72e-3,8.445e-6,40.16e-3,621.1e-6,,,6.986e-3,,742.8e-3,721e-3,677.2e-3,717.4e-3
22,nom,1,288e-9,6e-9,,,,,,,,43.72e-3,8.617e-6,39.55e-3,546e-6,,,6.986e-3,,742.8e-3,721e-3,677.8e-3,717.4e-3
23,nom,1,289e-9,7e-9,,,,,,,,43.72e-3,8.676e-6,38.3e-3,702.6e-6,,,6.986e-3,,742.8e-3,721e-3,679.1e-3,717.4e-3
24,nom,1,290e-9,8e-9,,,,,,,,43.72e-3,8.559e-6,36.01e-3,1.283e-3,,,6.986e-3,,742.8e-3,721e-3,681.4e-3,717.4e-3
25,nom,1,291e-9,9e-9,,,,,,,,43.72e-3,8.272e-6,32.37e-3,2.406e-3,,,6.986e-3,,742.8e-3,721e-3,685e-3,717.4e-3
26,nom,1,292e-9,10e-9,,,,,,,,43.72e-3,7.937e-6,27.18e-3,4.459e-3,,,6.986e-3,,742.8e-3,721e-3,690.2e-3,717.4e-3
27,nom,1,293e-9,11e-9,,,,,,,,43.72e-3,7.778e-6,20.62e-3,7.618e-3,,,6.986e-3,,742.8e-3,721e-3,696.8e-3,717.4e-3
28,nom,1,294e-9,12e-9,,,,,,,,43.72e-3,7.795e-6,13.44e-3,12.61e-3,,,6.986e-3,,742.8e-3,721e-3,703.9e-3,717.4e-3
29,nom,1,295e-9,13e-9,,,,,,,,45.04e-3,8.507e-6,6.897e-3,19.34e-3,,,6.986e-3,,743.5e-3,721e-3,710.5e-3,717.4e-3
30,nom,1,296e-9,14e-9,,,,,,,,44.32e-3,8.506e-6,2.264e-3,27.12e-3,,,6.986e-3,,743.1e-3,721e-3,715.1e-3,717.4e-3
31,nom,1,297e-9,15e-9,,,,,,,,43.64e-3,8.506e-6,173.9e-6,33.87e-3,,,6.986e-3,,742.8e-3,721e-3,717.2e-3,717.4e-3
32,nom,1,298e-9,16e-9,,,,,,,,43.76e-3,8.505e-6,-82.39e-6,37.65e-3,,,6.986e-3,,742.9e-3,721e-3,717.5e-3,717.4e-3
33,nom,1,299e-9,17e-9,,,,,,,,43.86e-3,8.505e-6,-10.15e-6,37.56e-3,,,6.986e-3,,742.9e-3,721e-3,717.4e-3,717.4e-3
34,nom,1,300e-9,18e-9,,,,,,,,43.58e-3,8.505e-6,-10.87e-6,37.47e-3,,,6.986e-3,,742.8e-3,721e-3,717.4e-3,717.4e-3
35,nom,1,301e-9,19e-9,,,,,,,,43.71e-3,8.505e-6,-14.44e-6,37.75e-3,,,6.986e-3,,742.8e-3,721e-3,717.4e-3,717.4e-3
36,nom,1,302e-9,20e-9,,,,,,,,43.71e-3,8.505e-6,-14.54e-6,37.9e-3,,,6.986e-3,,742.8e-3,721e-3,717.4e-3,717.4e-3
37,nom,1,303e-9,21e-9,,,,,,,,43.71e-3,8.505e-6,-14.54e-6,38.09e-3,,,6.986e-3,,742.8e-3,721e-3,717.4e-3,717.4e-3
38,nom,1,304e-9,22e-9,,,,,,,,43.71e-3,8.505e-6,-14.54e-6,38.34e-3,,,6.986e-3,,742.8e-3,721e-3,717.4e-3,717.4e-3
39,nom,1,305e-9,23e-9,,,,,,,,43.71e-3,8.505e-6,-14.54e-6,38.6e-3,,,6.986e-3,,742.8e-3,721e-3,717.4e-3,717.4e-3
40,nom,1,306e-9,24e-9,,,,,,,,43.71e-3,8.505e-6,-14.52e-6,38.93e-3,,,6.986e-3,,742.8e-3,721e-3,717.4e-3,717.4e-3
41,nom,1,307e-9,25e-9,,,,,,,,43.71e-3,8.505e-6,-14.49e-6,39.24e-3,,,6.986e-3,,742.8e-3,721e-3,717.4e-3,717.4e-3


42,nom,2,267e-9,-15e-9,,,,,,,,84.94e-3,52.68e-3,9.773e-3,-387.8e-6,,,6.986e-3,,763.4e-3,721e-3,707.6e-3,717.4e-3
43,nom,2,268e-9,-14e-9,,,,,,,,84.94e-3,39.85e-3,16.22e-3,204.7e-6,,,6.986e-3,,763.4e-3,721e-3,701.2e-3,717.4e-3
44,nom,2,269e-9,-13e-9,,,,,,,,84.94e-3,25.98e-3,25.94e-3,963.5e-6,,,6.986e-3,,763.4e-3,721e-3,691.4e-3,717.4e-3
45,nom,2,270e-9,-12e-9,,,,,,,,85.46e-3,13.45e-3,38.66e-3,2.102e-3,,,6.986e-3,,763.7e-3,721e-3,678.7e-3,717.4e-3
46,nom,2,271e-9,-11e-9,,,,,,,,84.8e-3,4.564e-3,53.59e-3,3.449e-3,,,6.986e-3,,763.4e-3,721e-3,663.8e-3,717.4e-3
47,nom,2,272e-9,-10e-9,,,,,,,,84.62e-3,442.3e-6,66.4e-3,4.665e-3,,,6.986e-3,,763.3e-3,721e-3,651e-3,717.4e-3
48,nom,2,273e-9,-9e-9,,,,,,,,84.48e-3,-128.7e-6,73.11e-3,5.521e-3,,,6.986e-3,,763.2e-3,721e-3,644.3e-3,717.4e-3
49,nom,2,274e-9,-8e-9,,,,,,,,84.78e-3,8.252e-6,73.61e-3,5.577e-3,,,6.986e-3,,763.4e-3,721e-3,643.8e-3,717.4e-3
50,nom,2,275e-9,-7e-9,,,,,,,,84.96e-3,12.31e-6,73.55e-3,5.618e-3,,,6.986e-3,,763.5e-3,721e-3,643.8e-3,717.4e-3
51,nom,2,276e-9,-6e-9,,,,,,,,84.94e-3,7.792e-6,73.84e-3,5.569e-3,,,6.986e-3,,763.4e-3,721e-3,643.5e-3,717.4e-3
52,nom,2,277e-9,-5e-9,,,,,,,,84.94e-3,7.689e-6,74.11e-3,5.487e-3,,,6.986e-3,,763.4e-3,721e-3,643.3e-3,717.4e-3
53,nom,2,278e-9,-4e-9,,,,,,,,84.94e-3,7.684e-6,74.45e-3,5.37e-3,,,6.986e-3,,763.4e-3,721e-3,642.9e-3,717.4e-3
54,nom,2,279e-9,-3e-9,,,,,,,,84.94e-3,7.686e-6,74.9e-3,5.213e-3,,,6.986e-3,,763.4e-3,721e-3,642.5e-3,717.4e-3
55,nom,2,280e-9,-2e-9,,,,,,,,84.94e-3,7.695e-6,75.35e-3,4.968e-3,,,6.986e-3,,763.4e-3,721e-3,642e-3,717.4e-3
56,nom,2,281e-9,-1e-9,,,,,,,,84.94e-3,7.717e-6,75.89e-3,4.647e-3,,,6.986e-3,,763.4e-3,721e-3,641.5e-3,717.4e-3
57,nom,2,282e-9,2.068e-24,,,,,,,,84.94e-3,7.764e-6,76.45e-3,4.276e-3,,,6.986e-3,,763.4e-3,721e-3,640.9e-3,717.4e-3
58,nom,2,283e-9,1e-9,,,,,,,,84.94e-3,7.862e-6,77.09e-3,3.824e-3,,,6.986e-3,,763.4e-3,721e-3,640.3e-3,717.4e-3
59,nom,2,284e-9,2e-9,,,,,,,,84.94e-3,8.031e-6,77.63e-3,3.376e-3,,,6.986e-3,,763.4e-3,721e-3,639.8e-3,717.4e-3
60,nom,2,285e-9,3e-9,,,,,,,,84.94e-3,8.296e-6,78.13e-3,2.892e-3,,,6.986e-3,,763.4e-3,721e-3,639.2e-3,717.4e-3
61,nom,2,286e-9,4e-9,,,,,,,,84.94e-3,8.661e-6,78.41e-3,2.476e-3,,,6.986e-3,,763.4e-3,721e-3,639e-3,717.4e-3
62,nom,2,287e-9,5e-9,,,,,,,,84.94e-3,9.054e-6,78.08e-3,2.247e-3,,,6.986e-3,,763.4e-3,721e-3,639.3e-3,717.4e-3
63,nom,2,288e-9,6e-9,,,,,,,,84.94e-3,9.357e-6,77.02e-3,2.275e-3,,,6.986e-3,,763.4e-3,721e-3,640.4e-3,717.4e-3
64,nom,2,289e-9,7e-9,,,,,,,,84.94e-3,9.444e-6,74.59e-3,2.731e-3,,,6.986e-3,,763.4e-3,721e-3,642.8e-3,717.4e-3
65,nom,2,290e-9,8e-9,,,,,,,,84.94e-3,9.212e-6,70.24e-3,3.86e-3,,,6.986e-3,,763.4e-3,721e-3,647.1e-3,717.4e-3
66,nom,2,291e-9,9e-9,,,,,,,,84.94e-3,8.675e-6,63.04e-3,5.832e-3,,,6.986e-3,,763.4e-3,721e-3,654.3e-3,717.4e-3
67,nom,2,292e-9,10e-9,,,,,,,,84.94e-3,8.042e-6,52.66e-3,9.693e-3,,,6.986e-3,,763.4e-3,721e-3,664.7e-3,717.4e-3
68,nom,2,293e-9,11e-9,,,,,,,,84.94e-3,7.718e-6,39.83e-3,16.28e-3,,,6.986e-3,,763.4e-3,721e-3,677.5e-3,717.4e-3
69,nom,2,294e-9,12e-9,,,,,,,,84.94e-3,7.747e-6,25.96e-3,25.94e-3,,,6.986e-3,,763.4e-3,721e-3,691.4e-3,717.4e-3
70,nom,2,295e-9,13e-9,,,,,,,,85.46e-3,8.507e-6,13.43e-3,38.71e-3,,,6.986e-3,,763.7e-3,721e-3,703.9e-3,717.4e-3
71,nom,2,296e-9,14e-9,,,,,,,,84.8e-3,8.506e-6,4.543e-3,53.57e-3,,,6.986e-3,,763.4e-3,721e-3,712.8e-3,717.4e-3
72,nom,2,297e-9,15e-9,,,,,,,,84.61e-3,8.506e-6,421.6e-6,66.38e-3,,,6.986e-3,,763.3e-3,721e-3,717e-3,717.4e-3
73,nom,2,298e-9,16e-9,,,,,,,,84.55e-3,8.505e-6,-148.9e-6,73.18e-3,,,6.986e-3,,763.3e-3,721e-3,717.5e-3,717.4e-3
74,nom,2,299e-9,17e-9,,,,,,,,84.98e-3,8.505e-6,-12.59e-6,73.71e-3,,,6.986e-3,,763.5e-3,721e-3,717.4e-3,717.4e-3
75,nom,2,300e-9,18e-9,,,,,,,,84.88e-3,8.505e-6,-10.16e-6,73.53e-3,,,6.986e-3,,763.4e-3,721e-3,717.4e-3,717.4e-3
76,nom,2,301e-9,19e-9,,,,,,,,84.94e-3,8.505e-6,-14.52e-6,73.87e-3,,,6.986e-3,,763.4e-3,721e-3,717.4e-3,717.4e-3
77,nom,2,302e-9,20e-9,,,,,,,,84.94e-3,8.505e-6,-14.62e-6,74.14e-3,,,6.986e-3,,763.4e-3,721e-3,717.4e-3,717.4e-3
78,nom,2,303e-9,21e-9,,,,,,,,84.94e-3,8.505e-6,-14.63e-6,74.48e-3,,,6.986e-3,,763.4e-3,721e-3,717.4e-3,717.4e-3
79,nom,2,304e-9,22e-9,,,,,,,,84.94e-3,8.505e-6,-14.63e-6,74.93e-3,,,6.986e-3,,763.4e-3,721e-3,717.4e-3,717.4e-3
80,nom,2,305e-9,23e-9,,,,,,,,84.94e-3,8.505e-6,-14.62e-6,75.37e-3,,,6.986e-3,,763.4e-3,721e-3,717.4e-3,717.4e-3
81,nom,2,306e-9,24e-9,,,,,,,,84.94e-3,8.505e-6,-14.6e-6,75.92e-3,,,6.986e-3,,763.4e-3,721e-3,717.4e-3,717.4e-3
82,nom,2,307e-9,25e-9,,,,,,,,84.94e-3,8.505e-6,-14.55e-6,76.47e-3,,,6.986e-3,,763.4e-3,721e-3,717.4e-3,717.4e-3


83,nom,3,267e-9,-15e-9,,,,,,,,123.8e-3,76.36e-3,16.37e-3,-692e-6,,,6.986e-3,,782.9e-3,721e-3,701e-3,717.4e-3
84,nom,3,268e-9,-14e-9,,,,,,,,123.8e-3,57.54e-3,25.57e-3,153.9e-6,,,6.986e-3,,782.9e-3,721e-3,691.8e-3,717.4e-3
85,nom,3,269e-9,-13e-9,,,,,,,,123.8e-3,37.4e-3,39.82e-3,1.417e-3,,,6.986e-3,,782.9e-3,721e-3,677.6e-3,717.4e-3
86,nom,3,270e-9,-12e-9,,,,,,,,123.9e-3,19.47e-3,58.6e-3,3.141e-3,,,6.986e-3,,783e-3,721e-3,658.8e-3,717.4e-3
87,nom,3,271e-9,-11e-9,,,,,,,,123.7e-3,6.732e-3,79.66e-3,5.519e-3,,,6.986e-3,,782.8e-3,721e-3,637.7e-3,717.4e-3
88,nom,3,272e-9,-10e-9,,,,,,,,123.6e-3,722.7e-6,98.2e-3,7.109e-3,,,6.986e-3,,782.8e-3,721e-3,619.2e-3,717.4e-3
89,nom,3,273e-9,-9e-9,,,,,,,,123.7e-3,-184.5e-6,108.1e-3,8.183e-3,,,6.986e-3,,782.8e-3,721e-3,609.3e-3,717.4e-3
90,nom,3,274e-9,-8e-9,,,,,,,,124e-3,8.724e-6,108.9e-3,8.368e-3,,,6.986e-3,,783e-3,721e-3,608.5e-3,717.4e-3
91,nom,3,275e-9,-7e-9,,,,,,,,123.9e-3,12.3e-6,109.1e-3,8.267e-3,,,6.986e-3,,782.9e-3,721e-3,608.3e-3,717.4e-3
92,nom,3,276e-9,-6e-9,,,,,,,,123.9e-3,7.778e-6,109.3e-3,8.307e-3,,,6.986e-3,,782.9e-3,721e-3,608.1e-3,717.4e-3
93,nom,3,277e-9,-5e-9,,,,,,,,123.8e-3,7.675e-6,109.6e-3,8.268e-3,,,6.986e-3,,782.9e-3,721e-3,607.8e-3,717.4e-3
94,nom,3,278e-9,-4e-9,,,,,,,,124.3e-3,7.72e-6,110.3e-3,8.16e-3,,,6.986e-3,,783.1e-3,721e-3,607.1e-3,717.4e-3
95,nom,3,279e-9,-3e-9,,,,,,,,123.9e-3,7.677e-6,110.7e-3,7.881e-3,,,6.986e-3,,782.9e-3,721e-3,606.7e-3,717.4e-3
96,nom,3,280e-9,-2e-9,,,,,,,,123.9e-3,7.687e-6,111.2e-3,7.573e-3,,,6.986e-3,,782.9e-3,721e-3,606.1e-3,717.4e-3
97,nom,3,281e-9,-1e-9,,,,,,,,123.9e-3,7.712e-6,112e-3,7.124e-3,,,6.986e-3,,782.9e-3,721e-3,605.4e-3,717.4e-3
98,nom,3,282e-9,2.068e-24,,,,,,,,123.9e-3,7.768e-6,112.7e-3,6.628e-3,,,6.986e-3,,782.9e-3,721e-3,604.7e-3,717.4e-3
99,nom,3,283e-9,1e-9,,,,,,,,123.8e-3,7.891e-6,113.4e-3,6.068e-3,,,6.986e-3,,782.9e-3,721e-3,604e-3,717.4e-3
100,nom,3,284e-9,2e-9,,,,,,,,123.8e-3,8.139e-6,114.1e-3,5.43e-3,,,6.986e-3,,782.9e-3,721e-3,603.3e-3,717.4e-3
101,nom,3,285e-9,3e-9,,,,,,,,124.3e-3,8.574e-6,115e-3,4.797e-3,,,6.986e-3,,783.2e-3,721e-3,602.3e-3,717.4e-3
102,nom,3,286e-9,4e-9,,,,,,,,124.3e-3,9.165e-6,115.4e-3,4.297e-3,,,6.986e-3,,783.2e-3,721e-3,602e-3,717.4e-3
103,nom,3,287e-9,5e-9,,,,,,,,124.3e-3,9.814e-6,115.2e-3,4.047e-3,,,6.986e-3,,783.2e-3,721e-3,602.2e-3,717.4e-3
104,nom,3,288e-9,6e-9,,,,,,,,124.3e-3,10.22e-6,113.7e-3,4.244e-3,,,6.986e-3,,783.1e-3,721e-3,603.6e-3,717.4e-3
105,nom,3,289e-9,7e-9,,,,,,,,123.8e-3,10.22e-6,110e-3,5.077e-3,,,6.986e-3,,782.9e-3,721e-3,607.4e-3,717.4e-3
106,nom,3,290e-9,8e-9,,,,,,,,123.8e-3,9.853e-6,103.4e-3,6.768e-3,,,6.986e-3,,782.9e-3,721e-3,614e-3,717.4e-3
107,nom,3,291e-9,9e-9,,,,,,,,123.8e-3,9.092e-6,92.16e-3,10.25e-3,,,6.986e-3,,782.9e-3,721e-3,625.2e-3,717.4e-3
108,nom,3,292e-9,10e-9,,,,,,,,123.9e-3,8.19e-6,76.32e-3,16.31e-3,,,6.986e-3,,782.9e-3,721e-3,641.1e-3,717.4e-3
109,nom,3,293e-9,11e-9,,,,,,,,123.9e-3,7.709e-6,57.5e-3,25.59e-3,,,6.986e-3,,782.9e-3,721e-3,659.9e-3,717.4e-3
110,nom,3,294e-9,12e-9,,,,,,,,123.9e-3,7.749e-6,37.36e-3,39.77e-3,,,6.986e-3,,782.9e-3,721e-3,680e-3,717.4e-3
111,nom,3,295e-9,13e-9,,,,,,,,123.9e-3,8.507e-6,19.46e-3,58.6e-3,,,6.986e-3,,782.9e-3,721e-3,697.9e-3,717.4e-3
112,nom,3,296e-9,14e-9,,,,,,,,123.7e-3,8.506e-6,6.714e-3,79.59e-3,,,6.986e-3,,782.8e-3,721e-3,710.7e-3,717.4e-3
113,nom,3,297e-9,15e-9,,,,,,,,123.5e-3,8.506e-6,699.4e-6,98.18e-3,,,6.986e-3,,782.7e-3,721e-3,716.7e-3,717.4e-3
114,nom,3,298e-9,16e-9,,,,,,,,123.7e-3,8.505e-6,-206.4e-6,108.2e-3,,,6.986e-3,,782.8e-3,721e-3,717.6e-3,717.4e-3
115,nom,3,299e-9,17e-9,,,,,,,,124e-3,8.505e-6,-11.09e-6,108.9e-3,,,6.986e-3,,783e-3,721e-3,717.4e-3,717.4e-3
116,nom,3,300e-9,18e-9,,,,,,,,123.9e-3,8.505e-6,-10.15e-6,109e-3,,,6.986e-3,,782.9e-3,721e-3,717.4e-3,717.4e-3
117,nom,3,301e-9,19e-9,,,,,,,,123.8e-3,8.505e-6,-14.54e-6,109.2e-3,,,6.986e-3,,782.9e-3,721e-3,717.4e-3,717.4e-3
118,nom,3,302e-9,20e-9,,,,,,,,123.8e-3,8.505e-6,-14.64e-6,109.6e-3,,,6.986e-3,,782.9e-3,721e-3,717.4e-3,717.4e-3
119,nom,3,303e-9,21e-9,,,,,,,,124.3e-3,8.505e-6,-14.58e-6,110.3e-3,,,6.986e-3,,783.1e-3,721e-3,717.4e-3,717.4e-3
120,nom,3,304e-9,22e-9,,,,,,,,123.9e-3,8.505e-6,-14.64e-6,110.7e-3,,,6.986e-3,,782.9e-3,721e-3,717.4e-3,717.4e-3
121,nom,3,305e-9,23e-9,,,,,,,,123.9e-3,8.505e-6,-14.63e-6,111.3e-3,,,6.986e-3,,782.9e-3,721e-3,717.4e-3,717.4e-3
122,nom,3,306e-9,24e-9,,,,,,,,123.8e-3,8.505e-6,-14.6e-6,111.9e-3,,,6.986e-3,,782.9e-3,721e-3,717.4e-3,717.4e-3
123,nom,3,307e-9,25e-9,,,,,,,,123.8e-3,8.505e-6,-14.55e-6,112.6e-3,,,6.986e-3,,782.9e-3,721e-3,717.4e-3,717.4e-3


124,nom,4,267e-9,-15e-9,,,,,,,,160.8e-3,98.75e-3,23.07e-3,-982.4e-6,,,6.986e-3,,801.4e-3,721e-3,694.3e-3,717.4e-3
125,nom,4,268e-9,-14e-9,,,,,,,,160.8e-3,73.26e-3,35.81e-3,232.5e-6,,,6.986e-3,,801.4e-3,721e-3,681.6e-3,717.4e-3
126,nom,4,269e-9,-13e-9,,,,,,,,160.8e-3,47.59e-3,54.23e-3,1.92e-3,,,6.986e-3,,801.4e-3,721e-3,663.2e-3,717.4e-3
127,nom,4,270e-9,-12e-9,,,,,,,,160.8e-3,24.89e-3,78.53e-3,4.65e-3,,,6.986e-3,,801.4e-3,721e-3,638.8e-3,717.4e-3
128,nom,4,271e-9,-11e-9,,,,,,,,160.8e-3,8.741e-3,105.9e-3,7.154e-3,,,6.986e-3,,801.4e-3,721e-3,611.5e-3,717.4e-3
129,nom,4,272e-9,-10e-9,,,,,,,,160.5e-3,1.015e-3,129.2e-3,9.42e-3,,,6.986e-3,,801.2e-3,721e-3,588.2e-3,717.4e-3
130,nom,4,273e-9,-9e-9,,,,,,,,160.5e-3,-233.2e-6,142.3e-3,10.55e-3,,,6.986e-3,,801.2e-3,721e-3,575.1e-3,717.4e-3
131,nom,4,274e-9,-8e-9,,,,,,,,160.9e-3,10.36e-6,143.5e-3,10.76e-3,,,6.986e-3,,801.4e-3,721e-3,573.9e-3,717.4e-3
132,nom,4,275e-9,-7e-9,,,,,,,,161e-3,10.82e-6,143.5e-3,10.82e-3,,,6.986e-3,,801.5e-3,721e-3,573.9e-3,717.4e-3
133,nom,4,276e-9,-6e-9,,,,,,,,160.8e-3,7.815e-6,143.7e-3,10.79e-3,,,6.986e-3,,801.4e-3,721e-3,573.7e-3,717.4e-3
134,nom,4,277e-9,-5e-9,,,,,,,,160.8e-3,7.715e-6,144.2e-3,10.68e-3,,,6.986e-3,,801.4e-3,721e-3,573.2e-3,717.4e-3
135,nom,4,278e-9,-4e-9,,,,,,,,160.8e-3,7.718e-6,144.8e-3,10.52e-3,,,6.986e-3,,801.4e-3,721e-3,572.6e-3,717.4e-3
136,nom,4,279e-9,-3e-9,,,,,,,,160.8e-3,7.726e-6,145.4e-3,10.24e-3,,,6.986e-3,,801.4e-3,721e-3,572e-3,717.4e-3
137,nom,4,280e-9,-2e-9,,,,,,,,160.8e-3,7.737e-6,146.2e-3,9.877e-3,,,6.986e-3,,801.4e-3,721e-3,571.2e-3,717.4e-3
138,nom,4,281e-9,-1e-9,,,,,,,,160.8e-3,7.757e-6,147.1e-3,9.37e-3,,,6.986e-3,,801.4e-3,721e-3,570.3e-3,717.4e-3
139,nom,4,282e-9,2.068e-24,,,,,,,,160.8e-3,7.8e-6,148e-3,8.775e-3,,,6.986e-3,,801.4e-3,721e-3,569.4e-3,717.4e-3
140,nom,4,283e-9,1e-9,,,,,,,,160.8e-3,7.934e-6,148.9e-3,7.994e-3,,,6.986e-3,,801.4e-3,721e-3,568.5e-3,717.4e-3
141,nom,4,284e-9,2e-9,,,,,,,,160.8e-3,8.26e-6,149.7e-3,7.35e-3,,,6.986e-3,,801.4e-3,721e-3,567.7e-3,717.4e-3
142,nom,4,285e-9,3e-9,,,,,,,,160.8e-3,8.899e-6,150.4e-3,6.628e-3,,,6.986e-3,,801.4e-3,721e-3,566.9e-3,717.4e-3
143,nom,4,286e-9,4e-9,,,,,,,,160.8e-3,9.764e-6,150.8e-3,6.051e-3,,,6.986e-3,,801.4e-3,721e-3,566.6e-3,717.4e-3
144,nom,4,287e-9,5e-9,,,,,,,,160.8e-3,10.57e-6,150.7e-3,5.846e-3,,,6.986e-3,,801.4e-3,721e-3,566.7e-3,717.4e-3
145,nom,4,288e-9,6e-9,,,,,,,,160.8e-3,11.02e-6,149.1e-3,6.352e-3,,,6.986e-3,,801.4e-3,721e-3,568.3e-3,717.4e-3
146,nom,4,289e-9,7e-9,,,,,,,,160.8e-3,10.99e-6,144.7e-3,7.715e-3,,,6.986e-3,,801.4e-3,721e-3,572.7e-3,717.4e-3
147,nom,4,290e-9,8e-9,,,,,,,,160.8e-3,10.48e-6,135.6e-3,10.48e-3,,,6.986e-3,,801.4e-3,721e-3,581.8e-3,717.4e-3
148,nom,4,291e-9,9e-9,,,,,,,,160.8e-3,9.515e-6,120e-3,15.21e-3,,,6.986e-3,,801.4e-3,721e-3,597.4e-3,717.4e-3
149,nom,4,292e-9,10e-9,,,,,,,,160.8e-3,8.38e-6,98.73e-3,23.07e-3,,,6.986e-3,,801.4e-3,721e-3,618.7e-3,717.4e-3
150,nom,4,293e-9,11e-9,,,,,,,,160.8e-3,7.752e-6,73.24e-3,35.8e-3,,,6.986e-3,,801.4e-3,721e-3,644.1e-3,717.4e-3
151,nom,4,294e-9,12e-9,,,,,,,,160.8e-3,7.799e-6,47.57e-3,54.22e-3,,,6.986e-3,,801.4e-3,721e-3,669.8e-3,717.4e-3
152,nom,4,295e-9,13e-9,,,,,,,,160.8e-3,8.507e-6,24.87e-3,78.69e-3,,,6.986e-3,,801.4e-3,721e-3,692.5e-3,717.4e-3
153,nom,4,296e-9,14e-9,,,,,,,,160.8e-3,8.506e-6,8.72e-3,105.9e-3,,,6.986e-3,,801.4e-3,721e-3,708.7e-3,717.4e-3
154,nom,4,297e-9,15e-9,,,,,,,,160.5e-3,8.506e-6,994.4e-6,129.2e-3,,,6.986e-3,,801.2e-3,721e-3,716.4e-3,717.4e-3
155,nom,4,298e-9,16e-9,,,,,,,,160.5e-3,8.505e-6,-254.1e-6,142.3e-3,,,6.986e-3,,801.2e-3,721e-3,717.6e-3,717.4e-3
156,nom,4,299e-9,17e-9,,,,,,,,160.9e-3,8.505e-6,-10.34e-6,143.5e-3,,,6.986e-3,,801.4e-3,721e-3,717.4e-3,717.4e-3
157,nom,4,300e-9,18e-9,,,,,,,,161.2e-3,8.505e-6,-10.89e-6,143.4e-3,,,6.986e-3,,801.6e-3,721e-3,717.4e-3,717.4e-3
158,nom,4,301e-9,19e-9,,,,,,,,160.8e-3,8.505e-6,-14.48e-6,143.7e-3,,,6.986e-3,,801.4e-3,721e-3,717.4e-3,717.4e-3
159,nom,4,302e-9,20e-9,,,,,,,,160.8e-3,8.505e-6,-14.59e-6,144.2e-3,,,6.986e-3,,801.4e-3,721e-3,717.4e-3,717.4e-3
160,nom,4,303e-9,21e-9,,,,,,,,160.8e-3,8.505e-6,-14.58e-6,144.8e-3,,,6.986e-3,,801.4e-3,721e-3,717.4e-3,717.4e-3
161,nom,4,304e-9,22e-9,,,,,,,,160.8e-3,8.505e-6,-14.57e-6,145.4e-3,,,6.986e-3,,801.4e-3,721e-3,717.4e-3,717.4e-3
162,nom,4,305e-9,23e-9,,,,,,,,160.8e-3,8.505e-6,-14.56e-6,146.2e-3,,,6.986e-3,,801.4e-3,721e-3,717.4e-3,717.4e-3
163,nom,4,306e-9,24e-9,,,,,,,,160.8e-3,8.505e-6,-14.54e-6,147.1e-3,,,6.986e-3,,801.4e-3,721e-3,717.4e-3,717.4e-3
164,nom,4,307e-9,25e-9,,,,,,,,160.8e-3,8.505e-6,-14.5e-6,148e-3,,,6.986e-3,,801.4e-3,721e-3,717.4e-3,717.4e-3


165,nom,5,267e-9,-15e-9,,,,,,,,196.5e-3,118.9e-3,30.54e-3,-1.366e-3,,,6.986e-3,,819.2e-3,721e-3,686.8e-3,717.4e-3
166,nom,5,268e-9,-14e-9,,,,,,,,196.5e-3,87.58e-3,46.33e-3,256.2e-6,,,6.986e-3,,819.2e-3,721e-3,671.1e-3,717.4e-3
167,nom,5,269e-9,-13e-9,,,,,,,,196.5e-3,56.67e-3,69.01e-3,2.864e-3,,,6.986e-3,,819.2e-3,721e-3,648.4e-3,717.4e-3
168,nom,5,270e-9,-12e-9,,,,,,,,196.6e-3,29.74e-3,99.41e-3,5.563e-3,,,6.986e-3,,819.3e-3,721e-3,618e-3,717.4e-3
169,nom,5,271e-9,-11e-9,,,,,,,,196.4e-3,10.57e-3,131.8e-3,8.916e-3,,,6.986e-3,,819.2e-3,721e-3,585.6e-3,717.4e-3
170,nom,5,272e-9,-10e-9,,,,,,,,196.1e-3,1.289e-3,160.2e-3,11.51e-3,,,6.986e-3,,819e-3,721e-3,557.2e-3,717.4e-3
171,nom,5,273e-9,-9e-9,,,,,,,,196.1e-3,-277.5e-6,175.9e-3,12.86e-3,,,6.986e-3,,819e-3,721e-3,541.5e-3,717.4e-3
172,nom,5,274e-9,-8e-9,,,,,,,,196.5e-3,7.921e-6,177.4e-3,13.14e-3,,,6.986e-3,,819.2e-3,721e-3,539.9e-3,717.4e-3
173,nom,5,275e-9,-7e-9,,,,,,,,196.5e-3,11.4e-6,177.4e-3,13.15e-3,,,6.986e-3,,819.2e-3,721e-3,540e-3,717.4e-3
174,nom,5,276e-9,-6e-9,,,,,,,,196.5e-3,7.807e-6,178e-3,13.12e-3,,,6.986e-3,,819.2e-3,721e-3,539.4e-3,717.4e-3
175,nom,5,277e-9,-5e-9,,,,,,,,196.5e-3,7.707e-6,178.6e-3,13e-3,,,6.986e-3,,819.2e-3,721e-3,538.8e-3,717.4e-3
176,nom,5,278e-9,-4e-9,,,,,,,,196.5e-3,7.718e-6,179.2e-3,12.85e-3,,,6.986e-3,,819.2e-3,721e-3,538.1e-3,717.4e-3
177,nom,5,279e-9,-3e-9,,,,,,,,196.5e-3,7.735e-6,180e-3,12.52e-3,,,6.986e-3,,819.2e-3,721e-3,537.4e-3,717.4e-3
178,nom,5,280e-9,-2e-9,,,,,,,,196.5e-3,7.755e-6,180.9e-3,12.07e-3,,,6.986e-3,,819.2e-3,721e-3,536.5e-3,717.4e-3
179,nom,5,281e-9,-1e-9,,,,,,,,196.5e-3,7.773e-6,181.9e-3,11.46e-3,,,6.986e-3,,819.2e-3,721e-3,535.5e-3,717.4e-3
180,nom,5,282e-9,2.068e-24,,,,,,,,196.5e-3,7.795e-6,183e-3,10.78e-3,,,6.986e-3,,819.2e-3,721e-3,534.4e-3,717.4e-3
181,nom,5,283e-9,1e-9,,,,,,,,196.5e-3,7.902e-6,183.9e-3,10.04e-3,,,6.986e-3,,819.2e-3,721e-3,533.5e-3,717.4e-3
182,nom,5,284e-9,2e-9,,,,,,,,196.5e-3,8.309e-6,184.7e-3,9.149e-3,,,6.986e-3,,819.2e-3,721e-3,532.6e-3,717.4e-3
183,nom,5,285e-9,3e-9,,,,,,,,196.5e-3,9.218e-6,185.4e-3,8.395e-3,,,6.986e-3,,819.2e-3,721e-3,532e-3,717.4e-3
184,nom,5,286e-9,4e-9,,,,,,,,196.5e-3,10.4e-6,185.8e-3,7.847e-3,,,6.986e-3,,819.2e-3,721e-3,531.5e-3,717.4e-3
185,nom,5,287e-9,5e-9,,,,,,,,196.5e-3,11.35e-6,185.7e-3,7.938e-3,,,6.986e-3,,819.2e-3,721e-3,531.6e-3,717.4e-3
186,nom,5,288e-9,6e-9,,,,,,,,196.5e-3,11.78e-6,184.3e-3,8.812e-3,,,6.986e-3,,819.2e-3,721e-3,533.1e-3,717.4e-3
187,nom,5,289e-9,7e-9,,,,,,,,196.5e-3,11.64e-6,179.2e-3,10.56e-3,,,6.986e-3,,819.2e-3,721e-3,538.2e-3,717.4e-3
188,nom,5,290e-9,8e-9,,,,,,,,196.5e-3,10.99e-6,167.4e-3,14.3e-3,,,6.986e-3,,819.2e-3,721e-3,550e-3,717.4e-3
189,nom,5,291e-9,9e-9,,,,,,,,196.5e-3,9.853e-6,146.9e-3,20.45e-3,,,6.986e-3,,819.2e-3,721e-3,570.5e-3,717.4e-3
190,nom,5,292e-9,10e-9,,,,,,,,196.5e-3,8.511e-6,118.9e-3,30.54e-3,,,6.986e-3,,819.2e-3,721e-3,598.5e-3,717.4e-3
191,nom,5,293e-9,11e-9,,,,,,,,196.5e-3,7.748e-6,87.55e-3,46.34e-3,,,6.986e-3,,819.2e-3,721e-3,629.8e-3,717.4e-3
192,nom,5,294e-9,12e-9,,,,,,,,196.5e-3,7.801e-6,56.65e-3,68.8e-3,,,6.986e-3,,819.2e-3,721e-3,660.7e-3,717.4e-3
193,nom,5,295e-9,13e-9,,,,,,,,196.6e-3,8.507e-6,29.72e-3,99.31e-3,,,6.986e-3,,819.3e-3,721e-3,687.7e-3,717.4e-3
194,nom,5,296e-9,14e-9,,,,,,,,196.4e-3,8.506e-6,10.55e-3,131.9e-3,,,6.986e-3,,819.2e-3,721e-3,706.8e-3,717.4e-3
195,nom,5,297e-9,15e-9,,,,,,,,196.1e-3,8.506e-6,1.268e-3,160.3e-3,,,6.986e-3,,819e-3,721e-3,716.1e-3,717.4e-3
196,nom,5,298e-9,16e-9,,,,,,,,196.1e-3,8.505e-6,-298.8e-6,176.1e-3,,,6.986e-3,,819e-3,721e-3,717.7e-3,717.4e-3
197,nom,5,299e-9,17e-9,,,,,,,,196.6e-3,8.505e-6,-12.64e-6,177.7e-3,,,6.986e-3,,819.3e-3,721e-3,717.4e-3,717.4e-3
198,nom,5,300e-9,18e-9,,,,,,,,196.5e-3,8.505e-6,-10.89e-6,177.4e-3,,,6.986e-3,,819.2e-3,721e-3,717.4e-3,717.4e-3
199,nom,5,301e-9,19e-9,,,,,,,,196.5e-3,8.505e-6,-14.49e-6,178e-3,,,6.986e-3,,819.2e-3,721e-3,717.4e-3,717.4e-3
200,nom,5,302e-9,20e-9,,,,,,,,196.5e-3,8.505e-6,-14.59e-6,178.6e-3,,,6.986e-3,,819.2e-3,721e-3,717.4e-3,717.4e-3
201,nom,5,303e-9,21e-9,,,,,,,,196.5e-3,8.505e-6,-14.58e-6,179.3e-3,,,6.986e-3,,819.2e-3,721e-3,717.4e-3,717.4e-3
202,nom,5,304e-9,22e-9,,,,,,,,196.5e-3,8.505e-6,-14.56e-6,180.1e-3,,,6.986e-3,,819.2e-3,721e-3,717.4e-3,717.4e-3
203,nom,5,305e-9,23e-9,,,,,,,,196.5e-3,8.505e-6,-14.54e-6,180.9e-3,,,6.986e-3,,819.2e-3,721e-3,717.4e-3,717.4e-3
204,nom,5,306e-9,24e-9,,,,,,,,196.5e-3,8.505e-6,-14.53e-6,182e-3,,,6.986e-3,,819.2e-3,721e-3,717.4e-3,717.4e-3
205,nom,5,307e-9,25e-9,,,,,,,,196.5e-3,8.505e-6,-14.5e-6,182.9e-3,,,6.986e-3,,819.2e-3,721e-3,717.4e-3,717.4e-3


206,nom,6,267e-9,-15e-9,,,,,,,,230.9e-3,137.3e-3,38.52e-3,-1.795e-3,,,6.986e-3,,836.5e-3,721e-3,678.9e-3,717.4e-3
207,nom,6,268e-9,-14e-9,,,,,,,,230.9e-3,100.2e-3,57.23e-3,442.1e-6,,,6.986e-3,,836.5e-3,721e-3,660.2e-3,717.4e-3
208,nom,6,269e-9,-13e-9,,,,,,,,231e-3,64.65e-3,84.9e-3,3.178e-3,,,6.986e-3,,836.5e-3,721e-3,632.5e-3,717.4e-3
209,nom,6,270e-9,-12e-9,,,,,,,,231.6e-3,34.03e-3,120.1e-3,6.922e-3,,,6.986e-3,,836.8e-3,721e-3,597.3e-3,717.4e-3
210,nom,6,271e-9,-11e-9,,,,,,,,231e-3,12.23e-3,158.8e-3,10.39e-3,,,6.986e-3,,836.5e-3,721e-3,558.6e-3,717.4e-3
211,nom,6,272e-9,-10e-9,,,,,,,,230.8e-3,1.539e-3,191.1e-3,13.54e-3,,,6.986e-3,,836.4e-3,721e-3,526.3e-3,717.4e-3
212,nom,6,273e-9,-9e-9,,,,,,,,230.8e-3,-323.3e-6,209.2e-3,15.11e-3,,,6.986e-3,,836.4e-3,721e-3,508.1e-3,717.4e-3
213,nom,6,274e-9,-8e-9,,,,,,,,231.1e-3,6.828e-6,211.5e-3,15.44e-3,,,6.986e-3,,836.5e-3,721e-3,505.9e-3,717.4e-3
214,nom,6,275e-9,-7e-9,,,,,,,,231e-3,11.53e-6,211.2e-3,15.5e-3,,,6.986e-3,,836.5e-3,721e-3,506.2e-3,717.4e-3
215,nom,6,276e-9,-6e-9,,,,,,,,230.9e-3,7.75e-6,211.9e-3,15.54e-3,,,6.986e-3,,836.5e-3,721e-3,505.5e-3,717.4e-3
216,nom,6,277e-9,-5e-9,,,,,,,,231e-3,7.651e-6,212.5e-3,15.47e-3,,,6.986e-3,,836.5e-3,721e-3,504.9e-3,717.4e-3
217,nom,6,278e-9,-4e-9,,,,,,,,231e-3,7.674e-6,213.3e-3,15.28e-3,,,6.986e-3,,836.5e-3,721e-3,504.1e-3,717.4e-3
218,nom,6,279e-9,-3e-9,,,,,,,,230.9e-3,7.702e-6,214.2e-3,14.9e-3,,,6.986e-3,,836.5e-3,721e-3,503.2e-3,717.4e-3
219,nom,6,280e-9,-2e-9,,,,,,,,230.9e-3,7.729e-6,215.2e-3,14.37e-3,,,6.986e-3,,836.5e-3,721e-3,502.2e-3,717.4e-3
220,nom,6,281e-9,-1e-9,,,,,,,,230.9e-3,7.734e-6,216.4e-3,13.74e-3,,,6.986e-3,,836.5e-3,721e-3,501e-3,717.4e-3
221,nom,6,282e-9,2.068e-24,,,,,,,,230.9e-3,7.708e-6,217.5e-3,12.9e-3,,,6.986e-3,,836.5e-3,721e-3,499.9e-3,717.4e-3
222,nom,6,283e-9,1e-9,,,,,,,,230.9e-3,7.797e-6,218.5e-3,12.03e-3,,,6.986e-3,,836.5e-3,721e-3,498.9e-3,717.4e-3
223,nom,6,284e-9,2e-9,,,,,,,,230.9e-3,8.34e-6,219.3e-3,11.22e-3,,,6.986e-3,,836.5e-3,721e-3,498.1e-3,717.4e-3
224,nom,6,285e-9,3e-9,,,,,,,,231e-3,9.608e-6,219.9e-3,10.4e-3,,,6.986e-3,,836.5e-3,721e-3,497.5e-3,717.4e-3
225,nom,6,286e-9,4e-9,,,,,,,,231e-3,11.1e-6,220.4e-3,9.958e-3,,,6.986e-3,,836.5e-3,721e-3,497e-3,717.4e-3
226,nom,6,287e-9,5e-9,,,,,,,,231e-3,12.09e-6,220.6e-3,10.17e-3,,,6.986e-3,,836.5e-3,721e-3,496.8e-3,717.4e-3
227,nom,6,288e-9,6e-9,,,,,,,,230.9e-3,12.42e-6,219.1e-3,11.41e-3,,,6.986e-3,,836.5e-3,721e-3,498.3e-3,717.4e-3
228,nom,6,289e-9,7e-9,,,,,,,,230.9e-3,12.17e-6,213.1e-3,14.12e-3,,,6.986e-3,,836.5e-3,721e-3,504.3e-3,717.4e-3
229,nom,6,290e-9,8e-9,,,,,,,,230.9e-3,11.4e-6,197.9e-3,18.67e-3,,,6.986e-3,,836.5e-3,721e-3,519.4e-3,717.4e-3
230,nom,6,291e-9,9e-9,,,,,,,,230.9e-3,10.11e-6,171.9e-3,26.18e-3,,,6.986e-3,,836.5e-3,721e-3,545.5e-3,717.4e-3
231,nom,6,292e-9,10e-9,,,,,,,,230.9e-3,8.584e-6,137.3e-3,38.52e-3,,,6.986e-3,,836.5e-3,721e-3,580.1e-3,717.4e-3
232,nom,6,293e-9,11e-9,,,,,,,,230.9e-3,7.697e-6,100.2e-3,57.31e-3,,,6.986e-3,,836.5e-3,721e-3,617.2e-3,717.4e-3
233,nom,6,294e-9,12e-9,,,,,,,,230.9e-3,7.753e-6,64.62e-3,84.88e-3,,,6.986e-3,,836.5e-3,721e-3,652.8e-3,717.4e-3
234,nom,6,295e-9,13e-9,,,,,,,,231.6e-3,8.507e-6,34.01e-3,120.2e-3,,,6.986e-3,,836.8e-3,721e-3,683.4e-3,717.4e-3
235,nom,6,296e-9,14e-9,,,,,,,,231e-3,8.506e-6,12.21e-3,158.7e-3,,,6.986e-3,,836.5e-3,721e-3,705.2e-3,717.4e-3
236,nom,6,297e-9,15e-9,,,,,,,,230.8e-3,8.506e-6,1.519e-3,191.2e-3,,,6.986e-3,,836.4e-3,721e-3,715.9e-3,717.4e-3
237,nom,6,298e-9,16e-9,,,,,,,,231.1e-3,8.505e-6,-344.9e-6,209.3e-3,,,6.986e-3,,836.5e-3,721e-3,717.7e-3,717.4e-3
238,nom,6,299e-9,17e-9,,,,,,,,231.1e-3,8.505e-6,-13.99e-6,211.5e-3,,,6.986e-3,,836.5e-3,721e-3,717.4e-3,717.4e-3
239,nom,6,300e-9,18e-9,,,,,,,,231.1e-3,8.505e-6,-11.03e-6,211.3e-3,,,6.986e-3,,836.5e-3,721e-3,717.4e-3,717.4e-3
240,nom,6,301e-9,19e-9,,,,,,,,230.9e-3,8.505e-6,-14.56e-6,212e-3,,,6.986e-3,,836.5e-3,721e-3,717.4e-3,717.4e-3
241,nom,6,302e-9,20e-9,,,,,,,,231e-3,8.505e-6,-14.66e-6,212.5e-3,,,6.986e-3,,836.5e-3,721e-3,717.4e-3,717.4e-3
242,nom,6,303e-9,21e-9,,,,,,,,230.9e-3,8.505e-6,-14.64e-6,213.4e-3,,,6.986e-3,,836.5e-3,721e-3,717.4e-3,717.4e-3
243,nom,6,304e-9,22e-9,,,,,,,,230.9e-3,8.505e-6,-14.61e-6,214.3e-3,,,6.986e-3,,836.5e-3,721e-3,717.4e-3,717.4e-3
244,nom,6,305e-9,23e-9,,,,,,,,230.9e-3,8.505e-6,-14.58e-6,215.3e-3,,,6.986e-3,,836.5e-3,721e-3,717.4e-3,717.4e-3
245,nom,6,306e-9,24e-9,,,,,,,,230.9e-3,8.505e-6,-14.58e-6,216.4e-3,,,6.986e-3,,836.5e-3,721e-3,717.4e-3,717.4e-3
246,nom,6,307e-9,25e-9,,,,,,,,230.9e-3,8.505e-6,-14.6e-6,217.5e-3,,,6.986e-3,,836.5e-3,721e-3,717.4e-3,717.4e-3


247,nom,7,267e-9,-15e-9,,,,,,,,262.8e-3,152.2e-3,46.6e-3,-2.362e-3,,,6.986e-3,,852.4e-3,721e-3,670.8e-3,717.4e-3
248,nom,7,268e-9,-14e-9,,,,,,,,262.8e-3,110.3e-3,68.83e-3,489.9e-6,,,6.986e-3,,852.4e-3,721e-3,648.5e-3,717.4e-3
249,nom,7,269e-9,-13e-9,,,,,,,,262.8e-3,71.14e-3,100.9e-3,3.499e-3,,,6.986e-3,,852.4e-3,721e-3,616.5e-3,717.4e-3
250,nom,7,270e-9,-12e-9,,,,,,,,263.9e-3,37.73e-3,140.9e-3,7.839e-3,,,6.986e-3,,852.9e-3,721e-3,576.4e-3,717.4e-3
251,nom,7,271e-9,-11e-9,,,,,,,,262.7e-3,13.69e-3,184.3e-3,11.84e-3,,,6.986e-3,,852.3e-3,721e-3,533.1e-3,717.4e-3
252,nom,7,272e-9,-10e-9,,,,,,,,262.6e-3,1.774e-3,220.8e-3,15.17e-3,,,6.986e-3,,852.3e-3,721e-3,496.6e-3,717.4e-3
253,nom,7,273e-9,-9e-9,,,,,,,,262.7e-3,-364.1e-6,241.1e-3,16.96e-3,,,6.986e-3,,852.3e-3,721e-3,476.3e-3,717.4e-3
254,nom,7,274e-9,-8e-9,,,,,,,,262.9e-3,6.821e-6,243.5e-3,17.29e-3,,,6.986e-3,,852.4e-3,721e-3,473.9e-3,717.4e-3
255,nom,7,275e-9,-7e-9,,,,,,,,263.8e-3,11.42e-6,244.1e-3,17.32e-3,,,6.986e-3,,852.9e-3,721e-3,473.2e-3,717.4e-3
256,nom,7,276e-9,-6e-9,,,,,,,,262.8e-3,7.742e-6,244e-3,17.38e-3,,,6.986e-3,,852.4e-3,721e-3,473.3e-3,717.4e-3
257,nom,7,277e-9,-5e-9,,,,,,,,262.8e-3,7.655e-6,244.7e-3,17.27e-3,,,6.986e-3,,852.4e-3,721e-3,472.6e-3,717.4e-3
258,nom,7,278e-9,-4e-9,,,,,,,,262.8e-3,7.688e-6,245.6e-3,17.01e-3,,,6.986e-3,,852.4e-3,721e-3,471.8e-3,717.4e-3
259,nom,7,279e-9,-3e-9,,,,,,,,262.8e-3,7.73e-6,246.7e-3,16.63e-3,,,6.986e-3,,852.4e-3,721e-3,470.7e-3,717.4e-3
260,nom,7,280e-9,-2e-9,,,,,,,,262.8e-3,7.76e-6,247.8e-3,16.12e-3,,,6.986e-3,,852.4e-3,721e-3,469.6e-3,717.4e-3
261,nom,7,281e-9,-1e-9,,,,,,,,262.8e-3,7.738e-6,249e-3,15.43e-3,,,6.986e-3,,852.4e-3,721e-3,468.4e-3,717.4e-3
262,nom,7,282e-9,2.068e-24,,,,,,,,262.8e-3,7.644e-6,250.2e-3,14.63e-3,,,6.986e-3,,852.4e-3,721e-3,467.2e-3,717.4e-3
263,nom,7,283e-9,1e-9,,,,,,,,262.8e-3,7.696e-6,251.2e-3,13.64e-3,,,6.986e-3,,852.4e-3,721e-3,466.2e-3,717.4e-3
264,nom,7,284e-9,2e-9,,,,,,,,262.8e-3,8.457e-6,251.9e-3,12.72e-3,,,6.986e-3,,852.4e-3,721e-3,465.4e-3,717.4e-3
265,nom,7,285e-9,3e-9,,,,,,,,262.8e-3,10.22e-6,252.5e-3,11.91e-3,,,6.986e-3,,852.4e-3,721e-3,464.9e-3,717.4e-3
266,nom,7,286e-9,4e-9,,,,,,,,262.8e-3,11.9e-6,253.1e-3,11.68e-3,,,6.986e-3,,852.4e-3,721e-3,464.3e-3,717.4e-3
267,nom,7,287e-9,5e-9,,,,,,,,262.8e-3,12.76e-6,253.6e-3,12.11e-3,,,6.986e-3,,852.4e-3,721e-3,463.7e-3,717.4e-3
268,nom,7,288e-9,6e-9,,,,,,,,262.7e-3,12.95e-6,252.5e-3,14.17e-3,,,6.986e-3,,852.4e-3,721e-3,464.8e-3,717.4e-3
269,nom,7,289e-9,7e-9,,,,,,,,262.8e-3,12.63e-6,245.2e-3,17.46e-3,,,6.986e-3,,852.4e-3,721e-3,472.2e-3,717.4e-3
270,nom,7,290e-9,8e-9,,,,,,,,262.8e-3,11.77e-6,225.4e-3,23.21e-3,,,6.986e-3,,852.4e-3,721e-3,491.9e-3,717.4e-3
271,nom,7,291e-9,9e-9,,,,,,,,262.8e-3,10.37e-6,192.6e-3,32.19e-3,,,6.986e-3,,852.4e-3,721e-3,524.8e-3,717.4e-3
272,nom,7,292e-9,10e-9,,,,,,,,262.8e-3,8.691e-6,152.2e-3,46.57e-3,,,6.986e-3,,852.4e-3,721e-3,565.2e-3,717.4e-3
273,nom,7,293e-9,11e-9,,,,,,,,262.8e-3,7.696e-6,110.3e-3,68.72e-3,,,6.986e-3,,852.4e-3,721e-3,607.1e-3,717.4e-3
274,nom,7,294e-9,12e-9,,,,,,,,262.8e-3,7.754e-6,71.12e-3,101e-3,,,6.986e-3,,852.4e-3,721e-3,646.3e-3,717.4e-3
275,nom,7,295e-9,13e-9,,,,,,,,263.9e-3,8.507e-6,37.71e-3,141.1e-3,,,6.986e-3,,852.9e-3,721e-3,679.7e-3,717.4e-3
276,nom,7,296e-9,14e-9,,,,,,,,262.7e-3,8.506e-6,13.67e-3,184.3e-3,,,6.986e-3,,852.3e-3,721e-3,703.7e-3,717.4e-3
277,nom,7,297e-9,15e-9,,,,,,,,262.5e-3,8.506e-6,1.756e-3,221e-3,,,6.986e-3,,852.2e-3,721e-3,715.6e-3,717.4e-3
278,nom,7,298e-9,16e-9,,,,,,,,262.7e-3,8.505e-6,-384.3e-6,241.1e-3,,,6.986e-3,,852.3e-3,721e-3,717.8e-3,717.4e-3
279,nom,7,299e-9,17e-9,,,,,,,,263e-3,8.505e-6,-11.52e-6,243.6e-3,,,6.986e-3,,852.5e-3,721e-3,717.4e-3,717.4e-3
280,nom,7,300e-9,18e-9,,,,,,,,263.6e-3,8.505e-6,-10.72e-6,244.1e-3,,,6.986e-3,,852.8e-3,721e-3,717.4e-3,717.4e-3
281,nom,7,301e-9,19e-9,,,,,,,,262.7e-3,8.505e-6,-14.57e-6,244.1e-3,,,6.986e-3,,852.4e-3,721e-3,717.4e-3,717.4e-3
282,nom,7,302e-9,20e-9,,,,,,,,262.8e-3,8.505e-6,-14.66e-6,244.8e-3,,,6.986e-3,,852.4e-3,721e-3,717.4e-3,717.4e-3
283,nom,7,303e-9,21e-9,,,,,,,,262.7e-3,8.505e-6,-14.62e-6,245.6e-3,,,6.986e-3,,852.4e-3,721e-3,717.4e-3,717.4e-3
284,nom,7,304e-9,22e-9,,,,,,,,262.7e-3,8.505e-6,-14.58e-6,246.7e-3,,,6.986e-3,,852.4e-3,721e-3,717.4e-3,717.4e-3
285,nom,7,305e-9,23e-9,,,,,,,,262.7e-3,8.505e-6,-14.55e-6,247.8e-3,,,6.986e-3,,852.4e-3,721e-3,717.4e-3,717.4e-3
286,nom,7,306e-9,24e-9,,,,,,,,262.7e-3,8.505e-6,-14.57e-6,249e-3,,,6.986e-3,,852.4e-3,721e-3,717.4e-3,717.4e-3
287,nom,7,307e-9,25e-9,,,,,,,,262.7e-3,8.505e-6,-14.67e-6,250.2e-3,,,6.986e-3,,852.4e-3,721e-3,717.4e-3,717.4e-3


288,nom,8,267e-9,-15e-9,,,,,,,,294.6e-3,164.6e-3,55.3e-3,-2.703e-3,,,6.986e-3,,868.3e-3,721e-3,662.1e-3,717.4e-3
289,nom,8,268e-9,-14e-9,,,,,,,,294.6e-3,118.9e-3,81.13e-3,348.5e-6,,,6.986e-3,,868.3e-3,721e-3,636.2e-3,717.4e-3
290,nom,8,269e-9,-13e-9,,,,,,,,294.6e-3,76.8e-3,117.5e-3,4.277e-3,,,6.986e-3,,868.3e-3,721e-3,599.9e-3,717.4e-3
291,nom,8,270e-9,-12e-9,,,,,,,,296.2e-3,41.02e-3,163e-3,8.634e-3,,,6.986e-3,,869.1e-3,721e-3,554.4e-3,717.4e-3
292,nom,8,271e-9,-11e-9,,,,,,,,294.3e-3,15e-3,210.8e-3,13.24e-3,,,6.986e-3,,868.1e-3,721e-3,506.6e-3,717.4e-3
293,nom,8,272e-9,-10e-9,,,,,,,,293.9e-3,1.983e-3,250.8e-3,16.53e-3,,,6.986e-3,,867.9e-3,721e-3,466.5e-3,717.4e-3
294,nom,8,273e-9,-9e-9,,,,,,,,294.2e-3,-399.7e-6,273.2e-3,18.46e-3,,,6.986e-3,,868.1e-3,721e-3,444.2e-3,717.4e-3
295,nom,8,274e-9,-8e-9,,,,,,,,294.5e-3,5.911e-6,275.9e-3,18.8e-3,,,6.986e-3,,868.2e-3,721e-3,441.5e-3,717.4e-3
296,nom,8,275e-9,-7e-9,,,,,,,,295e-3,11.99e-6,276.1e-3,18.98e-3,,,6.986e-3,,868.5e-3,721e-3,441.3e-3,717.4e-3
297,nom,8,276e-9,-6e-9,,,,,,,,294.6e-3,7.735e-6,276.4e-3,18.96e-3,,,6.986e-3,,868.3e-3,721e-3,441e-3,717.4e-3
298,nom,8,277e-9,-5e-9,,,,,,,,294.6e-3,7.652e-6,277.2e-3,18.9e-3,,,6.986e-3,,868.3e-3,721e-3,440.2e-3,717.4e-3
299,nom,8,278e-9,-4e-9,,,,,,,,294.6e-3,7.704e-6,278.1e-3,18.67e-3,,,6.986e-3,,868.3e-3,721e-3,439.3e-3,717.4e-3
300,nom,8,279e-9,-3e-9,,,,,,,,294.6e-3,7.762e-6,279.3e-3,18.27e-3,,,6.986e-3,,868.3e-3,721e-3,438.1e-3,717.4e-3
301,nom,8,280e-9,-2e-9,,,,,,,,294.6e-3,7.795e-6,280.6e-3,17.72e-3,,,6.986e-3,,868.3e-3,721e-3,436.8e-3,717.4e-3
302,nom,8,281e-9,-1e-9,,,,,,,,294.6e-3,7.719e-6,281.9e-3,16.98e-3,,,6.986e-3,,868.3e-3,721e-3,435.5e-3,717.4e-3
303,nom,8,282e-9,2.068e-24,,,,,,,,294.6e-3,7.503e-6,283.1e-3,16.07e-3,,,6.986e-3,,868.3e-3,721e-3,434.2e-3,717.4e-3
304,nom,8,283e-9,1e-9,,,,,,,,294.6e-3,7.545e-6,284.1e-3,15.09e-3,,,6.986e-3,,868.3e-3,721e-3,433.3e-3,717.4e-3
305,nom,8,284e-9,2e-9,,,,,,,,294.6e-3,8.873e-6,284.8e-3,14.12e-3,,,6.986e-3,,868.3e-3,721e-3,432.6e-3,717.4e-3
306,nom,8,285e-9,3e-9,,,,,,,,294.6e-3,11.16e-6,285.2e-3,13.43e-3,,,6.986e-3,,868.3e-3,721e-3,432.2e-3,717.4e-3
307,nom,8,286e-9,4e-9,,,,,,,,294.6e-3,12.72e-6,286.1e-3,13.43e-3,,,6.986e-3,,868.3e-3,721e-3,431.3e-3,717.4e-3
308,nom,8,287e-9,5e-9,,,,,,,,294.6e-3,13.3e-6,287.4e-3,14.37e-3,,,6.986e-3,,868.3e-3,721e-3,429.9e-3,717.4e-3
309,nom,8,288e-9,6e-9,,,,,,,,294.6e-3,13.35e-6,286.7e-3,16.67e-3,,,6.986e-3,,868.3e-3,721e-3,430.7e-3,717.4e-3
310,nom,8,289e-9,7e-9,,,,,,,,294.6e-3,13e-6,276.7e-3,21.12e-3,,,6.986e-3,,868.3e-3,721e-3,440.7e-3,717.4e-3
311,nom,8,290e-9,8e-9,,,,,,,,294.6e-3,12.1e-6,250.4e-3,28.17e-3,,,6.986e-3,,868.3e-3,721e-3,467e-3,717.4e-3
312,nom,8,291e-9,9e-9,,,,,,,,294.6e-3,10.6e-6,210.2e-3,38.83e-3,,,6.986e-3,,868.3e-3,721e-3,507.2e-3,717.4e-3
313,nom,8,292e-9,10e-9,,,,,,,,294.6e-3,8.79e-6,164.6e-3,55.27e-3,,,6.986e-3,,868.3e-3,721e-3,552.8e-3,717.4e-3
314,nom,8,293e-9,11e-9,,,,,,,,294.6e-3,7.695e-6,118.9e-3,81.15e-3,,,6.986e-3,,868.3e-3,721e-3,598.5e-3,717.4e-3
315,nom,8,294e-9,12e-9,,,,,,,,294.6e-3,7.755e-6,76.77e-3,117.5e-3,,,6.986e-3,,868.3e-3,721e-3,640.6e-3,717.4e-3
316,nom,8,295e-9,13e-9,,,,,,,,296.2e-3,8.507e-6,41e-3,162.9e-3,,,6.986e-3,,869.1e-3,721e-3,676.4e-3,717.4e-3
317,nom,8,296e-9,14e-9,,,,,,,,294.3e-3,8.506e-6,14.98e-3,210.7e-3,,,6.986e-3,,868.1e-3,721e-3,702.4e-3,717.4e-3
318,nom,8,297e-9,15e-9,,,,,,,,293.9e-3,8.506e-6,1.963e-3,250.9e-3,,,6.986e-3,,867.9e-3,721e-3,715.4e-3,717.4e-3
319,nom,8,298e-9,16e-9,,,,,,,,294.1e-3,8.505e-6,-420.3e-6,273.2e-3,,,6.986e-3,,868e-3,721e-3,717.8e-3,717.4e-3
320,nom,8,299e-9,17e-9,,,,,,,,294.3e-3,8.505e-6,-12.65e-6,275.9e-3,,,6.986e-3,,868.1e-3,721e-3,717.4e-3,717.4e-3
321,nom,8,300e-9,18e-9,,,,,,,,295e-3,8.505e-6,-10.55e-6,276.2e-3,,,6.986e-3,,868.5e-3,721e-3,717.4e-3,717.4e-3
322,nom,8,301e-9,19e-9,,,,,,,,294.6e-3,8.505e-6,-14.58e-6,276.4e-3,,,6.986e-3,,868.3e-3,721e-3,717.4e-3,717.4e-3
323,nom,8,302e-9,20e-9,,,,,,,,294.6e-3,8.505e-6,-14.66e-6,277.2e-3,,,6.986e-3,,868.3e-3,721e-3,717.4e-3,717.4e-3
324,nom,8,303e-9,21e-9,,,,,,,,294.6e-3,8.505e-6,-14.61e-6,278.1e-3,,,6.986e-3,,868.3e-3,721e-3,717.4e-3,717.4e-3
325,nom,8,304e-9,22e-9,,,,,,,,294.6e-3,8.505e-6,-14.55e-6,279.3e-3,,,6.986e-3,,868.3e-3,721e-3,717.4e-3,717.4e-3
326,nom,8,305e-9,23e-9,,,,,,,,294.6e-3,8.505e-6,-14.52e-6,280.6e-3,,,6.986e-3,,868.3e-3,721e-3,717.4e-3,717.4e-3
327,nom,8,306e-9,24e-9,,,,,,,,294.6e-3,8.505e-6,-14.59e-6,282e-3,,,6.986e-3,,868.3e-3,721e-3,717.4e-3,717.4e-3
328,nom,8,307e-9,25e-9,,,,,,,,294.6e-3,8.505e-6,-14.81e-6,283.2e-3,,,6.986e-3,,868.3e-3,721e-3,717.4e-3,717.4e-3


329,nom,9,267e-9,-15e-9,,,,,,,,324.3e-3,174e-3,64.48e-3,-3.232e-3,,,6.986e-3,,883.1e-3,721e-3,652.9e-3,717.4e-3
330,nom,9,268e-9,-14e-9,,,,,,,,324.3e-3,125.8e-3,93.57e-3,430.6e-6,,,6.986e-3,,883.1e-3,721e-3,623.8e-3,717.4e-3
331,nom,9,269e-9,-13e-9,,,,,,,,324.3e-3,81.64e-3,134.5e-3,4.638e-3,,,6.986e-3,,883.1e-3,721e-3,582.9e-3,717.4e-3
332,nom,9,270e-9,-12e-9,,,,,,,,326.8e-3,43.82e-3,184.7e-3,9.586e-3,,,6.986e-3,,884.4e-3,721e-3,532.7e-3,717.4e-3
333,nom,9,271e-9,-11e-9,,,,,,,,324e-3,16.14e-3,236.8e-3,14.27e-3,,,6.986e-3,,883e-3,721e-3,480.6e-3,717.4e-3
334,nom,9,272e-9,-10e-9,,,,,,,,323.9e-3,2.17e-3,279.7e-3,17.68e-3,,,6.986e-3,,882.9e-3,721e-3,437.6e-3,717.4e-3
335,nom,9,273e-9,-9e-9,,,,,,,,324.2e-3,-434.1e-6,303.7e-3,19.63e-3,,,6.986e-3,,883.1e-3,721e-3,413.7e-3,717.4e-3
336,nom,9,274e-9,-8e-9,,,,,,,,324.2e-3,5.344e-6,306.8e-3,20.12e-3,,,6.986e-3,,883.1e-3,721e-3,410.6e-3,717.4e-3
337,nom,9,275e-9,-7e-9,,,,,,,,324.8e-3,12.11e-6,307.1e-3,20.21e-3,,,6.986e-3,,883.4e-3,721e-3,410.3e-3,717.4e-3
338,nom,9,276e-9,-6e-9,,,,,,,,324.3e-3,7.732e-6,307.3e-3,20.27e-3,,,6.986e-3,,883.1e-3,721e-3,410.1e-3,717.4e-3
339,nom,9,277e-9,-5e-9,,,,,,,,324.3e-3,7.668e-6,308.2e-3,20.23e-3,,,6.986e-3,,883.1e-3,721e-3,409.1e-3,717.4e-3
340,nom,9,278e-9,-4e-9,,,,,,,,324.3e-3,7.738e-6,309.3e-3,20.01e-3,,,6.986e-3,,883.1e-3,721e-3,408.1e-3,717.4e-3
341,nom,9,279e-9,-3e-9,,,,,,,,324.3e-3,7.811e-6,310.5e-3,19.59e-3,,,6.986e-3,,883.1e-3,721e-3,406.9e-3,717.4e-3
342,nom,9,280e-9,-2e-9,,,,,,,,324.3e-3,7.816e-6,311.9e-3,18.98e-3,,,6.986e-3,,883.1e-3,721e-3,405.5e-3,717.4e-3
343,nom,9,281e-9,-1e-9,,,,,,,,324.3e-3,7.625e-6,313.3e-3,18.22e-3,,,6.986e-3,,883.1e-3,721e-3,404.1e-3,717.4e-3
344,nom,9,282e-9,2.068e-24,,,,,,,,324.3e-3,7.222e-6,314.5e-3,17.4e-3,,,6.986e-3,,883.1e-3,721e-3,402.9e-3,717.4e-3
345,nom,9,283e-9,1e-9,,,,,,,,324.3e-3,7.51e-6,315.3e-3,16.42e-3,,,6.986e-3,,883.1e-3,721e-3,402.1e-3,717.4e-3
346,nom,9,284e-9,2e-9,,,,,,,,324.3e-3,9.711e-6,315.7e-3,15.51e-3,,,6.986e-3,,883.1e-3,721e-3,401.6e-3,717.4e-3
347,nom,9,285e-9,3e-9,,,,,,,,324.3e-3,12.26e-6,316.3e-3,14.92e-3,,,6.986e-3,,883.1e-3,721e-3,401.1e-3,717.4e-3
348,nom,9,286e-9,4e-9,,,,,,,,324.3e-3,13.35e-6,317.8e-3,15.09e-3,,,6.986e-3,,883.1e-3,721e-3,399.5e-3,717.4e-3
349,nom,9,287e-9,5e-9,,,,,,,,324.3e-3,13.63e-6,320.7e-3,16.49e-3,,,6.986e-3,,883.1e-3,721e-3,396.7e-3,717.4e-3
350,nom,9,288e-9,6e-9,,,,,,,,324.3e-3,13.6e-6,319.6e-3,19.76e-3,,,6.986e-3,,883.1e-3,721e-3,397.7e-3,717.4e-3
351,nom,9,289e-9,7e-9,,,,,,,,324.3e-3,13.28e-6,304.4e-3,25.11e-3,,,6.986e-3,,883.1e-3,721e-3,413e-3,717.4e-3
352,nom,9,290e-9,8e-9,,,,,,,,324.3e-3,12.38e-6,269.7e-3,33.29e-3,,,6.986e-3,,883.1e-3,721e-3,447.7e-3,717.4e-3
353,nom,9,291e-9,9e-9,,,,,,,,324.3e-3,10.8e-6,223.1e-3,45.82e-3,,,6.986e-3,,883.1e-3,721e-3,494.3e-3,717.4e-3
354,nom,9,292e-9,10e-9,,,,,,,,324.3e-3,8.877e-6,174e-3,64.49e-3,,,6.986e-3,,883.1e-3,721e-3,543.4e-3,717.4e-3
355,nom,9,293e-9,11e-9,,,,,,,,324.3e-3,7.695e-6,125.8e-3,93.56e-3,,,6.986e-3,,883.1e-3,721e-3,591.6e-3,717.4e-3
356,nom,9,294e-9,12e-9,,,,,,,,324.3e-3,7.757e-6,81.62e-3,134.5e-3,,,6.986e-3,,883.1e-3,721e-3,635.8e-3,717.4e-3
357,nom,9,295e-9,13e-9,,,,,,,,326.8e-3,8.507e-6,43.8e-3,184.8e-3,,,6.986e-3,,884.4e-3,721e-3,673.6e-3,717.4e-3
358,nom,9,296e-9,14e-9,,,,,,,,324e-3,8.506e-6,16.12e-3,236.7e-3,,,6.986e-3,,883e-3,721e-3,701.3e-3,717.4e-3
359,nom,9,297e-9,15e-9,,,,,,,,323.9e-3,8.506e-6,2.15e-3,279.7e-3,,,6.986e-3,,882.9e-3,721e-3,715.2e-3,717.4e-3
360,nom,9,298e-9,16e-9,,,,,,,,324.2e-3,8.505e-6,-453.7e-6,303.7e-3,,,6.986e-3,,883.1e-3,721e-3,717.8e-3,717.4e-3
361,nom,9,299e-9,17e-9,,,,,,,,324.2e-3,8.505e-6,-15.29e-6,306.8e-3,,,6.986e-3,,883.1e-3,721e-3,717.4e-3,717.4e-3
362,nom,9,300e-9,18e-9,,,,,,,,324.9e-3,8.505e-6,-10.35e-6,307.1e-3,,,6.986e-3,,883.4e-3,721e-3,717.4e-3,717.4e-3
363,nom,9,301e-9,19e-9,,,,,,,,324.3e-3,8.505e-6,-14.58e-6,307.3e-3,,,6.986e-3,,883.1e-3,721e-3,717.4e-3,717.4e-3
364,nom,9,302e-9,20e-9,,,,,,,,324.3e-3,8.505e-6,-14.64e-6,308.2e-3,,,6.986e-3,,883.1e-3,721e-3,717.4e-3,717.4e-3
365,nom,9,303e-9,21e-9,,,,,,,,324.3e-3,8.505e-6,-14.57e-6,309.3e-3,,,6.986e-3,,883.1e-3,721e-3,717.4e-3,717.4e-3
366,nom,9,304e-9,22e-9,,,,,,,,324.3e-3,8.505e-6,-14.5e-6,310.5e-3,,,6.986e-3,,883.1e-3,721e-3,717.4e-3,717.4e-3
367,nom,9,305e-9,23e-9,,,,,,,,324.3e-3,8.505e-6,-14.5e-6,311.9e-3,,,6.986e-3,,883.1e-3,721e-3,717.4e-3,717.4e-3
368,nom,9,306e-9,24e-9,,,,,,,,324.3e-3,8.505e-6,-14.69e-6,313.3e-3,,,6.986e-3,,883.1e-3,721e-3,717.4e-3,717.4e-3
369,nom,9,307e-9,25e-9,,,,,,,,324.3e-3,8.505e-6,-15.09e-6,314.5e-3,,,6.986e-3,,883.1e-3,721e-3,717.4e-3,717.4e-3


370,nom,10,267e-9,-15e-9,,,,,,,,353.5e-3,181.1e-3,74.55e-3,-3.966e-3,,,6.986e-3,,897.7e-3,721e-3,642.8e-3,717.4e-3
371,nom,10,268e-9,-14e-9,,,,,,,,353.5e-3,131.5e-3,106.9e-3,338.3e-6,,,6.986e-3,,897.7e-3,721e-3,610.4e-3,717.4e-3
372,nom,10,269e-9,-13e-9,,,,,,,,353.5e-3,85.71e-3,152.3e-3,4.963e-3,,,6.986e-3,,897.7e-3,721e-3,565e-3,717.4e-3
373,nom,10,270e-9,-12e-9,,,,,,,,356.9e-3,46.27e-3,207e-3,10.47e-3,,,6.986e-3,,899.4e-3,721e-3,510.3e-3,717.4e-3
374,nom,10,271e-9,-11e-9,,,,,,,,353.2e-3,17.14e-3,263e-3,15.16e-3,,,6.986e-3,,897.6e-3,721e-3,454.4e-3,717.4e-3
375,nom,10,272e-9,-10e-9,,,,,,,,353.3e-3,2.327e-3,308.5e-3,18.64e-3,,,6.986e-3,,897.6e-3,721e-3,408.9e-3,717.4e-3
376,nom,10,273e-9,-9e-9,,,,,,,,353.5e-3,-464.9e-6,333.5e-3,20.82e-3,,,6.986e-3,,897.7e-3,721e-3,383.8e-3,717.4e-3
377,nom,10,274e-9,-8e-9,,,,,,,,353.7e-3,5.906e-6,336.9e-3,21.27e-3,,,6.986e-3,,897.8e-3,721e-3,380.4e-3,717.4e-3
378,nom,10,275e-9,-7e-9,,,,,,,,353.4e-3,11.49e-6,336.4e-3,21.43e-3,,,6.986e-3,,897.7e-3,721e-3,381e-3,717.4e-3
379,nom,10,276e-9,-6e-9,,,,,,,,353.5e-3,7.74e-6,337.6e-3,21.54e-3,,,6.986e-3,,897.7e-3,721e-3,379.8e-3,717.4e-3
380,nom,10,277e-9,-5e-9,,,,,,,,353.5e-3,7.694e-6,338.5e-3,21.51e-3,,,6.986e-3,,897.7e-3,721e-3,378.9e-3,717.4e-3
381,nom,10,278e-9,-4e-9,,,,,,,,353.5e-3,7.782e-6,339.6e-3,21.26e-3,,,6.986e-3,,897.7e-3,721e-3,377.7e-3,717.4e-3
382,nom,10,279e-9,-3e-9,,,,,,,,353.5e-3,7.853e-6,340.9e-3,20.89e-3,,,6.986e-3,,897.7e-3,721e-3,376.4e-3,717.4e-3
383,nom,10,280e-9,-2e-9,,,,,,,,353.5e-3,7.795e-6,342.4e-3,20.35e-3,,,6.986e-3,,897.7e-3,721e-3,375e-3,717.4e-3
384,nom,10,281e-9,-1e-9,,,,,,,,353.5e-3,7.372e-6,343.8e-3,19.57e-3,,,6.986e-3,,897.7e-3,721e-3,373.6e-3,717.4e-3
385,nom,10,282e-9,2.068e-24,,,,,,,,353.5e-3,6.816e-6,344.9e-3,18.68e-3,,,6.986e-3,,897.7e-3,721e-3,372.5e-3,717.4e-3
386,nom,10,283e-9,1e-9,,,,,,,,353.5e-3,7.922e-6,345.4e-3,17.76e-3,,,6.986e-3,,897.7e-3,721e-3,371.9e-3,717.4e-3
387,nom,10,284e-9,2e-9,,,,,,,,353.5e-3,11.13e-6,345.8e-3,16.99e-3,,,6.986e-3,,897.7e-3,721e-3,371.6e-3,717.4e-3
388,nom,10,285e-9,3e-9,,,,,,,,353.5e-3,13.16e-6,346.8e-3,16.57e-3,,,6.986e-3,,897.7e-3,721e-3,370.6e-3,717.4e-3
389,nom,10,286e-9,4e-9,,,,,,,,353.5e-3,13.71e-6,349.9e-3,17.08e-3,,,6.986e-3,,897.7e-3,721e-3,367.4e-3,717.4e-3
390,nom,10,287e-9,5e-9,,,,,,,,353.5e-3,13.81e-6,354.5e-3,19.19e-3,,,6.986e-3,,897.7e-3,721e-3,362.9e-3,717.4e-3
391,nom,10,288e-9,6e-9,,,,,,,,353.5e-3,13.75e-6,351.2e-3,23.27e-3,,,6.986e-3,,897.7e-3,721e-3,366.2e-3,717.4e-3
392,nom,10,289e-9,7e-9,,,,,,,,353.5e-3,13.48e-6,326.8e-3,28.88e-3,,,6.986e-3,,897.7e-3,721e-3,390.6e-3,717.4e-3
393,nom,10,290e-9,8e-9,,,,,,,,353.5e-3,12.62e-6,283.2e-3,37.33e-3,,,6.986e-3,,897.7e-3,721e-3,434.2e-3,717.4e-3
394,nom,10,291e-9,9e-9,,,,,,,,353.5e-3,10.99e-6,232.2e-3,52.39e-3,,,6.986e-3,,897.7e-3,721e-3,485.2e-3,717.4e-3
395,nom,10,292e-9,10e-9,,,,,,,,353.5e-3,8.956e-6,181e-3,74.54e-3,,,6.986e-3,,897.7e-3,721e-3,536.3e-3,717.4e-3
396,nom,10,293e-9,11e-9,,,,,,,,353.5e-3,7.695e-6,131.4e-3,106.9e-3,,,6.986e-3,,897.7e-3,721e-3,586e-3,717.4e-3
397,nom,10,294e-9,12e-9,,,,,,,,353.5e-3,7.758e-6,85.7e-3,152.4e-3,,,6.986e-3,,897.7e-3,721e-3,631.7e-3,717.4e-3
398,nom,10,295e-9,13e-9,,,,,,,,356.9e-3,8.507e-6,46.25e-3,207.1e-3,,,6.986e-3,,899.4e-3,721e-3,671.1e-3,717.4e-3
399,nom,10,296e-9,14e-9,,,,,,,,353.2e-3,8.506e-6,17.13e-3,263.1e-3,,,6.986e-3,,897.6e-3,721e-3,700.3e-3,717.4e-3
400,nom,10,297e-9,15e-9,,,,,,,,353.3e-3,8.506e-6,2.307e-3,308.5e-3,,,6.986e-3,,897.6e-3,721e-3,715.1e-3,717.4e-3
401,nom,10,298e-9,16e-9,,,,,,,,353.5e-3,8.505e-6,-485.4e-6,333.5e-3,,,6.986e-3,,897.7e-3,721e-3,717.9e-3,717.4e-3
402,nom,10,299e-9,17e-9,,,,,,,,353.5e-3,8.505e-6,-13.13e-6,336.9e-3,,,6.986e-3,,897.7e-3,721e-3,717.4e-3,717.4e-3
403,nom,10,300e-9,18e-9,,,,,,,,353.6e-3,8.505e-6,-11.3e-6,336.7e-3,,,6.986e-3,,897.8e-3,721e-3,717.4e-3,717.4e-3
404,nom,10,301e-9,19e-9,,,,,,,,353.5e-3,8.505e-6,-14.57e-6,337.6e-3,,,6.986e-3,,897.7e-3,721e-3,717.4e-3,717.4e-3
405,nom,10,302e-9,20e-9,,,,,,,,353.5e-3,8.505e-6,-14.62e-6,338.5e-3,,,6.986e-3,,897.7e-3,721e-3,717.4e-3,717.4e-3
406,nom,10,303e-9,21e-9,,,,,,,,353.5e-3,8.505e-6,-14.53e-6,339.7e-3,,,6.986e-3,,897.7e-3,721e-3,717.4e-3,717.4e-3
407,nom,10,304e-9,22e-9,,,,,,,,353.5e-3,8.505e-6,-14.46e-6,341e-3,,,6.986e-3,,897.7e-3,721e-3,717.4e-3,717.4e-3
408,nom,10,305e-9,23e-9,,,,,,,,353.5e-3,8.505e-6,-14.52e-6,342.4e-3,,,6.986e-3,,897.7e-3,721e-3,717.4e-3,717.4e-3
409,nom,10,306e-9,24e-9,,,,,,,,353.5e-3,8.505e-6,-14.94e-6,343.8e-3,,,6.986e-3,,897.7e-3,721e-3,717.4e-3,717.4e-3
410,nom,10,307e-9,25e-9,,,,,,,,353.5e-3,8.505e-6,-15.5e-6,344.9e-3,,,6.986e-3,,897.7e-3,721e-3,717.4e-3,717.4e-3


411,nom,11,267e-9,-15e-9,,,,,,,,380.7e-3,186e-3,84.71e-3,-4.534e-3,,,6.986e-3,,911.3e-3,721e-3,632.7e-3,717.4e-3
412,nom,11,268e-9,-14e-9,,,,,,,,380.7e-3,135.7e-3,120.5e-3,87.83e-6,,,6.986e-3,,911.3e-3,721e-3,596.9e-3,717.4e-3
413,nom,11,269e-9,-13e-9,,,,,,,,380.7e-3,89.03e-3,170.1e-3,5.14e-3,,,6.986e-3,,911.3e-3,721e-3,547.3e-3,717.4e-3
414,nom,11,270e-9,-12e-9,,,,,,,,384.7e-3,48.34e-3,229e-3,10.95e-3,,,6.986e-3,,913.3e-3,721e-3,488.4e-3,717.4e-3
415,nom,11,271e-9,-11e-9,,,,,,,,380.2e-3,18.01e-3,288.2e-3,15.63e-3,,,6.986e-3,,911.1e-3,721e-3,429.2e-3,717.4e-3
416,nom,11,272e-9,-10e-9,,,,,,,,380.5e-3,2.472e-3,335e-3,19.41e-3,,,6.986e-3,,911.2e-3,721e-3,382.4e-3,717.4e-3
417,nom,11,273e-9,-9e-9,,,,,,,,380.4e-3,-493.9e-6,361e-3,21.79e-3,,,6.986e-3,,911.2e-3,721e-3,356.4e-3,717.4e-3
418,nom,11,274e-9,-8e-9,,,,,,,,380.7e-3,5.299e-6,364.7e-3,22.34e-3,,,6.986e-3,,911.3e-3,721e-3,352.6e-3,717.4e-3
419,nom,11,275e-9,-7e-9,,,,,,,,380.7e-3,11.52e-6,364.4e-3,22.48e-3,,,6.986e-3,,911.3e-3,721e-3,353e-3,717.4e-3
420,nom,11,276e-9,-6e-9,,,,,,,,380.7e-3,7.756e-6,365.3e-3,22.62e-3,,,6.986e-3,,911.3e-3,721e-3,352.1e-3,717.4e-3
421,nom,11,277e-9,-5e-9,,,,,,,,380.7e-3,7.735e-6,366.3e-3,22.58e-3,,,6.986e-3,,911.3e-3,721e-3,351.1e-3,717.4e-3
422,nom,11,278e-9,-4e-9,,,,,,,,380.7e-3,7.838e-6,367.6e-3,22.41e-3,,,6.986e-3,,911.3e-3,721e-3,349.8e-3,717.4e-3
423,nom,11,279e-9,-3e-9,,,,,,,,380.7e-3,7.889e-6,369e-3,22.12e-3,,,6.986e-3,,911.3e-3,721e-3,348.4e-3,717.4e-3
424,nom,11,280e-9,-2e-9,,,,,,,,380.7e-3,7.662e-6,370.5e-3,21.51e-3,,,6.986e-3,,911.3e-3,721e-3,346.9e-3,717.4e-3
425,nom,11,281e-9,-1e-9,,,,,,,,380.7e-3,6.916e-6,371.8e-3,20.77e-3,,,6.986e-3,,911.3e-3,721e-3,345.6e-3,717.4e-3
426,nom,11,282e-9,2.068e-24,,,,,,,,380.7e-3,6.481e-6,372.6e-3,19.93e-3,,,6.986e-3,,911.3e-3,721e-3,344.8e-3,717.4e-3
427,nom,11,283e-9,1e-9,,,,,,,,380.7e-3,9.143e-6,373e-3,19.03e-3,,,6.986e-3,,911.3e-3,721e-3,344.4e-3,717.4e-3
428,nom,11,284e-9,2e-9,,,,,,,,380.7e-3,12.49e-6,373.4e-3,18.29e-3,,,6.986e-3,,911.3e-3,721e-3,344e-3,717.4e-3
429,nom,11,285e-9,3e-9,,,,,,,,380.7e-3,13.69e-6,375.5e-3,18.16e-3,,,6.986e-3,,911.3e-3,721e-3,341.9e-3,717.4e-3
430,nom,11,286e-9,4e-9,,,,,,,,380.7e-3,13.87e-6,381.2e-3,19.21e-3,,,6.986e-3,,911.3e-3,721e-3,336.2e-3,717.4e-3
431,nom,11,287e-9,5e-9,,,,,,,,380.7e-3,13.87e-6,386.6e-3,21.89e-3,,,6.986e-3,,911.3e-3,721e-3,330.8e-3,717.4e-3
432,nom,11,288e-9,6e-9,,,,,,,,380.7e-3,13.82e-6,376.8e-3,24.65e-3,,,6.986e-3,,911.3e-3,721e-3,340.5e-3,717.4e-3
433,nom,11,289e-9,7e-9,,,,,,,,380.7e-3,13.61e-6,341.2e-3,27.52e-3,,,6.986e-3,,911.3e-3,721e-3,376.1e-3,717.4e-3
434,nom,11,290e-9,8e-9,,,,,,,,380.7e-3,12.8e-6,291.1e-3,36.87e-3,,,6.986e-3,,911.3e-3,721e-3,426.2e-3,717.4e-3
435,nom,11,291e-9,9e-9,,,,,,,,380.7e-3,11.14e-6,238.1e-3,56.15e-3,,,6.986e-3,,911.3e-3,721e-3,479.3e-3,717.4e-3
436,nom,11,292e-9,10e-9,,,,,,,,380.7e-3,9.024e-6,186e-3,84.67e-3,,,6.986e-3,,911.3e-3,721e-3,531.4e-3,717.4e-3
437,nom,11,293e-9,11e-9,,,,,,,,380.7e-3,7.695e-6,135.7e-3,120.5e-3,,,6.986e-3,,911.3e-3,721e-3,581.7e-3,717.4e-3
438,nom,11,294e-9,12e-9,,,,,,,,380.7e-3,7.759e-6,89.01e-3,170.1e-3,,,6.986e-3,,911.3e-3,721e-3,628.4e-3,717.4e-3
439,nom,11,295e-9,13e-9,,,,,,,,384.7e-3,8.507e-6,48.32e-3,228.9e-3,,,6.986e-3,,913.3e-3,721e-3,669.1e-3,717.4e-3
440,nom,11,296e-9,14e-9,,,,,,,,380.2e-3,8.506e-6,17.99e-3,288.2e-3,,,6.986e-3,,911.1e-3,721e-3,699.4e-3,717.4e-3
441,nom,11,297e-9,15e-9,,,,,,,,380.5e-3,8.506e-6,2.451e-3,335e-3,,,6.986e-3,,911.2e-3,721e-3,714.9e-3,717.4e-3
442,nom,11,298e-9,16e-9,,,,,,,,380.4e-3,8.505e-6,-514.1e-6,361.1e-3,,,6.986e-3,,911.2e-3,721e-3,717.9e-3,717.4e-3
443,nom,11,299e-9,17e-9,,,,,,,,380.7e-3,8.505e-6,-15.9e-6,364.8e-3,,,6.986e-3,,911.3e-3,721e-3,717.4e-3,717.4e-3
444,nom,11,300e-9,18e-9,,,,,,,,380.7e-3,8.505e-6,-10.94e-6,364.5e-3,,,6.986e-3,,911.3e-3,721e-3,717.4e-3,717.4e-3
445,nom,11,301e-9,19e-9,,,,,,,,380.7e-3,8.505e-6,-14.56e-6,365.3e-3,,,6.986e-3,,911.3e-3,721e-3,717.4e-3,717.4e-3
446,nom,11,302e-9,20e-9,,,,,,,,380.7e-3,8.505e-6,-14.57e-6,366.4e-3,,,6.986e-3,,911.3e-3,721e-3,717.4e-3,717.4e-3
447,nom,11,303e-9,21e-9,,,,,,,,380.7e-3,8.505e-6,-14.47e-6,367.6e-3,,,6.986e-3,,911.3e-3,721e-3,717.4e-3,717.4e-3
448,nom,11,304e-9,22e-9,,,,,,,,380.7e-3,8.505e-6,-14.43e-6,369.1e-3,,,6.986e-3,,911.3e-3,721e-3,717.4e-3,717.4e-3
449,nom,11,305e-9,23e-9,,,,,,,,380.7e-3,8.505e-6,-14.65e-6,370.5e-3,,,6.986e-3,,911.3e-3,721e-3,717.4e-3,717.4e-3
450,nom,11,306e-9,24e-9,,,,,,,,380.7e-3,8.505e-6,-15.44e-6,371.8e-3,,,6.986e-3,,911.3e-3,721e-3,717.4e-3,717.4e-3
451,nom,11,307e-9,25e-9,,,,,,,,380.7e-3,8.505e-6,-15.81e-6,372.7e-3,,,6.986e-3,,911.3e-3,721e-3,717.4e-3,717.4e-3


452,nom,12,267e-9,-15e-9,,,,,,,,406.5e-3,189.7e-3,94.3e-3,-4.243e-3,,,6.986e-3,,924.2e-3,721e-3,623.1e-3,717.4e-3
453,nom,12,268e-9,-14e-9,,,,,,,,406.5e-3,139.2e-3,134.7e-3,-193.8e-6,,,6.986e-3,,924.2e-3,721e-3,582.7e-3,717.4e-3
454,nom,12,269e-9,-13e-9,,,,,,,,406.5e-3,91.77e-3,188.2e-3,5.377e-3,,,6.986e-3,,924.2e-3,721e-3,529.1e-3,717.4e-3
455,nom,12,270e-9,-12e-9,,,,,,,,411.4e-3,50.1e-3,251.1e-3,11.21e-3,,,6.986e-3,,926.7e-3,721e-3,466.2e-3,717.4e-3
456,nom,12,271e-9,-11e-9,,,,,,,,406.1e-3,18.77e-3,312.8e-3,16.07e-3,,,6.986e-3,,924e-3,721e-3,404.6e-3,717.4e-3
457,nom,12,272e-9,-10e-9,,,,,,,,406.4e-3,2.589e-3,360.3e-3,20.18e-3,,,6.986e-3,,924.2e-3,721e-3,357e-3,717.4e-3
458,nom,12,273e-9,-9e-9,,,,,,,,406.7e-3,-522.7e-6,387.1e-3,22.44e-3,,,6.986e-3,,924.3e-3,721e-3,330.3e-3,717.4e-3
459,nom,12,274e-9,-8e-9,,,,,,,,406.7e-3,4.279e-6,391e-3,22.97e-3,,,6.986e-3,,924.3e-3,721e-3,326.4e-3,717.4e-3
460,nom,12,275e-9,-7e-9,,,,,,,,406.8e-3,11.47e-6,390.8e-3,23.15e-3,,,6.986e-3,,924.4e-3,721e-3,326.6e-3,717.4e-3
461,nom,12,276e-9,-6e-9,,,,,,,,406.5e-3,7.786e-6,391.6e-3,23.29e-3,,,6.986e-3,,924.2e-3,721e-3,325.8e-3,717.4e-3
462,nom,12,277e-9,-5e-9,,,,,,,,406.5e-3,7.796e-6,392.7e-3,23.26e-3,,,6.986e-3,,924.2e-3,721e-3,324.6e-3,717.4e-3
463,nom,12,278e-9,-4e-9,,,,,,,,406.5e-3,7.904e-6,394e-3,23.07e-3,,,6.986e-3,,924.2e-3,721e-3,323.4e-3,717.4e-3
464,nom,12,279e-9,-3e-9,,,,,,,,406.5e-3,7.854e-6,395.5e-3,22.71e-3,,,6.986e-3,,924.2e-3,721e-3,321.9e-3,717.4e-3
465,nom,12,280e-9,-2e-9,,,,,,,,406.5e-3,7.33e-6,397e-3,22.11e-3,,,6.986e-3,,924.2e-3,721e-3,320.4e-3,717.4e-3
466,nom,12,281e-9,-1e-9,,,,,,,,406.5e-3,6.114e-6,398.1e-3,21.35e-3,,,6.986e-3,,924.2e-3,721e-3,319.3e-3,717.4e-3
467,nom,12,282e-9,2.068e-24,,,,,,,,406.5e-3,6.89e-6,398.6e-3,20.44e-3,,,6.986e-3,,924.2e-3,721e-3,318.7e-3,717.4e-3
468,nom,12,283e-9,1e-9,,,,,,,,406.5e-3,11.1e-6,398.8e-3,19.6e-3,,,6.986e-3,,924.2e-3,721e-3,318.6e-3,717.4e-3
469,nom,12,284e-9,2e-9,,,,,,,,406.5e-3,13.46e-6,399.7e-3,19.14e-3,,,6.986e-3,,924.2e-3,721e-3,317.6e-3,717.4e-3
470,nom,12,285e-9,3e-9,,,,,,,,406.5e-3,13.91e-6,404.2e-3,19.41e-3,,,6.986e-3,,924.2e-3,721e-3,313.2e-3,717.4e-3
471,nom,12,286e-9,4e-9,,,,,,,,406.5e-3,13.9e-6,412.9e-3,20.7e-3,,,6.986e-3,,924.2e-3,721e-3,304.5e-3,717.4e-3
472,nom,12,287e-9,5e-9,,,,,,,,406.5e-3,13.87e-6,416.3e-3,21.53e-3,,,6.986e-3,,924.2e-3,721e-3,301.1e-3,717.4e-3
473,nom,12,288e-9,6e-9,,,,,,,,406.6e-3,13.84e-6,395e-3,21.73e-3,,,6.986e-3,,924.3e-3,721e-3,322.4e-3,717.4e-3
474,nom,12,289e-9,7e-9,,,,,,,,406.5e-3,13.7e-6,349.2e-3,27.37e-3,,,6.986e-3,,924.2e-3,721e-3,368.2e-3,717.4e-3
475,nom,12,290e-9,8e-9,,,,,,,,406.5e-3,12.96e-6,295.8e-3,39.21e-3,,,6.986e-3,,924.2e-3,721e-3,421.6e-3,717.4e-3
476,nom,12,291e-9,9e-9,,,,,,,,406.5e-3,11.27e-6,242.1e-3,59.26e-3,,,6.986e-3,,924.2e-3,721e-3,475.3e-3,717.4e-3
477,nom,12,292e-9,10e-9,,,,,,,,406.5e-3,9.086e-6,189.7e-3,94.21e-3,,,6.986e-3,,924.2e-3,721e-3,527.7e-3,717.4e-3
478,nom,12,293e-9,11e-9,,,,,,,,406.5e-3,7.695e-6,139.1e-3,134.7e-3,,,6.986e-3,,924.2e-3,721e-3,578.2e-3,717.4e-3
479,nom,12,294e-9,12e-9,,,,,,,,406.5e-3,7.76e-6,91.75e-3,188.1e-3,,,6.986e-3,,924.2e-3,721e-3,625.6e-3,717.4e-3
480,nom,12,295e-9,13e-9,,,,,,,,411.4e-3,8.507e-6,50.08e-3,251.2e-3,,,6.986e-3,,926.7e-3,721e-3,667.3e-3,717.4e-3
481,nom,12,296e-9,14e-9,,,,,,,,406.1e-3,8.506e-6,18.75e-3,312.9e-3,,,6.986e-3,,924e-3,721e-3,698.6e-3,717.4e-3
482,nom,12,297e-9,15e-9,,,,,,,,406.4e-3,8.506e-6,2.569e-3,360.6e-3,,,6.986e-3,,924.2e-3,721e-3,714.8e-3,717.4e-3
483,nom,12,298e-9,16e-9,,,,,,,,406.7e-3,8.505e-6,-543.4e-6,387.1e-3,,,6.986e-3,,924.3e-3,721e-3,717.9e-3,717.4e-3
484,nom,12,299e-9,17e-9,,,,,,,,406.7e-3,8.505e-6,-16.42e-6,391e-3,,,6.986e-3,,924.3e-3,721e-3,717.4e-3,717.4e-3
485,nom,12,300e-9,18e-9,,,,,,,,406.9e-3,8.505e-6,-10.89e-6,390.9e-3,,,6.986e-3,,924.4e-3,721e-3,717.4e-3,717.4e-3
486,nom,12,301e-9,19e-9,,,,,,,,406.5e-3,8.505e-6,-14.53e-6,391.6e-3,,,6.986e-3,,924.2e-3,721e-3,717.4e-3,717.4e-3
487,nom,12,302e-9,20e-9,,,,,,,,406.5e-3,8.505e-6,-14.52e-6,392.8e-3,,,6.986e-3,,924.2e-3,721e-3,717.4e-3,717.4e-3
488,nom,12,303e-9,21e-9,,,,,,,,406.4e-3,8.505e-6,-14.41e-6,394.1e-3,,,6.986e-3,,924.2e-3,721e-3,717.4e-3,717.4e-3
489,nom,12,304e-9,22e-9,,,,,,,,406.5e-3,8.505e-6,-14.46e-6,395.5e-3,,,6.986e-3,,924.2e-3,721e-3,717.4e-3,717.4e-3
490,nom,12,305e-9,23e-9,,,,,,,,406.5e-3,8.505e-6,-14.98e-6,397e-3,,,6.986e-3,,924.2e-3,721e-3,717.4e-3,717.4e-3
491,nom,12,306e-9,24e-9,,,,,,,,406.5e-3,8.505e-6,-16.19e-6,398.1e-3,,,6.986e-3,,924.2e-3,721e-3,717.4e-3,717.4e-3
492,nom,12,307e-9,25e-9,,,,,,,,406.5e-3,8.505e-6,-15.42e-6,398.7e-3,,,6.986e-3,,924.2e-3,721e-3,717.4e-3,717.4e-3


493,nom,13,267e-9,-15e-9,,,,,,,,432.8e-3,192.5e-3,103.2e-3,-3.913e-3,,,6.986e-3,,937.4e-3,721e-3,614.1e-3,717.4e-3
494,nom,13,268e-9,-14e-9,,,,,,,,432.8e-3,141.9e-3,150e-3,-623.2e-6,,,6.986e-3,,937.4e-3,721e-3,567.4e-3,717.4e-3
495,nom,13,269e-9,-13e-9,,,,,,,,432.9e-3,94.12e-3,207.5e-3,5.554e-3,,,6.986e-3,,937.4e-3,721e-3,509.9e-3,717.4e-3
496,nom,13,270e-9,-12e-9,,,,,,,,438.2e-3,51.65e-3,274.3e-3,11.35e-3,,,6.986e-3,,940.1e-3,721e-3,443.1e-3,717.4e-3
497,nom,13,271e-9,-11e-9,,,,,,,,432.2e-3,19.43e-3,337.5e-3,16.48e-3,,,6.986e-3,,937.1e-3,721e-3,379.9e-3,717.4e-3
498,nom,13,272e-9,-10e-9,,,,,,,,432.5e-3,2.684e-3,385.7e-3,20.53e-3,,,6.986e-3,,937.2e-3,721e-3,331.7e-3,717.4e-3
499,nom,13,273e-9,-9e-9,,,,,,,,432.8e-3,-552.2e-6,412.6e-3,21.85e-3,,,6.986e-3,,937.4e-3,721e-3,304.7e-3,717.4e-3
500,nom,13,274e-9,-8e-9,,,,,,,,432.6e-3,3.817e-6,416.6e-3,22.21e-3,,,6.986e-3,,937.3e-3,721e-3,300.7e-3,717.4e-3
501,nom,13,275e-9,-7e-9,,,,,,,,431.8e-3,11.98e-6,415.4e-3,22.54e-3,,,6.986e-3,,936.9e-3,721e-3,302e-3,717.4e-3
502,nom,13,276e-9,-6e-9,,,,,,,,432.8e-3,7.752e-6,417.4e-3,22.59e-3,,,6.986e-3,,937.4e-3,721e-3,300e-3,717.4e-3
503,nom,13,277e-9,-5e-9,,,,,,,,432.8e-3,7.875e-6,418.6e-3,22.51e-3,,,6.986e-3,,937.4e-3,721e-3,298.8e-3,717.4e-3
504,nom,13,278e-9,-4e-9,,,,,,,,432.8e-3,7.941e-6,420e-3,22.24e-3,,,6.986e-3,,937.4e-3,721e-3,297.4e-3,717.4e-3
505,nom,13,279e-9,-3e-9,,,,,,,,432.9e-3,7.701e-6,421.5e-3,21.8e-3,,,6.986e-3,,937.4e-3,721e-3,295.9e-3,717.4e-3
506,nom,13,280e-9,-2e-9,,,,,,,,432.8e-3,6.655e-6,422.8e-3,21.06e-3,,,6.986e-3,,937.4e-3,721e-3,294.6e-3,717.4e-3
507,nom,13,281e-9,-1e-9,,,,,,,,432.8e-3,5.629e-6,423.7e-3,20.18e-3,,,6.986e-3,,937.4e-3,721e-3,293.7e-3,717.4e-3
508,nom,13,282e-9,2.068e-24,,,,,,,,432.8e-3,8.684e-6,423.9e-3,19.28e-3,,,6.986e-3,,937.4e-3,721e-3,293.5e-3,717.4e-3
509,nom,13,283e-9,1e-9,,,,,,,,432.9e-3,12.73e-6,424.1e-3,18.65e-3,,,6.986e-3,,937.4e-3,721e-3,293.3e-3,717.4e-3
510,nom,13,284e-9,2e-9,,,,,,,,432.9e-3,13.89e-6,426.6e-3,18.57e-3,,,6.986e-3,,937.4e-3,721e-3,290.7e-3,717.4e-3
511,nom,13,285e-9,3e-9,,,,,,,,432.9e-3,13.95e-6,434.6e-3,19.12e-3,,,6.986e-3,,937.4e-3,721e-3,282.7e-3,717.4e-3
512,nom,13,286e-9,4e-9,,,,,,,,432.9e-3,13.89e-6,445.6e-3,19.11e-3,,,6.986e-3,,937.4e-3,721e-3,271.8e-3,717.4e-3
513,nom,13,287e-9,5e-9,,,,,,,,432.8e-3,13.86e-6,440.8e-3,18.7e-3,,,6.986e-3,,937.4e-3,721e-3,276.6e-3,717.4e-3
514,nom,13,288e-9,6e-9,,,,,,,,432.9e-3,13.85e-6,404.8e-3,22.51e-3,,,6.986e-3,,937.4e-3,721e-3,312.5e-3,717.4e-3
515,nom,13,289e-9,7e-9,,,,,,,,432.9e-3,13.76e-6,353e-3,30.77e-3,,,6.986e-3,,937.4e-3,721e-3,364.3e-3,717.4e-3
516,nom,13,290e-9,8e-9,,,,,,,,432.9e-3,13.08e-6,298.6e-3,44.24e-3,,,6.986e-3,,937.4e-3,721e-3,418.8e-3,717.4e-3
517,nom,13,291e-9,9e-9,,,,,,,,432.9e-3,11.39e-6,244.9e-3,65.52e-3,,,6.986e-3,,937.4e-3,721e-3,472.5e-3,717.4e-3
518,nom,13,292e-9,10e-9,,,,,,,,432.9e-3,9.14e-6,192.5e-3,103.3e-3,,,6.986e-3,,937.4e-3,721e-3,524.9e-3,717.4e-3
519,nom,13,293e-9,11e-9,,,,,,,,432.9e-3,7.695e-6,141.9e-3,150.1e-3,,,6.986e-3,,937.4e-3,721e-3,575.5e-3,717.4e-3
520,nom,13,294e-9,12e-9,,,,,,,,432.8e-3,7.762e-6,94.1e-3,207.4e-3,,,6.986e-3,,937.4e-3,721e-3,623.3e-3,717.4e-3
521,nom,13,295e-9,13e-9,,,,,,,,438.1e-3,8.507e-6,51.62e-3,274.2e-3,,,6.986e-3,,940e-3,721e-3,665.8e-3,717.4e-3
522,nom,13,296e-9,14e-9,,,,,,,,432.2e-3,8.506e-6,19.41e-3,337.6e-3,,,6.986e-3,,937.1e-3,721e-3,698e-3,717.4e-3
523,nom,13,297e-9,15e-9,,,,,,,,432.5e-3,8.506e-6,2.664e-3,385.7e-3,,,6.986e-3,,937.2e-3,721e-3,714.7e-3,717.4e-3
524,nom,13,298e-9,16e-9,,,,,,,,432.7e-3,8.505e-6,-572.4e-6,412.6e-3,,,6.986e-3,,937.3e-3,721e-3,718e-3,717.4e-3
525,nom,13,299e-9,17e-9,,,,,,,,432.6e-3,8.505e-6,-15.86e-6,416.5e-3,,,6.986e-3,,937.3e-3,721e-3,717.4e-3,717.4e-3
526,nom,13,300e-9,18e-9,,,,,,,,432.5e-3,8.505e-6,-11.6e-6,416.1e-3,,,6.986e-3,,937.2e-3,721e-3,717.4e-3,717.4e-3
527,nom,13,301e-9,19e-9,,,,,,,,432.9e-3,8.505e-6,-14.56e-6,417.4e-3,,,6.986e-3,,937.4e-3,721e-3,717.4e-3,717.4e-3
528,nom,13,302e-9,20e-9,,,,,,,,432.8e-3,8.505e-6,-14.44e-6,418.7e-3,,,6.986e-3,,937.4e-3,721e-3,717.4e-3,717.4e-3
529,nom,13,303e-9,21e-9,,,,,,,,432.8e-3,8.505e-6,-14.37e-6,420e-3,,,6.986e-3,,937.4e-3,721e-3,717.4e-3,717.4e-3
530,nom,13,304e-9,22e-9,,,,,,,,432.8e-3,8.505e-6,-14.61e-6,421.5e-3,,,6.986e-3,,937.4e-3,721e-3,717.4e-3,717.4e-3
531,nom,13,305e-9,23e-9,,,,,,,,432.8e-3,8.505e-6,-15.64e-6,422.8e-3,,,6.986e-3,,937.4e-3,721e-3,717.4e-3,717.4e-3
532,nom,13,306e-9,24e-9,,,,,,,,432.8e-3,8.505e-6,-16.7e-6,423.7e-3,,,6.986e-3,,937.4e-3,721e-3,717.4e-3,717.4e-3
533,nom,13,307e-9,25e-9,,,,,,,,432.8e-3,8.505e-6,-13.63e-6,423.9e-3,,,6.986e-3,,937.4e-3,721e-3,717.4e-3,717.4e-3


534,nom,14,267e-9,-15e-9,,,,,,,,457.1e-3,194.6e-3,112e-3,-3.833e-3,,,6.986e-3,,949.5e-3,721e-3,605.4e-3,717.4e-3
535,nom,14,268e-9,-14e-9,,,,,,,,457.1e-3,144.1e-3,165.5e-3,-948.2e-6,,,6.986e-3,,949.5e-3,721e-3,551.8e-3,717.4e-3
536,nom,14,269e-9,-13e-9,,,,,,,,457.1e-3,96e-3,226.9e-3,5.388e-3,,,6.986e-3,,949.5e-3,721e-3,490.5e-3,717.4e-3
537,nom,14,270e-9,-12e-9,,,,,,,,462.9e-3,52.93e-3,296.6e-3,11.34e-3,,,6.986e-3,,952.4e-3,721e-3,420.8e-3,717.4e-3
538,nom,14,271e-9,-11e-9,,,,,,,,456.6e-3,19.98e-3,360.9e-3,16.62e-3,,,6.986e-3,,949.3e-3,721e-3,356.5e-3,717.4e-3
539,nom,14,272e-9,-10e-9,,,,,,,,457.2e-3,2.758e-3,408.7e-3,19.96e-3,,,6.986e-3,,949.6e-3,721e-3,308.7e-3,717.4e-3
540,nom,14,273e-9,-9e-9,,,,,,,,457.3e-3,-579e-6,435.7e-3,19.44e-3,,,6.986e-3,,949.6e-3,721e-3,281.7e-3,717.4e-3
541,nom,14,274e-9,-8e-9,,,,,,,,457e-3,3.401e-6,439.8e-3,19.63e-3,,,6.986e-3,,949.5e-3,721e-3,277.6e-3,717.4e-3
542,nom,14,275e-9,-7e-9,,,,,,,,456.4e-3,10.48e-6,438.8e-3,20.04e-3,,,6.986e-3,,949.2e-3,721e-3,278.5e-3,717.4e-3
543,nom,14,276e-9,-6e-9,,,,,,,,457.1e-3,7.907e-6,440.7e-3,20.01e-3,,,6.986e-3,,949.5e-3,721e-3,276.7e-3,717.4e-3
544,nom,14,277e-9,-5e-9,,,,,,,,457.1e-3,7.941e-6,442e-3,19.92e-3,,,6.986e-3,,949.5e-3,721e-3,275.4e-3,717.4e-3
545,nom,14,278e-9,-4e-9,,,,,,,,457.1e-3,7.92e-6,443.5e-3,19.61e-3,,,6.986e-3,,949.5e-3,721e-3,273.9e-3,717.4e-3
546,nom,14,279e-9,-3e-9,,,,,,,,457.1e-3,7.363e-6,444.9e-3,19.1e-3,,,6.986e-3,,949.5e-3,721e-3,272.5e-3,717.4e-3
547,nom,14,280e-9,-2e-9,,,,,,,,457.1e-3,5.705e-6,446.1e-3,18.35e-3,,,6.986e-3,,949.5e-3,721e-3,271.3e-3,717.4e-3
548,nom,14,281e-9,-1e-9,,,,,,,,457.1e-3,6.073e-6,446.5e-3,17.47e-3,,,6.986e-3,,949.5e-3,721e-3,270.8e-3,717.4e-3
549,nom,14,282e-9,2.068e-24,,,,,,,,457.1e-3,10.96e-6,446.6e-3,16.7e-3,,,6.986e-3,,949.5e-3,721e-3,270.8e-3,717.4e-3
550,nom,14,283e-9,1e-9,,,,,,,,457.1e-3,13.62e-6,447.4e-3,16.49e-3,,,6.986e-3,,949.5e-3,721e-3,270e-3,717.4e-3
551,nom,14,284e-9,2e-9,,,,,,,,457.1e-3,13.99e-6,452.5e-3,16.71e-3,,,6.986e-3,,949.5e-3,721e-3,264.8e-3,717.4e-3
552,nom,14,285e-9,3e-9,,,,,,,,457.1e-3,13.93e-6,464.4e-3,16.8e-3,,,6.986e-3,,949.5e-3,721e-3,253e-3,717.4e-3
553,nom,14,286e-9,4e-9,,,,,,,,457.1e-3,13.86e-6,473.6e-3,17.02e-3,,,6.986e-3,,949.5e-3,721e-3,243.8e-3,717.4e-3
554,nom,14,287e-9,5e-9,,,,,,,,457.1e-3,13.83e-6,455.3e-3,19.68e-3,,,6.986e-3,,949.5e-3,721e-3,262.1e-3,717.4e-3
555,nom,14,288e-9,6e-9,,,,,,,,457.1e-3,13.84e-6,409e-3,25.85e-3,,,6.986e-3,,949.5e-3,721e-3,308.4e-3,717.4e-3
556,nom,14,289e-9,7e-9,,,,,,,,457.1e-3,13.79e-6,354.7e-3,35.73e-3,,,6.986e-3,,949.5e-3,721e-3,362.6e-3,717.4e-3
557,nom,14,290e-9,8e-9,,,,,,,,457.1e-3,13.18e-6,300.3e-3,50.38e-3,,,6.986e-3,,949.5e-3,721e-3,417.1e-3,717.4e-3
558,nom,14,291e-9,9e-9,,,,,,,,457.1e-3,11.49e-6,246.8e-3,73.22e-3,,,6.986e-3,,949.5e-3,721e-3,470.6e-3,717.4e-3
559,nom,14,292e-9,10e-9,,,,,,,,457.1e-3,9.187e-6,194.6e-3,111.9e-3,,,6.986e-3,,949.5e-3,721e-3,522.8e-3,717.4e-3
560,nom,14,293e-9,11e-9,,,,,,,,457.1e-3,7.695e-6,144e-3,165.6e-3,,,6.986e-3,,949.5e-3,721e-3,573.3e-3,717.4e-3
561,nom,14,294e-9,12e-9,,,,,,,,457.1e-3,7.763e-6,95.97e-3,226.9e-3,,,6.986e-3,,949.5e-3,721e-3,621.4e-3,717.4e-3
562,nom,14,295e-9,13e-9,,,,,,,,462.9e-3,8.507e-6,52.91e-3,296.6e-3,,,6.986e-3,,952.4e-3,721e-3,664.5e-3,717.4e-3
563,nom,14,296e-9,14e-9,,,,,,,,456.6e-3,8.506e-6,19.97e-3,360.9e-3,,,6.986e-3,,949.3e-3,721e-3,697.4e-3,717.4e-3
564,nom,14,297e-9,15e-9,,,,,,,,457.2e-3,8.506e-6,2.738e-3,408.7e-3,,,6.986e-3,,949.6e-3,721e-3,714.6e-3,717.4e-3
565,nom,14,298e-9,16e-9,,,,,,,,457.3e-3,8.505e-6,-599.2e-6,435.7e-3,,,6.986e-3,,949.6e-3,721e-3,718e-3,717.4e-3
566,nom,14,299e-9,17e-9,,,,,,,,457.1e-3,8.505e-6,-16.22e-6,439.8e-3,,,6.986e-3,,949.5e-3,721e-3,717.4e-3,717.4e-3
567,nom,14,300e-9,18e-9,,,,,,,,456.5e-3,8.505e-6,-11.75e-6,438.9e-3,,,6.986e-3,,949.2e-3,721e-3,717.4e-3,717.4e-3
568,nom,14,301e-9,19e-9,,,,,,,,457.1e-3,8.505e-6,-14.4e-6,440.7e-3,,,6.986e-3,,949.5e-3,721e-3,717.4e-3,717.4e-3
569,nom,14,302e-9,20e-9,,,,,,,,457.1e-3,8.505e-6,-14.37e-6,442e-3,,,6.986e-3,,949.5e-3,721e-3,717.4e-3,717.4e-3
570,nom,14,303e-9,21e-9,,,,,,,,457.1e-3,8.505e-6,-14.39e-6,443.4e-3,,,6.986e-3,,949.5e-3,721e-3,717.4e-3,717.4e-3
571,nom,14,304e-9,22e-9,,,,,,,,457.1e-3,8.505e-6,-14.93e-6,444.9e-3,,,6.986e-3,,949.5e-3,721e-3,717.4e-3,717.4e-3
572,nom,14,305e-9,23e-9,,,,,,,,457.1e-3,8.505e-6,-16.57e-6,446.1e-3,,,6.986e-3,,949.5e-3,721e-3,717.4e-3,717.4e-3
573,nom,14,306e-9,24e-9,,,,,,,,457.1e-3,8.505e-6,-16.24e-6,446.7e-3,,,6.986e-3,,949.5e-3,721e-3,717.4e-3,717.4e-3
574,nom,14,307e-9,25e-9,,,,,,,,457.1e-3,8.505e-6,-11.35e-6,446.6e-3,,,6.986e-3,,949.5e-3,721e-3,717.4e-3,717.4e-3


575,nom,15,267e-9,-15e-9,,,,,,,,479.9e-3,196.2e-3,121.7e-3,-4.54e-3,,,6.986e-3,,960.9e-3,721e-3,595.7e-3,717.4e-3
576,nom,15,268e-9,-14e-9,,,,,,,,479.9e-3,145.8e-3,181e-3,-1.393e-3,,,6.986e-3,,960.9e-3,721e-3,536.4e-3,717.4e-3
577,nom,15,269e-9,-13e-9,,,,,,,,479.9e-3,97.52e-3,245.9e-3,5.057e-3,,,6.986e-3,,960.9e-3,721e-3,471.5e-3,717.4e-3
578,nom,15,270e-9,-12e-9,,,,,,,,485.7e-3,54.01e-3,317.9e-3,11.19e-3,,,6.986e-3,,963.8e-3,721e-3,399.4e-3,717.4e-3
579,nom,15,271e-9,-11e-9,,,,,,,,479.2e-3,20.46e-3,382.6e-3,16.7e-3,,,6.986e-3,,960.6e-3,721e-3,334.8e-3,717.4e-3
580,nom,15,272e-9,-10e-9,,,,,,,,479.8e-3,2.815e-3,429.5e-3,17.93e-3,,,6.986e-3,,960.9e-3,721e-3,287.9e-3,717.4e-3
581,nom,15,273e-9,-9e-9,,,,,,,,479.8e-3,-606.6e-6,456e-3,16.56e-3,,,6.986e-3,,960.9e-3,721e-3,261.4e-3,717.4e-3
582,nom,15,274e-9,-8e-9,,,,,,,,479.9e-3,2.884e-6,460.1e-3,16.77e-3,,,6.986e-3,,960.9e-3,721e-3,257.3e-3,717.4e-3
583,nom,15,275e-9,-7e-9,,,,,,,,479.2e-3,10.6e-6,459.6e-3,17.18e-3,,,6.986e-3,,960.6e-3,721e-3,257.8e-3,717.4e-3
584,nom,15,276e-9,-6e-9,,,,,,,,479.9e-3,7.992e-6,461.2e-3,17.21e-3,,,6.986e-3,,960.9e-3,721e-3,256.2e-3,717.4e-3
585,nom,15,277e-9,-5e-9,,,,,,,,479.9e-3,7.994e-6,462.6e-3,17.21e-3,,,6.986e-3,,960.9e-3,721e-3,254.8e-3,717.4e-3
586,nom,15,278e-9,-4e-9,,,,,,,,479.9e-3,7.814e-6,464e-3,16.92e-3,,,6.986e-3,,960.9e-3,721e-3,253.4e-3,717.4e-3
587,nom,15,279e-9,-3e-9,,,,,,,,479.9e-3,6.798e-6,465.4e-3,16.52e-3,,,6.986e-3,,960.9e-3,721e-3,252e-3,717.4e-3
588,nom,15,280e-9,-2e-9,,,,,,,,479.9e-3,5.04e-6,466.3e-3,15.86e-3,,,6.986e-3,,960.9e-3,721e-3,251e-3,717.4e-3
589,nom,15,281e-9,-1e-9,,,,,,,,479.9e-3,7.622e-6,466.5e-3,15.11e-3,,,6.986e-3,,960.9e-3,721e-3,250.9e-3,717.4e-3
590,nom,15,282e-9,2.068e-24,,,,,,,,479.9e-3,12.61e-6,466.6e-3,14.67e-3,,,6.986e-3,,960.9e-3,721e-3,250.8e-3,717.4e-3
591,nom,15,283e-9,1e-9,,,,,,,,479.9e-3,13.92e-6,468.7e-3,14.59e-3,,,6.986e-3,,960.9e-3,721e-3,248.7e-3,717.4e-3
592,nom,15,284e-9,2e-9,,,,,,,,479.9e-3,13.98e-6,477e-3,14.96e-3,,,6.986e-3,,960.9e-3,721e-3,240.4e-3,717.4e-3
593,nom,15,285e-9,3e-9,,,,,,,,479.9e-3,13.89e-6,491.5e-3,15.76e-3,,,6.986e-3,,960.9e-3,721e-3,225.9e-3,717.4e-3
594,nom,15,286e-9,4e-9,,,,,,,,479.9e-3,13.83e-6,493.7e-3,17.62e-3,,,6.986e-3,,960.9e-3,721e-3,223.7e-3,717.4e-3
595,nom,15,287e-9,5e-9,,,,,,,,479.9e-3,13.81e-6,461.9e-3,22.33e-3,,,6.986e-3,,960.9e-3,721e-3,255.5e-3,717.4e-3
596,nom,15,288e-9,6e-9,,,,,,,,479.9e-3,13.82e-6,410.4e-3,30.07e-3,,,6.986e-3,,960.9e-3,721e-3,307e-3,717.4e-3
597,nom,15,289e-9,7e-9,,,,,,,,479.9e-3,13.81e-6,355.7e-3,41.08e-3,,,6.986e-3,,960.9e-3,721e-3,361.7e-3,717.4e-3
598,nom,15,290e-9,8e-9,,,,,,,,479.9e-3,13.27e-6,301.5e-3,56.92e-3,,,6.986e-3,,960.9e-3,721e-3,415.9e-3,717.4e-3
599,nom,15,291e-9,9e-9,,,,,,,,479.9e-3,11.58e-6,248.3e-3,81.44e-3,,,6.986e-3,,960.9e-3,721e-3,469.1e-3,717.4e-3
600,nom,15,292e-9,10e-9,,,,,,,,479.9e-3,9.229e-6,196.2e-3,121.7e-3,,,6.986e-3,,960.9e-3,721e-3,521.2e-3,717.4e-3
601,nom,15,293e-9,11e-9,,,,,,,,479.9e-3,7.693e-6,145.7e-3,181e-3,,,6.986e-3,,960.9e-3,721e-3,571.6e-3,717.4e-3
602,nom,15,294e-9,12e-9,,,,,,,,479.9e-3,7.764e-6,97.5e-3,245.9e-3,,,6.986e-3,,960.9e-3,721e-3,619.9e-3,717.4e-3
603,nom,15,295e-9,13e-9,,,,,,,,485.7e-3,8.507e-6,53.99e-3,318.2e-3,,,6.986e-3,,963.8e-3,721e-3,663.4e-3,717.4e-3
604,nom,15,296e-9,14e-9,,,,,,,,479.2e-3,8.506e-6,20.44e-3,382.6e-3,,,6.986e-3,,960.6e-3,721e-3,696.9e-3,717.4e-3
605,nom,15,297e-9,15e-9,,,,,,,,479.5e-3,8.506e-6,2.796e-3,429.5e-3,,,6.986e-3,,960.7e-3,721e-3,714.6e-3,717.4e-3
606,nom,15,298e-9,16e-9,,,,,,,,479.8e-3,8.505e-6,-626.9e-6,456e-3,,,6.986e-3,,960.9e-3,721e-3,718e-3,717.4e-3
607,nom,15,299e-9,17e-9,,,,,,,,479.9e-3,8.505e-6,-17.07e-6,460.1e-3,,,6.986e-3,,960.9e-3,721e-3,717.4e-3,717.4e-3
608,nom,15,300e-9,18e-9,,,,,,,,479.4e-3,8.505e-6,-11.13e-6,459.6e-3,,,6.986e-3,,960.7e-3,721e-3,717.4e-3,717.4e-3
609,nom,15,301e-9,19e-9,,,,,,,,479.9e-3,8.505e-6,-14.32e-6,461.2e-3,,,6.986e-3,,960.9e-3,721e-3,717.4e-3,717.4e-3
610,nom,15,302e-9,20e-9,,,,,,,,479.9e-3,8.505e-6,-14.32e-6,462.6e-3,,,6.986e-3,,960.9e-3,721e-3,717.4e-3,717.4e-3
611,nom,15,303e-9,21e-9,,,,,,,,479.9e-3,8.505e-6,-14.49e-6,464e-3,,,6.986e-3,,960.9e-3,721e-3,717.4e-3,717.4e-3
612,nom,15,304e-9,22e-9,,,,,,,,479.9e-3,8.505e-6,-15.51e-6,465.4e-3,,,6.986e-3,,960.9e-3,721e-3,717.4e-3,717.4e-3
613,nom,15,305e-9,23e-9,,,,,,,,479.9e-3,8.505e-6,-17.28e-6,466.4e-3,,,6.986e-3,,960.9e-3,721e-3,717.4e-3,717.4e-3
614,nom,15,306e-9,24e-9,,,,,,,,479.9e-3,8.505e-6,-14.69e-6,466.6e-3,,,6.986e-3,,960.9e-3,721e-3,717.4e-3,717.4e-3
615,nom,15,307e-9,25e-9,,,,,,,,479.9e-3,8.505e-6,-9.706e-6,466.6e-3,,,6.986e-3,,960.9e-3,721e-3,717.4e-3,717.4e-3


616,nom,16,267e-9,-15e-9,,,,,,,,502.3e-3,197.5e-3,132.7e-3,-5.525e-3,,,6.986e-3,,972.1e-3,721e-3,584.7e-3,717.4e-3
617,nom,16,268e-9,-14e-9,,,,,,,,502.3e-3,147.1e-3,197e-3,-1.796e-3,,,6.986e-3,,972.1e-3,721e-3,520.4e-3,717.4e-3
618,nom,16,269e-9,-13e-9,,,,,,,,502.7e-3,98.82e-3,266.1e-3,4.667e-3,,,6.986e-3,,972.3e-3,721e-3,451.2e-3,717.4e-3
619,nom,16,270e-9,-12e-9,,,,,,,,508.4e-3,54.93e-3,340e-3,10.84e-3,,,6.986e-3,,975.2e-3,721e-3,377.4e-3,717.4e-3
620,nom,16,271e-9,-11e-9,,,,,,,,502.1e-3,20.86e-3,404.1e-3,16.13e-3,,,6.986e-3,,972e-3,721e-3,313.2e-3,717.4e-3
621,nom,16,272e-9,-10e-9,,,,,,,,502.6e-3,2.859e-3,449.3e-3,14.84e-3,,,6.986e-3,,972.3e-3,721e-3,268.1e-3,717.4e-3
622,nom,16,273e-9,-9e-9,,,,,,,,502.8e-3,-632.9e-6,474.9e-3,14.23e-3,,,6.986e-3,,972.4e-3,721e-3,242.4e-3,717.4e-3
623,nom,16,274e-9,-8e-9,,,,,,,,502.9e-3,3.001e-6,479e-3,14.67e-3,,,6.986e-3,,972.4e-3,721e-3,238.3e-3,717.4e-3
624,nom,16,275e-9,-7e-9,,,,,,,,501.2e-3,11.21e-6,478e-3,15.09e-3,,,6.986e-3,,971.6e-3,721e-3,239.4e-3,717.4e-3
625,nom,16,276e-9,-6e-9,,,,,,,,502.7e-3,8.074e-6,480.3e-3,15.18e-3,,,6.986e-3,,972.3e-3,721e-3,237.1e-3,717.4e-3
626,nom,16,277e-9,-5e-9,,,,,,,,502.7e-3,8.009e-6,481.7e-3,15.22e-3,,,6.986e-3,,972.3e-3,721e-3,235.7e-3,717.4e-3
627,nom,16,278e-9,-4e-9,,,,,,,,502.7e-3,7.597e-6,483.2e-3,15.05e-3,,,6.986e-3,,972.4e-3,721e-3,234.2e-3,717.4e-3
628,nom,16,279e-9,-3e-9,,,,,,,,502.7e-3,6.02e-6,484.4e-3,14.67e-3,,,6.986e-3,,972.3e-3,721e-3,233e-3,717.4e-3
629,nom,16,280e-9,-2e-9,,,,,,,,502.7e-3,5.078e-6,485.1e-3,14.16e-3,,,6.986e-3,,972.3e-3,721e-3,232.3e-3,717.4e-3
630,nom,16,281e-9,-1e-9,,,,,,,,502.7e-3,9.831e-6,485.1e-3,13.6e-3,,,6.986e-3,,972.3e-3,721e-3,232.3e-3,717.4e-3
631,nom,16,282e-9,2.068e-24,,,,,,,,502.7e-3,13.41e-6,485.5e-3,13.3e-3,,,6.986e-3,,972.3e-3,721e-3,231.9e-3,717.4e-3
632,nom,16,283e-9,1e-9,,,,,,,,502.7e-3,13.99e-6,489.5e-3,13.38e-3,,,6.986e-3,,972.3e-3,721e-3,227.8e-3,717.4e-3
633,nom,16,284e-9,2e-9,,,,,,,,502.7e-3,13.93e-6,501.5e-3,14.12e-3,,,6.986e-3,,972.3e-3,721e-3,215.9e-3,717.4e-3
634,nom,16,285e-9,3e-9,,,,,,,,502.7e-3,13.87e-6,515.5e-3,15.8e-3,,,6.986e-3,,972.3e-3,721e-3,201.9e-3,717.4e-3
635,nom,16,286e-9,4e-9,,,,,,,,502.7e-3,13.82e-6,506.8e-3,19.56e-3,,,6.986e-3,,972.3e-3,721e-3,210.6e-3,717.4e-3
636,nom,16,287e-9,5e-9,,,,,,,,502.3e-3,13.79e-6,464.6e-3,25.79e-3,,,6.986e-3,,972.1e-3,721e-3,252.8e-3,717.4e-3
637,nom,16,288e-9,6e-9,,,,,,,,502.7e-3,13.81e-6,411e-3,34.66e-3,,,6.986e-3,,972.4e-3,721e-3,306.4e-3,717.4e-3
638,nom,16,289e-9,7e-9,,,,,,,,502.7e-3,13.82e-6,356.5e-3,46.79e-3,,,6.986e-3,,972.3e-3,721e-3,360.9e-3,717.4e-3
639,nom,16,290e-9,8e-9,,,,,,,,502.7e-3,13.34e-6,302.5e-3,64.13e-3,,,6.986e-3,,972.3e-3,721e-3,414.8e-3,717.4e-3
640,nom,16,291e-9,9e-9,,,,,,,,502.7e-3,11.66e-6,249.5e-3,90.74e-3,,,6.986e-3,,972.3e-3,721e-3,467.9e-3,717.4e-3
641,nom,16,292e-9,10e-9,,,,,,,,502.7e-3,9.264e-6,197.5e-3,132.9e-3,,,6.986e-3,,972.3e-3,721e-3,519.9e-3,717.4e-3
642,nom,16,293e-9,11e-9,,,,,,,,502.7e-3,7.687e-6,147.1e-3,197.3e-3,,,6.986e-3,,972.3e-3,721e-3,570.3e-3,717.4e-3
643,nom,16,294e-9,12e-9,,,,,,,,502.7e-3,7.765e-6,98.8e-3,266.1e-3,,,6.986e-3,,972.3e-3,721e-3,618.6e-3,717.4e-3
644,nom,16,295e-9,13e-9,,,,,,,,508.4e-3,8.507e-6,54.91e-3,340.3e-3,,,6.986e-3,,975.2e-3,721e-3,662.5e-3,717.4e-3
645,nom,16,296e-9,14e-9,,,,,,,,502.1e-3,8.506e-6,20.84e-3,404.2e-3,,,6.986e-3,,972e-3,721e-3,696.5e-3,717.4e-3
646,nom,16,297e-9,15e-9,,,,,,,,502.8e-3,8.506e-6,2.838e-3,449.3e-3,,,6.986e-3,,972.4e-3,721e-3,714.5e-3,717.4e-3
647,nom,16,298e-9,16e-9,,,,,,,,502.8e-3,8.505e-6,-653.2e-6,474.9e-3,,,6.986e-3,,972.4e-3,721e-3,718e-3,717.4e-3
648,nom,16,299e-9,17e-9,,,,,,,,502.9e-3,8.505e-6,-16.24e-6,479e-3,,,6.986e-3,,972.4e-3,721e-3,717.4e-3,717.4e-3
649,nom,16,300e-9,18e-9,,,,,,,,501.5e-3,8.505e-6,-11.27e-6,478e-3,,,6.986e-3,,971.7e-3,721e-3,717.4e-3,717.4e-3
650,nom,16,301e-9,19e-9,,,,,,,,502.7e-3,8.505e-6,-14.24e-6,480.3e-3,,,6.986e-3,,972.3e-3,721e-3,717.4e-3,717.4e-3
651,nom,16,302e-9,20e-9,,,,,,,,502.7e-3,8.505e-6,-14.3e-6,481.7e-3,,,6.986e-3,,972.3e-3,721e-3,717.4e-3,717.4e-3
652,nom,16,303e-9,21e-9,,,,,,,,502.3e-3,8.505e-6,-14.71e-6,482.9e-3,,,6.986e-3,,972.1e-3,721e-3,717.4e-3,717.4e-3
653,nom,16,304e-9,22e-9,,,,,,,,502.7e-3,8.505e-6,-16.26e-6,484.4e-3,,,6.986e-3,,972.3e-3,721e-3,717.4e-3,717.4e-3
654,nom,16,305e-9,23e-9,,,,,,,,502.7e-3,8.505e-6,-17.24e-6,485.1e-3,,,6.986e-3,,972.3e-3,721e-3,717.4e-3,717.4e-3
655,nom,16,306e-9,24e-9,,,,,,,,502.7e-3,8.505e-6,-12.48e-6,485.1e-3,,,6.986e-3,,972.3e-3,721e-3,717.4e-3,717.4e-3
656,nom,16,307e-9,25e-9,,,,,,,,502.7e-3,8.505e-6,-8.899e-6,485.5e-3,,,6.986e-3,,972.3e-3,721e-3,717.4e-3,717.4e-3


657,nom,17,267e-9,-15e-9,,,,,,,,523.5e-3,198.5e-3,144.6e-3,-6.529e-3,,,6.986e-3,,982.7e-3,721e-3,572.8e-3,717.4e-3
658,nom,17,268e-9,-14e-9,,,,,,,,523.5e-3,148.2e-3,213.4e-3,-2.196e-3,,,6.986e-3,,982.7e-3,721e-3,504e-3,717.4e-3
659,nom,17,269e-9,-13e-9,,,,,,,,523.5e-3,99.83e-3,285.3e-3,3.962e-3,,,6.986e-3,,982.7e-3,721e-3,432.1e-3,717.4e-3
660,nom,17,270e-9,-12e-9,,,,,,,,528.7e-3,55.69e-3,360.6e-3,10.49e-3,,,6.986e-3,,985.3e-3,721e-3,356.8e-3,717.4e-3
661,nom,17,271e-9,-11e-9,,,,,,,,523.1e-3,21.19e-3,423.4e-3,14.4e-3,,,6.986e-3,,982.5e-3,721e-3,294e-3,717.4e-3
662,nom,17,272e-9,-10e-9,,,,,,,,523.4e-3,2.888e-3,466.1e-3,12.21e-3,,,6.986e-3,,982.7e-3,721e-3,251.2e-3,717.4e-3
663,nom,17,273e-9,-9e-9,,,,,,,,523.6e-3,-659.3e-6,491e-3,12.56e-3,,,6.986e-3,,982.8e-3,721e-3,226.3e-3,717.4e-3
664,nom,17,274e-9,-8e-9,,,,,,,,523.4e-3,2.722e-6,495.1e-3,13.1e-3,,,6.986e-3,,982.7e-3,721e-3,222.2e-3,717.4e-3
665,nom,17,275e-9,-7e-9,,,,,,,,522.5e-3,11.14e-6,494.6e-3,13.52e-3,,,6.986e-3,,982.2e-3,721e-3,222.8e-3,717.4e-3
666,nom,17,276e-9,-6e-9,,,,,,,,523.5e-3,8.159e-6,496.5e-3,13.68e-3,,,6.986e-3,,982.7e-3,721e-3,220.9e-3,717.4e-3
667,nom,17,277e-9,-5e-9,,,,,,,,523.5e-3,7.99e-6,498e-3,13.76e-3,,,6.986e-3,,982.7e-3,721e-3,219.4e-3,717.4e-3
668,nom,17,278e-9,-4e-9,,,,,,,,523.5e-3,7.307e-6,499.4e-3,13.65e-3,,,6.986e-3,,982.7e-3,721e-3,217.9e-3,717.4e-3
669,nom,17,279e-9,-3e-9,,,,,,,,523.5e-3,5.317e-6,500.5e-3,13.39e-3,,,6.986e-3,,982.7e-3,721e-3,216.9e-3,717.4e-3
670,nom,17,280e-9,-2e-9,,,,,,,,523.5e-3,5.928e-6,500.9e-3,12.98e-3,,,6.986e-3,,982.7e-3,721e-3,216.5e-3,717.4e-3
671,nom,17,281e-9,-1e-9,,,,,,,,523.5e-3,11.51e-6,500.8e-3,12.57e-3,,,6.986e-3,,982.7e-3,721e-3,216.6e-3,717.4e-3
672,nom,17,282e-9,2.068e-24,,,,,,,,523.5e-3,13.75e-6,502e-3,12.37e-3,,,6.986e-3,,982.7e-3,721e-3,215.4e-3,717.4e-3
673,nom,17,283e-9,1e-9,,,,,,,,523.5e-3,13.97e-6,508.2e-3,12.74e-3,,,6.986e-3,,982.7e-3,721e-3,209.2e-3,717.4e-3
674,nom,17,284e-9,2e-9,,,,,,,,523.5e-3,13.89e-6,522.6e-3,14.03e-3,,,6.986e-3,,982.7e-3,721e-3,194.8e-3,717.4e-3
675,nom,17,285e-9,3e-9,,,,,,,,523.5e-3,13.86e-6,533.4e-3,16.83e-3,,,6.986e-3,,982.7e-3,721e-3,184e-3,717.4e-3
676,nom,17,286e-9,4e-9,,,,,,,,523.5e-3,13.83e-6,513.4e-3,21.93e-3,,,6.986e-3,,982.7e-3,721e-3,204e-3,717.4e-3
677,nom,17,287e-9,5e-9,,,,,,,,523.5e-3,13.78e-6,465.5e-3,29.23e-3,,,6.986e-3,,982.7e-3,721e-3,251.9e-3,717.4e-3
678,nom,17,288e-9,6e-9,,,,,,,,523.5e-3,13.79e-6,411.4e-3,38.42e-3,,,6.986e-3,,982.7e-3,721e-3,306e-3,717.4e-3
679,nom,17,289e-9,7e-9,,,,,,,,523.5e-3,13.82e-6,357.2e-3,51.71e-3,,,6.986e-3,,982.7e-3,721e-3,360.2e-3,717.4e-3
680,nom,17,290e-9,8e-9,,,,,,,,523.5e-3,13.38e-6,303.5e-3,71.21e-3,,,6.986e-3,,982.7e-3,721e-3,413.9e-3,717.4e-3
681,nom,17,291e-9,9e-9,,,,,,,,523.5e-3,11.72e-6,250.4e-3,99.89e-3,,,6.986e-3,,982.7e-3,721e-3,467e-3,717.4e-3
682,nom,17,292e-9,10e-9,,,,,,,,523.5e-3,9.295e-6,198.5e-3,144.6e-3,,,6.986e-3,,982.7e-3,721e-3,518.9e-3,717.4e-3
683,nom,17,293e-9,11e-9,,,,,,,,523.5e-3,7.685e-6,148.2e-3,213.4e-3,,,6.986e-3,,982.7e-3,721e-3,569.2e-3,717.4e-3
684,nom,17,294e-9,12e-9,,,,,,,,523.5e-3,7.766e-6,99.8e-3,285.2e-3,,,6.986e-3,,982.7e-3,721e-3,617.6e-3,717.4e-3
685,nom,17,295e-9,13e-9,,,,,,,,528.7e-3,8.507e-6,55.67e-3,360.7e-3,,,6.986e-3,,985.3e-3,721e-3,661.7e-3,717.4e-3
686,nom,17,296e-9,14e-9,,,,,,,,523.1e-3,8.506e-6,21.17e-3,423.3e-3,,,6.986e-3,,982.5e-3,721e-3,696.2e-3,717.4e-3
687,nom,17,297e-9,15e-9,,,,,,,,523.4e-3,8.506e-6,2.868e-3,466.2e-3,,,6.986e-3,,982.7e-3,721e-3,714.5e-3,717.4e-3
688,nom,17,298e-9,16e-9,,,,,,,,523.6e-3,8.505e-6,-679.5e-6,491e-3,,,6.986e-3,,982.8e-3,721e-3,718.1e-3,717.4e-3
689,nom,17,299e-9,17e-9,,,,,,,,523.7e-3,8.505e-6,-17.34e-6,495.1e-3,,,6.986e-3,,982.8e-3,721e-3,717.4e-3,717.4e-3
690,nom,17,300e-9,18e-9,,,,,,,,523.6e-3,8.505e-6,-10.68e-6,495.1e-3,,,6.986e-3,,982.8e-3,721e-3,717.4e-3,717.4e-3
691,nom,17,301e-9,19e-9,,,,,,,,523.5e-3,8.505e-6,-14.16e-6,496.5e-3,,,6.986e-3,,982.7e-3,721e-3,717.4e-3,717.4e-3
692,nom,17,302e-9,20e-9,,,,,,,,523.5e-3,8.505e-6,-14.33e-6,498e-3,,,6.986e-3,,982.7e-3,721e-3,717.4e-3,717.4e-3
693,nom,17,303e-9,21e-9,,,,,,,,523.5e-3,8.505e-6,-15.01e-6,499.5e-3,,,6.986e-3,,982.7e-3,721e-3,717.4e-3,717.4e-3
694,nom,17,304e-9,22e-9,,,,,,,,523.5e-3,8.505e-6,-16.97e-6,500.5e-3,,,6.986e-3,,982.7e-3,721e-3,717.4e-3,717.4e-3
695,nom,17,305e-9,23e-9,,,,,,,,523.5e-3,8.505e-6,-16.38e-6,500.9e-3,,,6.986e-3,,982.7e-3,721e-3,717.4e-3,717.4e-3
696,nom,17,306e-9,24e-9,,,,,,,,523.5e-3,8.505e-6,-10.8e-6,500.8e-3,,,6.986e-3,,982.7e-3,721e-3,717.4e-3,717.4e-3
697,nom,17,307e-9,25e-9,,,,,,,,523.5e-3,8.505e-6,-8.562e-6,502e-3,,,6.986e-3,,982.7e-3,721e-3,717.4e-3,717.4e-3


698,nom,18,267e-9,-15e-9,,,,,,,,543.5e-3,199.3e-3,156.8e-3,-7.709e-3,,,6.986e-3,,992.7e-3,721e-3,560.6e-3,717.4e-3
699,nom,18,268e-9,-14e-9,,,,,,,,543.5e-3,149.1e-3,229.5e-3,-2.817e-3,,,6.986e-3,,992.7e-3,721e-3,487.9e-3,717.4e-3
700,nom,18,269e-9,-13e-9,,,,,,,,543.4e-3,100.7e-3,304.4e-3,3.221e-3,,,6.986e-3,,992.7e-3,721e-3,413e-3,717.4e-3
701,nom,18,270e-9,-12e-9,,,,,,,,547.7e-3,56.33e-3,380.3e-3,10.04e-3,,,6.986e-3,,994.8e-3,721e-3,337.1e-3,717.4e-3
702,nom,18,271e-9,-11e-9,,,,,,,,542.9e-3,21.46e-3,441e-3,11.67e-3,,,6.986e-3,,992.4e-3,721e-3,276.4e-3,717.4e-3
703,nom,18,272e-9,-10e-9,,,,,,,,543.7e-3,2.903e-3,481.3e-3,9.978e-3,,,6.986e-3,,992.8e-3,721e-3,236e-3,717.4e-3
704,nom,18,273e-9,-9e-9,,,,,,,,543.4e-3,-684.1e-6,505.7e-3,11.1e-3,,,6.986e-3,,992.7e-3,721e-3,211.7e-3,717.4e-3
705,nom,18,274e-9,-8e-9,,,,,,,,543.6e-3,3.103e-6,509.7e-3,11.7e-3,,,6.986e-3,,992.8e-3,721e-3,207.6e-3,717.4e-3
706,nom,18,275e-9,-7e-9,,,,,,,,544.6e-3,11.68e-6,510.4e-3,11.94e-3,,,6.986e-3,,993.3e-3,721e-3,207e-3,717.4e-3
707,nom,18,276e-9,-6e-9,,,,,,,,543.4e-3,8.233e-6,511.3e-3,12.31e-3,,,6.986e-3,,992.7e-3,721e-3,206.1e-3,717.4e-3
708,nom,18,277e-9,-5e-9,,,,,,,,543.4e-3,7.955e-6,512.8e-3,12.51e-3,,,6.986e-3,,992.7e-3,721e-3,204.6e-3,717.4e-3
709,nom,18,278e-9,-4e-9,,,,,,,,543.6e-3,6.936e-6,514.1e-3,12.45e-3,,,6.986e-3,,992.8e-3,721e-3,203.3e-3,717.4e-3
710,nom,18,279e-9,-3e-9,,,,,,,,543.4e-3,4.975e-6,515.1e-3,12.25e-3,,,6.986e-3,,992.7e-3,721e-3,202.3e-3,717.4e-3
711,nom,18,280e-9,-2e-9,,,,,,,,543.4e-3,7.378e-6,515.3e-3,11.94e-3,,,6.986e-3,,992.7e-3,721e-3,202.1e-3,717.4e-3
712,nom,18,281e-9,-1e-9,,,,,,,,543.4e-3,12.5e-6,515.3e-3,11.63e-3,,,6.986e-3,,992.7e-3,721e-3,202.1e-3,717.4e-3
713,nom,18,282e-9,2.068e-24,,,,,,,,543.4e-3,13.88e-6,517.5e-3,11.62e-3,,,6.986e-3,,992.7e-3,721e-3,199.9e-3,717.4e-3
714,nom,18,283e-9,1e-9,,,,,,,,543.4e-3,13.93e-6,526.1e-3,12.33e-3,,,6.986e-3,,992.7e-3,721e-3,191.3e-3,717.4e-3
715,nom,18,284e-9,2e-9,,,,,,,,543.4e-3,13.86e-6,541.8e-3,14.43e-3,,,6.986e-3,,992.7e-3,721e-3,175.6e-3,717.4e-3
716,nom,18,285e-9,3e-9,,,,,,,,543.4e-3,13.85e-6,546.5e-3,18.29e-3,,,6.986e-3,,992.7e-3,721e-3,170.9e-3,717.4e-3
717,nom,18,286e-9,4e-9,,,,,,,,543.4e-3,13.83e-6,516.6e-3,24.47e-3,,,6.986e-3,,992.7e-3,721e-3,200.8e-3,717.4e-3
718,nom,18,287e-9,5e-9,,,,,,,,543.4e-3,13.77e-6,465.8e-3,32.05e-3,,,6.986e-3,,992.7e-3,721e-3,251.6e-3,717.4e-3
719,nom,18,288e-9,6e-9,,,,,,,,543.4e-3,13.78e-6,411.7e-3,41.95e-3,,,6.986e-3,,992.7e-3,721e-3,305.7e-3,717.4e-3
720,nom,18,289e-9,7e-9,,,,,,,,543.4e-3,13.82e-6,357.8e-3,56.52e-3,,,6.986e-3,,992.7e-3,721e-3,359.6e-3,717.4e-3
721,nom,18,290e-9,8e-9,,,,,,,,543.4e-3,13.43e-6,304.2e-3,78.32e-3,,,6.986e-3,,992.7e-3,721e-3,413.2e-3,717.4e-3
722,nom,18,291e-9,9e-9,,,,,,,,543.4e-3,11.78e-6,251.2e-3,109.6e-3,,,6.986e-3,,992.7e-3,721e-3,466.2e-3,717.4e-3
723,nom,18,292e-9,10e-9,,,,,,,,543.4e-3,9.321e-6,199.3e-3,156.9e-3,,,6.986e-3,,992.7e-3,721e-3,518.1e-3,717.4e-3
724,nom,18,293e-9,11e-9,,,,,,,,543.4e-3,7.68e-6,149.1e-3,229.7e-3,,,6.986e-3,,992.7e-3,721e-3,568.3e-3,717.4e-3
725,nom,18,294e-9,12e-9,,,,,,,,543.4e-3,7.768e-6,100.7e-3,304.4e-3,,,6.986e-3,,992.7e-3,721e-3,616.7e-3,717.4e-3
726,nom,18,295e-9,13e-9,,,,,,,,547.7e-3,8.507e-6,56.31e-3,380.3e-3,,,6.986e-3,,994.8e-3,721e-3,661.1e-3,717.4e-3
727,nom,18,296e-9,14e-9,,,,,,,,542.9e-3,8.506e-6,21.45e-3,440.9e-3,,,6.986e-3,,992.4e-3,721e-3,695.9e-3,717.4e-3
728,nom,18,297e-9,15e-9,,,,,,,,543.6e-3,8.506e-6,2.884e-3,481.3e-3,,,6.986e-3,,992.8e-3,721e-3,714.5e-3,717.4e-3
729,nom,18,298e-9,16e-9,,,,,,,,543.4e-3,8.505e-6,-704.4e-6,505.7e-3,,,6.986e-3,,992.7e-3,721e-3,718.1e-3,717.4e-3
730,nom,18,299e-9,17e-9,,,,,,,,543.6e-3,8.505e-6,-17.54e-6,509.8e-3,,,6.986e-3,,992.8e-3,721e-3,717.4e-3,717.4e-3
731,nom,18,300e-9,18e-9,,,,,,,,544.4e-3,8.505e-6,-10.61e-6,510.3e-3,,,6.986e-3,,993.2e-3,721e-3,717.4e-3,717.4e-3
732,nom,18,301e-9,19e-9,,,,,,,,543.4e-3,8.505e-6,-14.08e-6,511.3e-3,,,6.986e-3,,992.7e-3,721e-3,717.4e-3,717.4e-3
733,nom,18,302e-9,20e-9,,,,,,,,543.4e-3,8.505e-6,-14.35e-6,512.8e-3,,,6.986e-3,,992.7e-3,721e-3,717.4e-3,717.4e-3
734,nom,18,303e-9,21e-9,,,,,,,,543.6e-3,8.505e-6,-15.38e-6,514.1e-3,,,6.986e-3,,992.8e-3,721e-3,717.4e-3,717.4e-3
735,nom,18,304e-9,22e-9,,,,,,,,543.4e-3,8.505e-6,-17.34e-6,515.1e-3,,,6.986e-3,,992.7e-3,721e-3,717.4e-3,717.4e-3
736,nom,18,305e-9,23e-9,,,,,,,,543.4e-3,8.505e-6,-14.93e-6,515.3e-3,,,6.986e-3,,992.7e-3,721e-3,717.4e-3,717.4e-3
737,nom,18,306e-9,24e-9,,,,,,,,543.4e-3,8.505e-6,-9.816e-6,515.2e-3,,,6.986e-3,,992.7e-3,721e-3,717.4e-3,717.4e-3
738,nom,18,307e-9,25e-9,,,,,,,,543.4e-3,8.505e-6,-8.431e-6,517.5e-3,,,6.986e-3,,992.7e-3,721e-3,717.4e-3,717.4e-3


739,nom,19,267e-9,-15e-9,,,,,,,,564.3e-3,200e-3,170.5e-3,-9.258e-3,,,6.986e-3,,1.003,721e-3,546.9e-3,717.4e-3
740,nom,19,268e-9,-14e-9,,,,,,,,564.3e-3,149.8e-3,247.2e-3,-3.663e-3,,,6.986e-3,,1.003,721e-3,470.1e-3,717.4e-3
741,nom,19,269e-9,-13e-9,,,,,,,,562.4e-3,101.4e-3,323.3e-3,2.362e-3,,,6.986e-3,,1.002,721e-3,394.1e-3,717.4e-3
742,nom,19,270e-9,-12e-9,,,,,,,,565.6e-3,56.85e-3,399.2e-3,9.186e-3,,,6.986e-3,,1.004,721e-3,318.2e-3,717.4e-3
743,nom,19,271e-9,-11e-9,,,,,,,,562.2e-3,21.7e-3,457e-3,8.478e-3,,,6.986e-3,,1.002,721e-3,260.3e-3,717.4e-3
744,nom,19,272e-9,-10e-9,,,,,,,,562.8e-3,2.911e-3,495.3e-3,8.168e-3,,,6.986e-3,,1.002,721e-3,222.1e-3,717.4e-3
745,nom,19,273e-9,-9e-9,,,,,,,,562.6e-3,-706.9e-6,519.2e-3,9.605e-3,,,6.986e-3,,1.002,721e-3,198.2e-3,717.4e-3
746,nom,19,274e-9,-8e-9,,,,,,,,562.7e-3,2.895e-6,523.3e-3,10.28e-3,,,6.986e-3,,1.002,721e-3,194e-3,717.4e-3
747,nom,19,275e-9,-7e-9,,,,,,,,562.5e-3,11.07e-6,523.5e-3,10.65e-3,,,6.986e-3,,1.002,721e-3,193.9e-3,717.4e-3
748,nom,19,276e-9,-6e-9,,,,,,,,562.4e-3,8.322e-6,525e-3,11.01e-3,,,6.986e-3,,1.002,721e-3,192.4e-3,717.4e-3
749,nom,19,277e-9,-5e-9,,,,,,,,562.4e-3,7.881e-6,526.5e-3,11.22e-3,,,6.986e-3,,1.002,721e-3,190.9e-3,717.4e-3
750,nom,19,278e-9,-4e-9,,,,,,,,562.7e-3,6.483e-6,527.7e-3,11.27e-3,,,6.986e-3,,1.002,721e-3,189.7e-3,717.4e-3
751,nom,19,279e-9,-3e-9,,,,,,,,562.4e-3,5.14e-6,528.4e-3,11.16e-3,,,6.986e-3,,1.002,721e-3,188.9e-3,717.4e-3
752,nom,19,280e-9,-2e-9,,,,,,,,562.4e-3,8.957e-6,528.6e-3,10.97e-3,,,6.986e-3,,1.002,721e-3,188.8e-3,717.4e-3
753,nom,19,281e-9,-1e-9,,,,,,,,562.4e-3,13.04e-6,528.9e-3,10.77e-3,,,6.986e-3,,1.002,721e-3,188.5e-3,717.4e-3
754,nom,19,282e-9,2.068e-24,,,,,,,,562.4e-3,13.91e-6,532.4e-3,10.98e-3,,,6.986e-3,,1.002,721e-3,184.9e-3,717.4e-3
755,nom,19,283e-9,1e-9,,,,,,,,562.4e-3,13.88e-6,543.2e-3,12.2e-3,,,6.986e-3,,1.002,721e-3,174.2e-3,717.4e-3
756,nom,19,284e-9,2e-9,,,,,,,,562.4e-3,13.84e-6,558.4e-3,14.95e-3,,,6.986e-3,,1.002,721e-3,158.9e-3,717.4e-3
757,nom,19,285e-9,3e-9,,,,,,,,562.4e-3,13.84e-6,555.2e-3,20.04e-3,,,6.986e-3,,1.002,721e-3,162.2e-3,717.4e-3
758,nom,19,286e-9,4e-9,,,,,,,,562.4e-3,13.84e-6,517.9e-3,26.83e-3,,,6.986e-3,,1.002,721e-3,199.5e-3,717.4e-3
759,nom,19,287e-9,5e-9,,,,,,,,562.4e-3,13.77e-6,465.8e-3,34.46e-3,,,6.986e-3,,1.002,721e-3,251.6e-3,717.4e-3
760,nom,19,288e-9,6e-9,,,,,,,,564e-3,13.77e-6,412e-3,45.42e-3,,,6.986e-3,,1.003,721e-3,305.4e-3,717.4e-3
761,nom,19,289e-9,7e-9,,,,,,,,562.4e-3,13.82e-6,358.4e-3,61.54e-3,,,6.986e-3,,1.002,721e-3,359e-3,717.4e-3
762,nom,19,290e-9,8e-9,,,,,,,,562.4e-3,13.47e-6,304.8e-3,85.65e-3,,,6.986e-3,,1.002,721e-3,412.5e-3,717.4e-3
763,nom,19,291e-9,9e-9,,,,,,,,562.4e-3,11.83e-6,251.9e-3,119.5e-3,,,6.986e-3,,1.002,721e-3,465.5e-3,717.4e-3
764,nom,19,292e-9,10e-9,,,,,,,,562.4e-3,9.343e-6,199.9e-3,169.6e-3,,,6.986e-3,,1.002,721e-3,517.4e-3,717.4e-3
765,nom,19,293e-9,11e-9,,,,,,,,562.4e-3,7.685e-6,149.8e-3,246.1e-3,,,6.986e-3,,1.002,721e-3,567.6e-3,717.4e-3
766,nom,19,294e-9,12e-9,,,,,,,,562.4e-3,7.769e-6,101.4e-3,323.3e-3,,,6.986e-3,,1.002,721e-3,616e-3,717.4e-3
767,nom,19,295e-9,13e-9,,,,,,,,565.6e-3,8.507e-6,56.83e-3,399.2e-3,,,6.986e-3,,1.004,721e-3,660.6e-3,717.4e-3
768,nom,19,296e-9,14e-9,,,,,,,,562.2e-3,8.506e-6,21.68e-3,457e-3,,,6.986e-3,,1.002,721e-3,695.7e-3,717.4e-3
769,nom,19,297e-9,15e-9,,,,,,,,562.8e-3,8.506e-6,2.891e-3,495.3e-3,,,6.986e-3,,1.002,721e-3,714.5e-3,717.4e-3
770,nom,19,298e-9,16e-9,,,,,,,,562.6e-3,8.505e-6,-727.2e-6,519.2e-3,,,6.986e-3,,1.002,721e-3,718.1e-3,717.4e-3
771,nom,19,299e-9,17e-9,,,,,,,,562.7e-3,8.505e-6,-17.75e-6,523.3e-3,,,6.986e-3,,1.002,721e-3,717.4e-3,717.4e-3
772,nom,19,300e-9,18e-9,,,,,,,,563.7e-3,8.505e-6,-10.08e-6,524.2e-3,,,6.986e-3,,1.003,721e-3,717.4e-3,717.4e-3
773,nom,19,301e-9,19e-9,,,,,,,,562.4e-3,8.505e-6,-13.99e-6,525e-3,,,6.986e-3,,1.002,721e-3,717.4e-3,717.4e-3
774,nom,19,302e-9,20e-9,,,,,,,,562.3e-3,8.505e-6,-14.42e-6,526.5e-3,,,6.986e-3,,1.002,721e-3,717.4e-3,717.4e-3
775,nom,19,303e-9,21e-9,,,,,,,,564e-3,8.505e-6,-15.84e-6,528.7e-3,,,6.986e-3,,1.003,721e-3,717.4e-3,717.4e-3
776,nom,19,304e-9,22e-9,,,,,,,,562.3e-3,8.505e-6,-17.19e-6,528.4e-3,,,6.986e-3,,1.002,721e-3,717.4e-3,717.4e-3
777,nom,19,305e-9,23e-9,,,,,,,,562.4e-3,8.505e-6,-13.35e-6,528.6e-3,,,6.986e-3,,1.002,721e-3,717.4e-3,717.4e-3
778,nom,19,306e-9,24e-9,,,,,,,,562.4e-3,8.505e-6,-9.268e-6,529e-3,,,6.986e-3,,1.002,721e-3,717.4e-3,717.4e-3
779,nom,19,307e-9,25e-9,,,,,,,,564e-3,8.505e-6,-8.402e-6,533.5e-3,,,6.986e-3,,1.003,721e-3,717.4e-3,717.4e-3


780,nom,20,267e-9,-15e-9,,,,,,,,582.5e-3,200.5e-3,183.7e-3,-10.67e-3,,,6.986e-3,,1.012,721e-3,533.7e-3,717.4e-3
781,nom,20,268e-9,-14e-9,,,,,,,,582.5e-3,150.4e-3,264e-3,-4.532e-3,,,6.986e-3,,1.012,721e-3,453.4e-3,717.4e-3
782,nom,20,269e-9,-13e-9,,,,,,,,582.8e-3,102e-3,343.7e-3,1.324e-3,,,6.986e-3,,1.012,721e-3,373.7e-3,717.4e-3
783,nom,20,270e-9,-12e-9,,,,,,,,583.7e-3,57.32e-3,418.9e-3,7.563e-3,,,6.986e-3,,1.013,721e-3,298.5e-3,717.4e-3
784,nom,20,271e-9,-11e-9,,,,,,,,582.4e-3,21.88e-3,472.9e-3,5.283e-3,,,6.986e-3,,1.012,721e-3,244.4e-3,717.4e-3
785,nom,20,272e-9,-10e-9,,,,,,,,582.7e-3,2.906e-3,509.4e-3,6.095e-3,,,6.986e-3,,1.012,721e-3,208e-3,717.4e-3
786,nom,20,273e-9,-9e-9,,,,,,,,582.8e-3,-730e-6,532.9e-3,8.006e-3,,,6.986e-3,,1.012,721e-3,184.5e-3,717.4e-3
787,nom,20,274e-9,-8e-9,,,,,,,,582.9e-3,2.888e-6,537.1e-3,8.726e-3,,,6.986e-3,,1.012,721e-3,180.3e-3,717.4e-3
788,nom,20,275e-9,-7e-9,,,,,,,,583.1e-3,11.86e-6,537.4e-3,9.163e-3,,,6.986e-3,,1.013,721e-3,179.9e-3,717.4e-3
789,nom,20,276e-9,-6e-9,,,,,,,,582.8e-3,8.433e-6,538.7e-3,9.574e-3,,,6.986e-3,,1.012,721e-3,178.7e-3,717.4e-3
790,nom,20,277e-9,-5e-9,,,,,,,,582.8e-3,7.786e-6,540.2e-3,9.86e-3,,,6.986e-3,,1.012,721e-3,177.2e-3,717.4e-3
791,nom,20,278e-9,-4e-9,,,,,,,,582.7e-3,6.137e-6,541.3e-3,9.979e-3,,,6.986e-3,,1.012,721e-3,176.1e-3,717.4e-3
792,nom,20,279e-9,-3e-9,,,,,,,,582.8e-3,5.673e-6,542e-3,9.925e-3,,,6.986e-3,,1.012,721e-3,175.4e-3,717.4e-3
793,nom,20,280e-9,-2e-9,,,,,,,,582.8e-3,10.45e-6,542e-3,9.851e-3,,,6.986e-3,,1.012,721e-3,175.3e-3,717.4e-3
794,nom,20,281e-9,-1e-9,,,,,,,,582.8e-3,13.49e-6,543.1e-3,9.84e-3,,,6.986e-3,,1.012,721e-3,174.2e-3,717.4e-3
795,nom,20,282e-9,2.068e-24,,,,,,,,582.8e-3,13.89e-6,548.3e-3,10.4e-3,,,6.986e-3,,1.012,721e-3,169.1e-3,717.4e-3
796,nom,20,283e-9,1e-9,,,,,,,,582.8e-3,13.84e-6,560.8e-3,12.09e-3,,,6.986e-3,,1.012,721e-3,156.6e-3,717.4e-3
797,nom,20,284e-9,2e-9,,,,,,,,582.8e-3,13.82e-6,573.4e-3,15.89e-3,,,6.986e-3,,1.012,721e-3,143.9e-3,717.4e-3
798,nom,20,285e-9,3e-9,,,,,,,,582.8e-3,13.84e-6,561.4e-3,21.99e-3,,,6.986e-3,,1.012,721e-3,155.9e-3,717.4e-3
799,nom,20,286e-9,4e-9,,,,,,,,582.8e-3,13.84e-6,518.3e-3,28.85e-3,,,6.986e-3,,1.012,721e-3,199e-3,717.4e-3
800,nom,20,287e-9,5e-9,,,,,,,,582.8e-3,13.78e-6,465.7e-3,36.66e-3,,,6.986e-3,,1.012,721e-3,251.7e-3,717.4e-3
801,nom,20,288e-9,6e-9,,,,,,,,582.8e-3,13.76e-6,412.2e-3,48.66e-3,,,6.986e-3,,1.012,721e-3,305.2e-3,717.4e-3
802,nom,20,289e-9,7e-9,,,,,,,,582.8e-3,13.81e-6,358.8e-3,67.04e-3,,,6.986e-3,,1.012,721e-3,358.6e-3,717.4e-3
803,nom,20,290e-9,8e-9,,,,,,,,582.8e-3,13.49e-6,305.4e-3,93.61e-3,,,6.986e-3,,1.012,721e-3,412e-3,717.4e-3
804,nom,20,291e-9,9e-9,,,,,,,,582.8e-3,11.87e-6,252.4e-3,130.7e-3,,,6.986e-3,,1.012,721e-3,465e-3,717.4e-3
805,nom,20,292e-9,10e-9,,,,,,,,582.8e-3,9.361e-6,200.5e-3,183.8e-3,,,6.986e-3,,1.012,721e-3,516.9e-3,717.4e-3
806,nom,20,293e-9,11e-9,,,,,,,,582.8e-3,7.684e-6,150.3e-3,264.1e-3,,,6.986e-3,,1.012,721e-3,567e-3,717.4e-3
807,nom,20,294e-9,12e-9,,,,,,,,582.8e-3,7.77e-6,102e-3,343.7e-3,,,6.986e-3,,1.012,721e-3,615.4e-3,717.4e-3
808,nom,20,295e-9,13e-9,,,,,,,,583.5e-3,8.507e-6,57.29e-3,418.8e-3,,,6.986e-3,,1.013,721e-3,660.1e-3,717.4e-3
809,nom,20,296e-9,14e-9,,,,,,,,582.3e-3,8.506e-6,21.86e-3,472.8e-3,,,6.986e-3,,1.012,721e-3,695.5e-3,717.4e-3
810,nom,20,297e-9,15e-9,,,,,,,,582.5e-3,8.506e-6,2.886e-3,509.4e-3,,,6.986e-3,,1.012,721e-3,714.5e-3,717.4e-3
811,nom,20,298e-9,16e-9,,,,,,,,582.9e-3,8.505e-6,-749.5e-6,532.8e-3,,,6.986e-3,,1.012,721e-3,718.1e-3,717.4e-3
812,nom,20,299e-9,17e-9,,,,,,,,582.7e-3,8.505e-6,-17.89e-6,537e-3,,,6.986e-3,,1.012,721e-3,717.4e-3,717.4e-3
813,nom,20,300e-9,18e-9,,,,,,,,582.9e-3,8.505e-6,-10.47e-6,537.3e-3,,,6.986e-3,,1.012,721e-3,717.4e-3,717.4e-3
814,nom,20,301e-9,19e-9,,,,,,,,582.8e-3,8.505e-6,-13.89e-6,538.8e-3,,,6.986e-3,,1.012,721e-3,717.4e-3,717.4e-3
815,nom,20,302e-9,20e-9,,,,,,,,582.7e-3,8.505e-6,-14.54e-6,540.2e-3,,,6.986e-3,,1.012,721e-3,717.4e-3,717.4e-3
816,nom,20,303e-9,21e-9,,,,,,,,582.8e-3,8.505e-6,-16.14e-6,541.4e-3,,,6.986e-3,,1.012,721e-3,717.4e-3,717.4e-3
817,nom,20,304e-9,22e-9,,,,,,,,582.8e-3,8.505e-6,-16.64e-6,542e-3,,,6.986e-3,,1.012,721e-3,717.4e-3,717.4e-3
818,nom,20,305e-9,23e-9,,,,,,,,582.8e-3,8.505e-6,-11.86e-6,542.1e-3,,,6.986e-3,,1.012,721e-3,717.4e-3,717.4e-3
819,nom,20,306e-9,24e-9,,,,,,,,582.8e-3,8.505e-6,-8.823e-6,543.1e-3,,,6.986e-3,,1.012,721e-3,717.4e-3,717.4e-3
820,nom,20,307e-9,25e-9,,,,,,,,582.8e-3,8.505e-6,-8.417e-6,548.3e-3,,,6.986e-3,,1.012,721e-3,717.4e-3,717.4e-3

