# --> Including file '/build/jenkins-tests/workspace/nightly-builds/tests@3/build/BOOLE/BOOLE_HEAD/Digi/Boole/tests/options/testBoole-defaults.py'
# <-- End of file '/build/jenkins-tests/workspace/nightly-builds/tests@3/build/BOOLE/BOOLE_HEAD/Digi/Boole/tests/options/testBoole-defaults.py'
# --> Including file '/afs/cern.ch/lhcb/software/releases/DBASE/AppConfig/v3r335/options/Boole/DataType-2010.py'
# <-- End of file '/afs/cern.ch/lhcb/software/releases/DBASE/AppConfig/v3r335/options/Boole/DataType-2010.py'
# WARNING: run() will not reset the DDDB tag, because it is already set, set withDB=True(force) or False(skip) to suppress this warning
# WARNING: run() will not reset the CondDB tag, because it is already set, set withDB=True(force) or False(skip) to suppress this warning
# applying configuration of Boole
# WARNING: Property 'DataType' is set in both 'Boole' and 'LHCbApp', using 'Boole.DataType'
# /***** User Boole/Boole ****************************************************************************
# |-DatasetName         = 'Boole'
# |-DetectorLink        = ['PuVeto', 'Velo', 'TT', 'IT', 'OT', 'Tr', 'Rich1', 'Rich2', 'Spd', 'Prs', 'Ecal', 'Hcal', 'Muon', 'L0']
# |                     (default: ['PuVeto', 'Velo', 'TT', 'IT', 'OT', 'Tr', 'Rich1', 'Rich2', 'Spd', 'Prs', 'Ecal', 'Hcal', 'Muon', 'L0'])
# |-DetectorInit        = {'MUON': ['Muon'], 'DATA': ['Data']}  (default: {'MUON': ['Muon'], 'DATA': ['Data']})
# |-Histograms          = 'Default'
# |-SkipEvents          = 0
# |-VeloTell1Processing = True
# |-InputDataType       = 'SIM'
# |-ProductionMode      = False
# |-SplitRawEventFormat = None
# |-FilterSequence      = []  (default: [])
# |-TAESubdets          = ['Calo', 'Muon']  (default: ['Calo', 'Muon'])
# |-Outputs             = ['DIGI', 'MDF']  (default: ['DIGI'])
# |-DetectorDigi        = ['PuVeto', 'Velo', 'TT', 'IT', 'OT', 'Rich1', 'Rich2', 'Spd', 'Prs', 'Ecal', 'Hcal', 'Muon', 'L0']
# |                     (default: ['PuVeto', 'Velo', 'TT', 'IT', 'OT', 'Rich1', 'Rich2', 'Spd', 'Prs', 'Ecal', 'Hcal', 'Muon', 'L0'])
# |-MainSequence        = []  (default: [])
# |-DisableTiming       = True  (default: False)
# |-DigiType            = 'Default'
# |-MoniSequence        = ['Velo', 'TT', 'IT', 'OT', 'Rich', 'Calo', 'Muon', 'MC']  (default: [])
# |-DetectorMoni        = ['PuVeto', 'Velo', 'TT', 'IT', 'OT', 'Rich1', 'Rich2', 'Spd', 'Prs', 'Ecal', 'Hcal', 'Muon', 'L0', 'MC']
# |                     (default: ['PuVeto', 'Velo', 'TT', 'IT', 'OT', 'Rich1', 'Rich2', 'Spd', 'Prs', 'Ecal', 'Hcal', 'Muon', 'L0', 'MC'])
# |-TAEPrev             = 0
# |-EnablePack          = False  (default: True)
# |-DigiSequence        = ['Velo', 'TT', 'IT', 'OT', 'Rich', 'Calo', 'Muon']  (default: [])
# |-OutputLevel         = 3
# |-EvtMax              = 10  (default: -1)
# |-TAENext             = 0
# |-UseSpillover        = False
# |-MergeGenFSR         = False
# |-EnableL0            = False
# |-CondDBtag           = ''
# |-InitSequence        = ['Data', 'Muon']  (default: [])
# |-DataType            = '2010'  (default: '2015')
# |-NoWarnings          = False
# |-SiG4EnergyDeposit   = True
# |-WriteFSR            = True
# |-LinkSequence        = ['Velo', 'TT', 'IT', 'OT', 'Tr', 'Rich', 'Calo', 'Muon']  (default: [])
# |-SpilloverPaths      = ['Prev', 'PrevPrev', 'Next', 'NextNext']  (default: [])
# |-DDDBtag             = ''
# |-Monitors            = ['SC', 'FPE']  (default: [])
# \----- (End of User Boole/Boole) -------------------------------------------------------------------
# DigiWriter.ItemList    = ['/Event/Gen/Header#1', '/Event/MC/Header#1', '/Event/MC/DigiHeader#1', '/Event/DAQ/RawEvent#1', '/Event/Gen/Collisions#1', '/Event/MC/Vertices#1', '/Event/MC/Particles#1', '/Event/MC/Rich/DigitSummaries#1', '/Event/MC/Muon/DigitsInfo#1', '/Event/Link/Raw/Velo/Clusters#1', '/Event/Link/Raw/TT/Clusters#1', '/Event/Link/Raw/IT/Clusters#1', '/Event/Link/Raw/OT/Times#1', '/Event/Link/Raw/Muon/Digits#1', '/Event/Link/Raw/Ecal/Digits#1', '/Event/Link/Raw/Hcal/Digits#1', '/Event/MC/TrackInfo#1', '/Event/Link/Raw/Velo/Clusters2MCHits#1', '/Event/Link/Raw/TT/Clusters2MCHits#1', '/Event/Link/Raw/IT/Clusters2MCHits#1', '/Event/Link/Raw/OT/Times2MCHits#1']
# DigiWriter.OptItemList = []
ApplicationMgr    SUCCESS
====================================================================================================================================
                                                   Welcome to Boole version HEAD
                                          running on lbbuild11.cern.ch on Wed Sep  6 02:32:08 2017
====================================================================================================================================
ApplicationMgr       INFO Application Manager Configured successfully
StatusCodeSvc        INFO initialize
ToolSvc.GitDDDB      INFO opening Git repository '/cvmfs/lhcb.cern.ch/lib/lhcb/git-conddb/DDDB.git'
ToolSvc.GitDDDB      INFO using commit 'head-20101206' corresponding to f3c3633da419a69312aa7bc0ba0d7fe6f1fb1923
ToolSvc.GitSIMCOND   INFO opening Git repository '/cvmfs/lhcb.cern.ch/lib/lhcb/git-conddb/SIMCOND.git'
ToolSvc.GitSIMCOND   INFO using commit 'sim-20101210-vc-md100' corresponding to c4773bcfa897c39faf3c36a2d3d64b6d55636b35
DetectorPersist...   INFO Added successfully Conversion service:XmlCnvSvc
DetectorDataSvc   SUCCESS Detector description database: git:/lhcb.xml
BooleSequencer       INFO Member list: ProcessPhase/Init, ProcessPhase/Digi, ProcessPhase/Link, ProcessPhase/Moni, ProcessPhase/Filter
RndmGenSvc.Engine    INFO Generator engine type:CLHEP::RanluxEngine
RndmGenSvc.Engine    INFO Current Seed:1234567 Luxury:3
RndmGenSvc           INFO Using Random engine:HepRndm::Engine<CLHEP::RanluxEngine>
Init                 INFO Member list: GaudiSequencer/InitBooleSeq, GaudiSequencer/InitDataSeq, GaudiSequencer/InitMuonSeq
InitBooleSeq         INFO Member list: BooleInit, GaudiSequencer/SpilloverHandler
BooleInit         SUCCESS ==================================================================
BooleInit         SUCCESS Requested to process 10 events
BooleInit         SUCCESS ==================================================================
RootHistSvc          INFO Writing ROOT histograms to: Boole-10ev-histos.root
HistogramPersis...   INFO Added successfully Conversion service:RootHistSvc
HistogramDataSvc     INFO Added stream file:/afs/cern.ch/lhcb/software/DEV/nightlies/PARAM/ParamFiles/v8r999/data/muonlow-G4.root as LowEnergy
HistogramDataSvc     INFO Added stream file:/afs/cern.ch/lhcb/software/DEV/nightlies/PARAM/ParamFiles/v8r999/data/muonflat-G4.root as MuonFlatSpillover
HistogramDataSvc     INFO Added stream file:/afs/cern.ch/lhcb/software/DEV/nightlies/PARAM/ParamFiles/v8r999/data/OTDoublePulse.root as OTDoublePulse
SpilloverHandler     INFO Member list: TESCheck/SpilloverLoader, EventNodeKiller/SpilloverKiller
InitDataSeq          INFO Member list:
InitMuonSeq          INFO Member list: MuonBackground/MuonLowEnergy, MuonBackground/MuonFlatSpillover
EventClockSvc.F...   INFO Event times generated from 0 with steps of 0
EventClockSvc.F...   INFO Run numbers generated from 0 every 0 events
RFileCnv             INFO opening Root file "/afs/cern.ch/lhcb/software/DEV/nightlies/PARAM/ParamFiles/v8r999/data/muonlow-G4.root" for reading
MuonLowEnergy        INFO The low energy background is run by default for main events plus (if any) spillover events (max 4)
RFileCnv             INFO opening Root file "/afs/cern.ch/lhcb/software/DEV/nightlies/PARAM/ParamFiles/v8r999/data/muonflat-G4.root" for reading
Digi                 INFO Member list: GaudiSequencer/DigiVeloSeq, GaudiSequencer/DigiTTSeq, GaudiSequencer/DigiITSeq, GaudiSequencer/DigiOTSeq, GaudiSequencer/DigiRichSeq, GaudiSequencer/DigiCaloSeq, GaudiSequencer/DigiMuonSeq
DigiVeloSeq          INFO Member list: VeloSim, VeloSim/VeloPUSim, VeloTell1DataProcessor, VeloSimTell1ClusterMaker, PuVetoFillRawBuffer
DeVeloRType       WARNING VELO R sensor M2 routing lines not in conditions DB cond: Routing-R-X-Strip0000 and Routing-R-Y-Strip0000
VeloSim              INFO Probability to add noise to empty strips 0.0153028
VeloSim              INFO Probability to add noise to isolated empty strips 3.2331e-08
VeloSim.RadDamage WARNING VeloRadDamageTool:: VELO radiation damage parameters not in conditions DB
VeloPUSim            INFO Probability to add noise to empty strips 0.0153028
VeloPUSim            INFO Probability to add noise to isolated empty strips 3.2331e-08
VeloPUSim.RadDa...WARNING VeloRadDamageTool:: VELO radiation damage parameters not in conditions DB
DigiTTSeq            INFO Member list: MCSTDepositCreator/MCTTDepositCreator, MCSTDigitCreator/MCTTDigitCreator, STDigitCreator/TTDigitCreator, STClusterCreator/TTClusterCreator, STClusterKiller/TTClusterKiller, STClustersToRawBankAlg/createTTRawBuffer
MagneticFieldSvc     INFO Opened magnetic field file : /afs/cern.ch/lhcb/software/DEV/nightlies/DBASE/FieldMap/v5r7/cdf/c1_onemap_down.cdf
MagneticFieldSvc     INFO Opened magnetic field file : /afs/cern.ch/lhcb/software/DEV/nightlies/DBASE/FieldMap/v5r7/cdf/c2_onemap_down.cdf
MagneticFieldSvc     INFO Opened magnetic field file : /afs/cern.ch/lhcb/software/DEV/nightlies/DBASE/FieldMap/v5r7/cdf/c3_onemap_down.cdf
MagneticFieldSvc     INFO Opened magnetic field file : /afs/cern.ch/lhcb/software/DEV/nightlies/DBASE/FieldMap/v5r7/cdf/c4_onemap_down.cdf
MagneticFieldSvc     INFO Map scaled by factor 1 with polarity internally used: -1 signed relative current: -1
TTClusterCreator     INFO Loading cuts tagged as Data10
ToolSvc.TTKiller     INFO Adding Tool: type: STRndmEffSelector / name: Selector
DigiITSeq            INFO Member list: MCSTDepositCreator/MCITDepositCreator, MCSTDigitCreator/MCITDigitCreator, STDigitCreator/ITDigitCreator, STClusterCreator/ITClusterCreator, STClusterKiller/ITClusterKiller, STClustersToRawBankAlg/createITRawBuffer
ITClusterCreator     INFO Loading cuts tagged as Data10
ToolSvc.ITKiller     INFO Adding Tool: type: STRndmEffSelector / name: Selector
DigiOTSeq            INFO Member list: MCOTDepositCreator, MCOTTimeCreator, OTFillRawBuffer
ToolSvc.OTRando...   INFO ******** Noise Settings ********
ToolSvc.OTRando...   INFO Number of channels: 55296
ToolSvc.OTRando...   INFO Noise rate: 1e-05
ToolSvc.OTRando...   INFO Width of read out gate in ns75
ToolSvc.OTRando...   INFO Dead time : 25
ToolSvc.OTRando...   INFO Number of deposits to generate: 55
ToolSvc.OTRando...   INFO ********************************
DigiRichSeq          INFO Member list: Rich::MC::Digi::Signal/RichPDSignal, Rich::MC::Digi::SimpleChargeSharing/RichChargeShare, Rich::MC::Digi::SummedDeposits/RichSummedDeposits, Rich::MC::Digi::DetailedFrontEndResponse/RichPDResponse, Rich::MC::Digi::MCRichDigitsToRawBufferAlg/RichFillRawBuffer
RichChargeShare      INFO Will add charge sharing at 2.5 % level
ToolSvc.RichSma...   INFO Created active PD channel list : # channels RICH(1/2) = 167776 / 246528
RichPDResponse       INFO Time Calibration (Rich1/RICH2) = [10, 6]
ToolSvc.RichRaw...   INFO Using [DAQ/RawEvent] as search path for the RawEvent object
RichFillRawBuffer    INFO Using RICH Level1 buffer format : 129
DigiCaloSeq          INFO Member list: CaloSignalAlg/SpdSignal, CaloSignalAlg/PrsSignal, CaloSignalAlg/EcalSignal, CaloSignalAlg/HcalSignal, CaloDigitAlg/SpdDigit, CaloDigitAlg/PrsDigit, CaloDigitAlg/EcalDigit, CaloDigitAlg/HcalDigit, CaloFillPrsSpdRawBuffer, CaloFillRawBuffer/EcalFillRawBuffer, CaloFillRawBuffer/HcalFillRawBuffer
SpdSignal            INFO Initialised. Store also previous BX.
PrsSignal            INFO Initialised. Store also previous BX.
EcalSignal           INFO Initialised.
HcalSignal           INFO Initialised.
SpdDigit             INFO ----- Detector parameters (from condDB) ------------------
SpdDigit             INFO Nominal gain parameters for    Outer region :    0.0 +   2.5 x sin(theta)
SpdDigit             INFO Nominal gain parameters for   Middle region :    0.0 +   2.5 x sin(theta)
SpdDigit             INFO Nominal gain parameters for    Inner region :    0.0 +   2.5 x sin(theta)
SpdDigit             INFO Noise          :   0.0 +   0.0 (coherent) counts.
SpdDigit             INFO Pedestal shift :  0.00 counts
SpdDigit             INFO Actual dynamics saturation :   0.90 x ADCMax
SpdDigit             INFO Subtract 0.2000 of previous BX
SpdDigit             INFO  MIP deposit    :   2.54 MeV
SpdDigit             INFO Number of photo-electrons per MIP for    Outer region :   22.00
SpdDigit             INFO Number of photo-electrons per MIP for   Middle region :   32.00
SpdDigit             INFO Number of photo-electrons per MIP for    Inner region :   27.00
SpdDigit             INFO Zero-suppression threshold :   0.50 ADC
SpdDigit             INFO L0 trigger suppression     :   0.50 ADC
SpdDigit             INFO L0 trigger ADC correction for    Outer region :    1.00
SpdDigit             INFO L0 trigger ADC correction for   Middle region :    1.00
SpdDigit             INFO L0 trigger ADC correction for    Inner region :    1.00
SpdDigit             INFO ----- Digitization parameters (from CaloDigitAlg configuration) ------------------
SpdDigit             INFO Additional  0.0% of the cells as dead (gain=0).
SpdDigit             INFO Additional gain error  0.0%
PrsDigit             INFO ----- Detector parameters (from condDB) ------------------
PrsDigit             INFO Nominal gain parameters for    Outer region :    0.0 + 185.1 x sin(theta)
PrsDigit             INFO Nominal gain parameters for   Middle region :    0.0 + 169.9 x sin(theta)
PrsDigit             INFO Nominal gain parameters for    Inner region :    0.0 + 160.9 x sin(theta)
PrsDigit             INFO Noise          :   1.0 +   0.0 (coherent) counts.
PrsDigit             INFO Pedestal shift :  0.00 counts
PrsDigit             INFO Actual dynamics saturation :   0.90 x ADCMax
PrsDigit             INFO Subtract 0.2000 of previous BX
PrsDigit             INFO  MIP deposit    :   2.54 MeV
PrsDigit             INFO Number of photo-electrons per MIP for    Outer region :   22.00
PrsDigit             INFO Number of photo-electrons per MIP for   Middle region :   32.00
PrsDigit             INFO Number of photo-electrons per MIP for    Inner region :   27.00
PrsDigit             INFO Zero-suppression threshold :   6.00 ADC
PrsDigit             INFO L0 trigger suppression     : 100.00 ADC
PrsDigit             INFO L0 trigger ADC correction for    Outer region :    1.00
PrsDigit             INFO L0 trigger ADC correction for   Middle region :    1.00
PrsDigit             INFO L0 trigger ADC correction for    Inner region :    1.00
PrsDigit             INFO ----- Digitization parameters (from CaloDigitAlg configuration) ------------------
PrsDigit             INFO Additional  0.0% of the cells as dead (gain=0).
PrsDigit             INFO Additional gain error  1.0%
EcalDigit            INFO ----- Detector parameters (from condDB) ------------------
EcalDigit            INFO Nominal gain parameters for    Outer region :  10000.0 + 7000.0 x sin(theta)
EcalDigit            INFO Nominal gain parameters for   Middle region :  10000.0 + 7000.0 x sin(theta)
EcalDigit            INFO Nominal gain parameters for    Inner region :  10000.0 + 7000.0 x sin(theta)
EcalDigit            INFO Noise          :   1.2 +   0.3 (coherent) counts.
EcalDigit            INFO Pedestal shift :  0.40 counts
EcalDigit            INFO Actual dynamics saturation :   0.95 x ADCMax
EcalDigit            INFO L0 trigger suppression     :   0.50 ADC
EcalDigit            INFO L0 trigger ADC correction for    Outer region :    1.00
EcalDigit            INFO L0 trigger ADC correction for   Middle region :    1.04
EcalDigit            INFO L0 trigger ADC correction for    Inner region :    1.08
EcalDigit            INFO ----- Digitization parameters (from CaloDigitAlg configuration) ------------------
EcalDigit            INFO Additional  0.0% of the cells as dead (gain=0).
EcalDigit            INFO Additional gain error  1.0%
HcalDigit            INFO ----- Detector parameters (from condDB) ------------------
HcalDigit            INFO Nominal gain parameters for    Outer region :  15000.0 +   0.0 x sin(theta)
HcalDigit            INFO Nominal gain parameters for    Inner region :  15000.0 +   0.0 x sin(theta)
HcalDigit            INFO Noise          :   1.2 +   0.3 (coherent) counts.
HcalDigit            INFO Pedestal shift :  0.40 counts
HcalDigit            INFO Actual dynamics saturation :   0.95 x ADCMax
HcalDigit            INFO L0 trigger suppression     :   0.50 ADC
HcalDigit            INFO L0 trigger ADC correction for    Outer region :    1.00
HcalDigit            INFO L0 trigger ADC correction for    Inner region :    1.05
HcalDigit            INFO ----- Digitization parameters (from CaloDigitAlg configuration) ------------------
HcalDigit            INFO Additional  0.0% of the cells as dead (gain=0).
HcalDigit            INFO Additional gain error  1.0%
CaloFillPrsSpdR...   INFO Data coding type 3
EcalFillRawBuffer    INFO Processing 192 FE-Cards and 26 TELL1
EcalFillRawBuffer    INFO Data coding type 2
HcalFillRawBuffer    INFO Processing 54 FE-Cards and 8 TELL1
HcalFillRawBuffer    INFO Data coding type 2
DigiMuonSeq          INFO Member list: MuonDigitization, MuonDigitToRawBuffer
Link                 INFO Member list: GaudiSequencer/LinkVeloSeq, GaudiSequencer/LinkTTSeq, GaudiSequencer/LinkITSeq, GaudiSequencer/LinkOTSeq, GaudiSequencer/LinkTrSeq, GaudiSequencer/LinkRichSeq, GaudiSequencer/LinkCaloSeq, GaudiSequencer/LinkMuonSeq
LinkVeloSeq          INFO Member list: DecodeVeloRawBuffer/createVeloClusters, VeloCluster2MCHitLinker, VeloCluster2MCParticleLinker
createVeloClusters   INFO Cancel processing of events with more than 10000 Velo clusters
LinkTTSeq            INFO Member list: STDigit2MCHitLinker/TTDigitLinker, STCluster2MCHitLinker/TTClusterLinker, STCluster2MCParticleLinker/TTTruthLinker
LinkITSeq            INFO Member list: STDigit2MCHitLinker/ITDigitLinker, STCluster2MCHitLinker/ITClusterLinker, STCluster2MCParticleLinker/ITTruthLinker
LinkOTSeq            INFO Member list: OTMCDepositLinker, OTMCHitLinker, OTMCParticleLinker
LinkTrSeq            INFO Member list: BuildMCTrackInfo
LinkRichSeq          INFO Member list: Rich::MC::MCRichDigitSummaryAlg
Rich::MC::MCRic...   INFO Will only store MCParticle references for main event
LinkCaloSeq          INFO Member list: CaloDigitsFromRaw/EcalAdcFromRaw, CaloDigitsFromRaw/EcalFromRaw, CaloDigitsFromRaw/HcalFromRaw, CaloDigitsFromRaw/HcalAdcFromRaw, CaloReCreateMCLinks, CaloDigitMCTruth/EcalDigitMCTruth, CaloDigitMCTruth/HcalDigitMCTruth
LinkMuonSeq          INFO Member list: MuonDigit2MCParticleAlg, MuonTileDigitInfo
Moni                 INFO Member list: GaudiSequencer/MoniVeloSeq, GaudiSequencer/MoniTTSeq, GaudiSequencer/MoniITSeq, GaudiSequencer/MoniOTSeq, GaudiSequencer/MoniRichSeq, GaudiSequencer/MoniCaloSeq, GaudiSequencer/MoniMuonSeq, GaudiSequencer/MoniMCSeq
MoniVeloSeq          INFO Member list: VeloSimMoni, VeloRawClustersMoni
MoniTTSeq            INFO Member list: MCSTDepositMonitor/MCTTDepositMonitor, MCSTDigitMonitor/MCTTDigitMonitor, STDigitMonitor/TTDigitMonitor, ST::STClusterMonitor/TTClusterMonitor, MCParticle2MCHitAlg/MCP2TTMCHitAlg, STEffChecker/TTEffChecker
TTEffChecker.MC...   INFO MCParticle Momentum cut     : 1 GeV/c < P < 1.79769e+305 GeV/c
TTEffChecker.MC...   INFO            Beta * gamma cut : 1 < beta*gamma
TTEffChecker.MC...   INFO            Eta cut          : -1.79769e+308 < P < 1.79769e+308
MoniITSeq            INFO Member list: MCSTDepositMonitor/MCITDepositMonitor, MCSTDigitMonitor/MCITDigitMonitor, STDigitMonitor/ITDigitMonitor, ST::STClusterMonitor/ITClusterMonitor, MCParticle2MCHitAlg/MCP2ITMCHitAlg, STEffChecker/ITEffChecker
ITEffChecker.MC...   INFO MCParticle Momentum cut     : 1 GeV/c < P < 1.79769e+305 GeV/c
ITEffChecker.MC...   INFO            Beta * gamma cut : 1 < beta*gamma
ITEffChecker.MC...   INFO            Eta cut          : -1.79769e+308 < P < 1.79769e+308
MoniOTSeq            INFO Member list: MCOTDepositMonitor
MoniRichSeq          INFO Member list: Rich::MC::Digi::DigitQC/RiDigitQC
MoniCaloSeq          INFO Member list: CaloDigitChecker/SpdCheck, CaloDigitChecker/PrsCheck, CaloDigitChecker/EcalCheck, CaloDigitChecker/HcalCheck
SpdCheck             INFO Monitoring Hits MC/Spd/Hits   MC Digit   MC/Spd/Digits   Digit   Raw/Spd/Digits, Histograms booked
PrsCheck             INFO Monitoring Hits MC/Prs/Hits   MC Digit   MC/Prs/Digits   Digit   Raw/Prs/Digits, Histograms booked
EcalCheck            INFO Monitoring Hits MC/Ecal/Hits   MC Digit   MC/Ecal/Digits   Digit   Raw/Ecal/Digits, Histograms booked
HcalCheck            INFO Monitoring Hits MC/Hcal/Hits   MC Digit   MC/Hcal/Digits   Digit   Raw/Hcal/Digits, Histograms booked
MoniMuonSeq          INFO Member list: MuonDigitChecker
MoniMCSeq            INFO Member list:
Filter               INFO OR Member list:
PrepareDIGI          INFO Member list:
FileRecordPersi...   INFO Added successfully Conversion service:FileRecordCnvSvc
FSROutputStream...   INFO Data source: FileRecordDataSvc output: DATAFILE='PFN:Boole-10ev.digi' SVC='FileRecordCnvSvc' OPT='REC'
EventPersistenc...   INFO Added successfully Conversion service:RootCnvSvc
DigiWriter           INFO Data source: EventDataSvc output: DATAFILE='PFN:Boole-10ev.digi' SVC='RootCnvSvc' OPT='REC'
EventPersistenc...   INFO Added successfully Conversion service:LHCb::RawDataCnvSvc
RawWriter            INFO Data source: EventDataSvc output: DATAFILE='PFN:Boole-10ev.mdf' SVC='LHCb::RawDataCnvSvc' OPT='REC'
EventSelector        INFO Stream:EventSelector.DataStreamTool_1 Def:DATAFILE='root://eoslhcb.cern.ch//eos/lhcb/grid/prod/lhcb/swtest/lhcb/swtest/boole.fixedfile-gauss-v39r4-mc10-sim/Gauss-v39r4-30000000-100ev-20110902-MC10.sim' SVC='Gaudi::RootEvtSelector' OPT='READ'
ApplicationMgr       INFO Application Manager Initialized successfully
ApplicationMgr       INFO Application Manager Started successfully
BooleInit            INFO Evt 1,  Run 1082,  Nr. in job = 1
MuonFlatSpillover    INFO  luminosity factor 0.52976 compared to default 2*10^32 cm-2 s-1
VeloSimTell1Clu...   INFO  ==> CLUSTER_MAKER Configured  type: TELL1 Cluster Maker
VeloSimTell1Clu...   INFO  --> Creating dynamic config for Cluster Maker!
VeloSimTell1Clu...   INFO  --> Thresholds calculated usign SIMCOND data base
VeloSimTell1Clu...   INFO  --> Algorithm CLUSTER_MAKER of type: TELL1 Cluster Maker is enabled and ready to process data --
LHCb::RawDataCn...   INFO Opened(NEW)  MDF stream:PFN:Boole-10ev.mdf ID:0x1b94bbd0
BooleInit            INFO Evt 2,  Run 1082,  Nr. in job = 2
BooleInit            INFO Evt 3,  Run 1082,  Nr. in job = 3
BooleInit            INFO Evt 4,  Run 1082,  Nr. in job = 4
BooleInit            INFO Evt 5,  Run 1082,  Nr. in job = 5
BooleInit            INFO Evt 6,  Run 1082,  Nr. in job = 6
BooleInit            INFO Evt 7,  Run 1082,  Nr. in job = 7
BooleInit            INFO Evt 8,  Run 1082,  Nr. in job = 8
BooleInit            INFO Evt 9,  Run 1082,  Nr. in job = 9
BooleInit            INFO Evt 10,  Run 1082,  Nr. in job = 10
ApplicationMgr       INFO Application Manager Stopped successfully
UnpackMCMuonHits  SUCCESS Number of counters : 1
 |    Counter                                      |     #     |    sum     | mean/eff^* | rms/err^*  |     min     |     max     |
 | "# UnPackedData"                                |        10 |       4029 |     402.90 |     276.69 |      2.0000 |      791.00 |
UnpackMCVeloHits  SUCCESS Number of counters : 1
 |    Counter                                      |     #     |    sum     | mean/eff^* | rms/err^*  |     min     |     max     |
 | "# UnPackedData"                                |        10 |      10923 |     1092.3 |     775.93 |      106.00 |      2378.0 |
UnpackMCPuVetoHitsSUCCESS Number of counters : 1
 |    Counter                                      |     #     |    sum     | mean/eff^* | rms/err^*  |     min     |     max     |
 | "# UnPackedData"                                |        10 |        635 |     63.500 |     37.879 |      9.0000 |      129.00 |
UnpackMCTTHits    SUCCESS Number of counters : 1
 |    Counter                                      |     #     |    sum     | mean/eff^* | rms/err^*  |     min     |     max     |
 | "# UnPackedData"                                |        10 |       4093 |     409.30 |     296.11 |      40.000 |      838.00 |
UnpackMCITHits    SUCCESS Number of counters : 1
 |    Counter                                      |     #     |    sum     | mean/eff^* | rms/err^*  |     min     |     max     |
 | "# UnPackedData"                                |        10 |       4451 |     445.10 |     329.47 |      13.000 |      1047.0 |
UnpackMCOTHits    SUCCESS Number of counters : 1
 |    Counter                                      |     #     |    sum     | mean/eff^* | rms/err^*  |     min     |     max     |
 | "# UnPackedData"                                |        10 |      11296 |     1129.6 |     847.87 |      47.000 |      2121.0 |
UnpackMCRichHits  SUCCESS Number of counters : 1
 |    Counter                                      |     #     |    sum     | mean/eff^* | rms/err^*  |     min     |     max     |
 | "# UnPackedData"                                |        10 |      47865 |     4786.5 |     3862.3 |      183.00 |      10449. |
UnpackMCSpdHits   SUCCESS Number of counters : 1
 |    Counter                                      |     #     |    sum     | mean/eff^* | rms/err^*  |     min     |     max     |
 | "# UnPackedData"                                |        10 |      13853 |     1385.3 |     959.79 |      18.000 |      2763.0 |
UnpackMCPrsHits   SUCCESS Number of counters : 1
 |    Counter                                      |     #     |    sum     | mean/eff^* | rms/err^*  |     min     |     max     |
 | "# UnPackedData"                                |        10 |      26501 |     2650.1 |     1829.1 |      42.000 |      5825.0 |
UnpackMCEcalHits  SUCCESS Number of counters : 1
 |    Counter                                      |     #     |    sum     | mean/eff^* | rms/err^*  |     min     |     max     |
 | "# UnPackedData"                                |        10 |      33138 |     3313.8 |     2240.6 |      54.000 |      6926.0 |
UnpackMCHcalHits  SUCCESS Number of counters : 1
 |    Counter                                      |     #     |    sum     | mean/eff^* | rms/err^*  |     min     |     max     |
 | "# UnPackedData"                                |        10 |       3579 |     357.90 |     233.81 |      23.000 |      698.00 |
BooleInit         SUCCESS ==================================================================
BooleInit         SUCCESS 10 events processed
BooleInit         SUCCESS ==================================================================
VeloSim              INFO Removed  0.67% MCVeloFEs due to bad strips and  0.00% as random removals
VeloPUSim            INFO Removed  0.00% MCVeloFEs due to bad strips and  1.13% as random removals
TTClusterKiller      INFO Fraction of clusters killed 0 %
TTClusterKiller   SUCCESS Number of counters : 2
 |    Counter                                      |     #     |    sum     | mean/eff^* | rms/err^*  |     min     |     max     |
 | "Dead"                                          |         0 |          0 |     0.0000 |     0.0000 | 1.7977e+308 |-1.7977e+308 |
 | "Processed"                                     |      3831 |       3831 |     1.0000 |     0.0000 |      1.0000 |      1.0000 |
ITClusterKiller      INFO Fraction of clusters killed 0.124782 %
ITClusterKiller   SUCCESS Number of counters : 2
 |    Counter                                      |     #     |    sum     | mean/eff^* | rms/err^*  |     min     |     max     |
 | "Dead"                                          |         5 |          5 |     1.0000 |     0.0000 |      1.0000 |      1.0000 |
 | "Processed"                                     |      4007 |       4007 |     1.0000 |     0.0000 |      1.0000 |      1.0000 |
RichPDSignal      SUCCESS Number of counters : 1
 |    Counter                                      |     #     |    sum     | mean/eff^* | rms/err^*  |     min     |     max     |
 | "Found MCRichHits at MC/Rich/Hits"              |        10 |         10 |     1.0000 |     0.0000 |      1.0000 |      1.0000 |
CaloFillPrsSpdR...   INFO Average event size :   329.6 words,    69.8 for trigger  Mean bank size    41.2, maximum size    62.9
EcalFillRawBuffer    INFO Average event size :  1537.1 words,  1216.8 for trigger  Mean bank size    59.1, maximum size    75.7
HcalFillRawBuffer    INFO Average event size :   405.3 words,   297.2 for trigger  Mean bank size    50.7, maximum size    66.3
EcalDigitMCTruth  SUCCESS Number of counters : 1
 |    Counter                                      |     #     |    sum     | mean/eff^* | rms/err^*  |     min     |     max     |
 | "#Digit->MC links"                              |        10 |      61954 |     6195.4 |     4267.5 |      73.000 |      12508. |
HcalDigitMCTruth  SUCCESS Number of counters : 1
 |    Counter                                      |     #     |    sum     | mean/eff^* | rms/err^*  |     min     |     max     |
 | "#Digit->MC links"                              |        10 |       5887 |     588.70 |     399.48 |      21.000 |      1202.0 |
VeloSimMoni          INFO ------------------------------------------------------
VeloSimMoni          INFO                 - VeloSimMoni table -
VeloSimMoni          INFO ------------------------------------------------------
VeloSimMoni          INFO | Number of MCVeloFEs/Event: 1697 +/- 379.974
VeloSimMoni          INFO | FEs from signal:                      96.33%
VeloSimMoni          INFO | FEs from noise:                       1.461%
VeloSimMoni          INFO | FEs from other, coupling + spillover: 2.209%
VeloSimMoni          INFO ------------------------------------------------------
VeloRawClusters...   INFO ======================================================
VeloRawClusters...   INFO               - VeloClusterMoni table -
VeloRawClusters...   INFO ------------------------------------------------------
VeloRawClusters...   INFO | Number of Clusters/Event: 977.6 +/- 214.48
VeloRawClusters...   INFO | Clusters from signal:                      100%
VeloRawClusters...   INFO | Clusters from noise:                       0%
VeloRawClusters...   INFO | Clusters from other (coupling+spillover):  0%
VeloRawClusters...   INFO ------------------------------------------------------
VeloRawClusters...   INFO               - Size of clusters (all)-
VeloRawClusters...   INFO ------------------------------------------------------
VeloRawClusters...   INFO | 1 strip clusters/event:     589.8 (60.33%)
VeloRawClusters...   INFO | 2 strip clusters/event:     299.5 (30.64%)
VeloRawClusters...   INFO | 3 strip clusters/event:     64.5 (6.6%)
VeloRawClusters...   INFO | 4 strip clusters/event:     23.8 (2.43%)
VeloRawClusters...   INFO ------------------------------------------------------
VeloRawClusters...   INFO               - Association failure -
VeloRawClusters...   INFO ------------------------------------------------------
VeloRawClusters...   INFO  Relative number of un-associated clusters: 0 %
VeloRawClusters...   INFO ======================================================
MCTTDepositMonitorSUCCESS Booked 4 Histogram(s) : 1D=4
MCTTDigitMonitor  SUCCESS Booked 4 Histogram(s) : 1D=4
TTDigitMonitor    SUCCESS Booked 4 Histogram(s) : 1D=4
TTClusterMonitor  SUCCESS Booked 18 Histogram(s) : 1D=13 2D=4 1DProf=1
TTClusterMonitor  SUCCESS Number of counters : 1
 |    Counter                                      |     #     |    sum     | mean/eff^* | rms/err^*  |     min     |     max     |
 | "Number of events"                              |        10 |         10 |     1.0000 |     0.0000 |      1.0000 |      1.0000 |
TTEffChecker         INFO  -------Efficiency %---------
TTEffChecker         INFO TTaX eff 100 +/- 0
TTEffChecker         INFO TTaU eff 99.5536 +/- 0.445431
TTEffChecker         INFO TTbX eff 98.6486 +/- 0.774913
TTEffChecker         INFO TTbV eff 100 +/- 0
TTEffChecker         INFO  -----------------------
TTEffChecker      SUCCESS Booked 24 Histogram(s) : 1D=16 2D=8
MCITDepositMonitorSUCCESS Booked 4 Histogram(s) : 1D=4
MCITDigitMonitor  SUCCESS Booked 4 Histogram(s) : 1D=4
ITDigitMonitor    SUCCESS Booked 4 Histogram(s) : 1D=4
ITClusterMonitor  SUCCESS Booked 14 Histogram(s) : 1D=9 2D=4 1DProf=1
ITClusterMonitor  SUCCESS Number of counters : 1
 |    Counter                                      |     #     |    sum     | mean/eff^* | rms/err^*  |     min     |     max     |
 | "Number of events"                              |        10 |         10 |     1.0000 |     0.0000 |      1.0000 |      1.0000 |
ITEffChecker         INFO  -------Efficiency %---------
ITEffChecker         INFO IT1TopX1 eff 100 +/- 0
ITEffChecker         INFO IT1TopU eff 100 +/- 0
ITEffChecker         INFO IT1TopV eff 93.3333 +/- 6.44061
ITEffChecker         INFO IT1TopX2 eff 100 +/- 0
ITEffChecker         INFO IT1BottomX1 eff 100 +/- 0
ITEffChecker         INFO IT1BottomU eff 71.4286 +/- 17.0747
ITEffChecker         INFO IT1BottomV eff 100 +/- 0
ITEffChecker         INFO IT1BottomX2 eff 83.3333 +/- 15.2145
ITEffChecker         INFO IT1ASideX1 eff 100 +/- 0
ITEffChecker         INFO IT1ASideU eff 100 +/- 0
ITEffChecker         INFO IT1ASideV eff 100 +/- 0
ITEffChecker         INFO IT1ASideX2 eff 96.7742 +/- 3.17335
ITEffChecker         INFO IT1CSideX1 eff 100 +/- 0
ITEffChecker         INFO IT1CSideU eff 100 +/- 0
ITEffChecker         INFO IT1CSideV eff 83.3333 +/- 6.80414
ITEffChecker         INFO IT1CSideX2 eff 100 +/- 0
ITEffChecker         INFO IT2TopX1 eff 100 +/- 0
ITEffChecker         INFO IT2TopU eff 90.9091 +/- 8.66784
ITEffChecker         INFO IT2TopV eff 100 +/- 0
ITEffChecker         INFO IT2TopX2 eff 90.9091 +/- 8.66784
ITEffChecker         INFO IT2BottomX1 eff 100 +/- 0
ITEffChecker         INFO IT2BottomU eff 100 +/- 0
ITEffChecker         INFO IT2BottomV eff 100 +/- 0
ITEffChecker         INFO IT2BottomX2 eff 100 +/- 0
ITEffChecker         INFO IT2ASideX1 eff 100 +/- 0
ITEffChecker         INFO IT2ASideU eff 100 +/- 0
ITEffChecker         INFO IT2ASideV eff 100 +/- 0
ITEffChecker         INFO IT2ASideX2 eff 100 +/- 0
ITEffChecker         INFO IT2CSideX1 eff 100 +/- 0
ITEffChecker         INFO IT2CSideU eff 100 +/- 0
ITEffChecker         INFO IT2CSideV eff 100 +/- 0
ITEffChecker         INFO IT2CSideX2 eff 100 +/- 0
ITEffChecker         INFO IT3TopX1 eff 62.5 +/- 17.1163
ITEffChecker         INFO IT3TopU eff 100 +/- 0
ITEffChecker         INFO IT3TopV eff 100 +/- 0
ITEffChecker         INFO IT3TopX2 eff 100 +/- 0
ITEffChecker         INFO IT3BottomX1 eff 100 +/- 0
ITEffChecker         INFO IT3BottomU eff 100 +/- 0
ITEffChecker         INFO IT3BottomV eff 100 +/- 0
ITEffChecker         INFO IT3BottomX2 eff 100 +/- 0
ITEffChecker         INFO IT3ASideX1 eff 100 +/- 0
ITEffChecker         INFO IT3ASideU eff 100 +/- 0
ITEffChecker         INFO IT3ASideV eff 100 +/- 0
ITEffChecker         INFO IT3ASideX2 eff 100 +/- 0
ITEffChecker         INFO IT3CSideX1 eff 100 +/- 0
ITEffChecker         INFO IT3CSideU eff 96 +/- 3.91918
ITEffChecker         INFO IT3CSideV eff 100 +/- 0
ITEffChecker         INFO IT3CSideX2 eff 100 +/- 0
ITEffChecker         INFO  -----------------------
ITEffChecker      SUCCESS Booked 288 Histogram(s) : 1D=192 2D=96
MCOTDepositMonitorSUCCESS Booked 31 Histogram(s) : 1D=27 2D=4
RiDigitQC            INFO ===============================================================================================
RiDigitQC            INFO                             RICH Digitisation Simulation Summary
RiDigitQC            INFO -----------------------------------------------------------------------------------------------
RiDigitQC            INFO  Rich1 : Av. total  hit occupancy      1191.80 +-10.92 hits/event
RiDigitQC            INFO        : Av. signal hit occupancy       833.30 +- 9.13 hits/event
RiDigitQC            INFO        :   /Event/MC/Rich/Hits          100.00 +- 0.00 % of total, 100.00 +- 0.00 % signal eff.
RiDigitQC            INFO        : Av. HPD hit occupancy            6.18 +- 0.06 hits/event
RiDigitQC            INFO        :   Min Av. HPD occ. hID=709001    0.10 +- 0.10 hits/event
RiDigitQC            INFO        :   Max Av. HPD occ. hID=646005   30.50 +- 1.75 hits/event
RiDigitQC            INFO        : % overall background hits       30.08 +- 0.42 %
RiDigitQC            INFO        :   % rayleigh scattered hits      1.80 +- 0.12 %
RiDigitQC            INFO        :   % charged track on HPD hits    0.01 +- 0.01 %
RiDigitQC            INFO        :   % gas quartz window CK hits    3.54 +- 0.17 %
RiDigitQC            INFO        :   % hpd quartz window CK hits   17.26 +- 0.35 %
RiDigitQC            INFO        :   % nitrogen CK hits             0.03 +- 0.01 %
RiDigitQC            INFO        :   % aerogel filter CK hits       0.10 +- 0.03 %
RiDigitQC            INFO        :   % silicon back-scatter hits    0.45 +- 0.06 %
RiDigitQC            INFO        :   % internal reflection hits    14.68 +- 0.32 %
RiDigitQC            INFO        :   % silicon charge share hits    1.06 +- 0.09 %
RiDigitQC            INFO -----------------------------------------------------------------------------------------------
RiDigitQC            INFO  Rich2 : Av. total  hit occupancy      1886.00 +-13.73 hits/event
RiDigitQC            INFO        : Av. signal hit occupancy       609.40 +- 7.81 hits/event
RiDigitQC            INFO        :   /Event/MC/Rich/Hits          100.00 +- 0.00 % of total, 100.00 +- 0.00 % signal eff.
RiDigitQC            INFO        : Av. HPD hit occupancy            8.69 +- 0.06 hits/event
RiDigitQC            INFO        :   Min Av. HPD occ. hID=503001    0.10 +- 0.10 hits/event
RiDigitQC            INFO        :   Max Av. HPD occ. hID=627008   15.60 +- 1.25 hits/event
RiDigitQC            INFO        : % overall background hits       67.69 +- 0.34 %
RiDigitQC            INFO        :   % rayleigh scattered hits      0.00 +- 0.00 %
RiDigitQC            INFO        :   % charged track on HPD hits    0.02 +- 0.01 %
RiDigitQC            INFO        :   % gas quartz window CK hits    2.21 +- 0.11 %
RiDigitQC            INFO        :   % hpd quartz window CK hits   17.70 +- 0.28 %
RiDigitQC            INFO        :   % nitrogen CK hits             0.02 +- 0.01 %
RiDigitQC            INFO        :   % aerogel filter CK hits       0.00 +- 0.00 %
RiDigitQC            INFO        :   % silicon back-scatter hits    0.65 +- 0.06 %
RiDigitQC            INFO        :   % internal reflection hits    19.13 +- 0.29 %
RiDigitQC            INFO        :   % silicon charge share hits    2.03 +- 0.10 %
RiDigitQC            INFO ===============================================================================================
RiDigitQC         SUCCESS Booked 6 Histogram(s) : 1D=6
SpdCheck          SUCCESS Booked 4 Histogram(s) : 1D=4
PrsCheck          SUCCESS Booked 4 Histogram(s) : 1D=4
EcalCheck         SUCCESS Booked 6 Histogram(s) : 1D=6
HcalCheck         SUCCESS Booked 6 Histogram(s) : 1D=6
MuonDigitChecker     INFO -----------------------------------------------------------------
MuonDigitChecker     INFO        Muon Monitoring Table
MuonDigitChecker     INFO -----------------------------------------------------------------
MuonDigitChecker     INFO -----------------------------------------------------------------
MuonDigitChecker     INFO     Digi Information
MuonDigitChecker     INFO -----------------------------------------------------------------
MuonDigitChecker     INFO -----------------------------------------------------------------
MuonDigitChecker     INFO -----   Container: Geant------------------------
MuonDigitChecker     INFO -----------------------------------------------------------------
MuonDigitChecker     INFO M1     M2     M3     M4     M5
MuonDigitChecker     INFO 42.700  34.300  5.800  1.500  0.700   R1
MuonDigitChecker     INFO 33.700  11.100  3.600  2.100  0.300   R2
MuonDigitChecker     INFO 36.500  4.200  1.600  0.200  0.900   R3
MuonDigitChecker     INFO 38.200  7.000  0.600  0.200  0.200   R4
MuonDigitChecker     INFO -----------------------------------------------------------------
MuonDigitChecker     INFO -----   Container: FlastSpillOver------------------------
MuonDigitChecker     INFO -----------------------------------------------------------------
MuonDigitChecker     INFO M1     M2     M3     M4     M5
MuonDigitChecker     INFO 0.000  0.000  0.000  0.000  0.200   R1
MuonDigitChecker     INFO 0.400  0.900  0.100  0.000  0.200   R2
MuonDigitChecker     INFO 0.300  0.500  0.700  0.200  1.000   R3
MuonDigitChecker     INFO 0.000  0.700  0.000  0.000  0.900   R4
MuonDigitChecker     INFO -----------------------------------------------------------------
MuonDigitChecker     INFO -----   Container: Low Energy Background------------------------
MuonDigitChecker     INFO -----------------------------------------------------------------
MuonDigitChecker     INFO M1     M2     M3     M4     M5
MuonDigitChecker     INFO 0.000  3.000  2.400  0.200  0.300   R1
MuonDigitChecker     INFO 0.000  3.100  0.800  0.400  0.400   R2
MuonDigitChecker     INFO 0.000  1.800  0.600  0.400  0.500   R3
MuonDigitChecker     INFO 0.000  0.200  0.400  0.200  0.000   R4
MuonDigitChecker     INFO -----------------------------------------------------------------
MuonDigitChecker     INFO -----   Container: Chamber Noise------------------------
MuonDigitChecker     INFO -----------------------------------------------------------------
MuonDigitChecker     INFO M1     M2     M3     M4     M5
MuonDigitChecker     INFO 0.000  0.000  0.000  0.000  0.000   R1
MuonDigitChecker     INFO 0.000  0.000  0.000  0.000  0.000   R2
MuonDigitChecker     INFO 0.000  0.000  0.000  0.000  0.000   R3
MuonDigitChecker     INFO 0.000  0.000  0.000  0.000  0.000   R4
MuonDigitChecker     INFO -----------------------------------------------------------------
MuonDigitChecker     INFO -----   Container: Crosstalk------------------------
MuonDigitChecker     INFO -----------------------------------------------------------------
MuonDigitChecker     INFO M1     M2     M3     M4     M5
MuonDigitChecker     INFO 3.700  3.500  0.600  0.600  0.500   R1
MuonDigitChecker     INFO 11.300  1.500  0.700  0.400  0.000   R2
MuonDigitChecker     INFO 6.600  0.800  0.400  0.000  0.200   R3
MuonDigitChecker     INFO 0.700  0.000  0.100  0.000  0.000   R4
MuonDigitChecker     INFO -----------------------------------------------------------------
MuonDigitChecker     INFO -----   Container: Electronic Noise------------------------
MuonDigitChecker     INFO -----------------------------------------------------------------
MuonDigitChecker     INFO M1     M2     M3     M4     M5
MuonDigitChecker     INFO 0.000  0.000  0.000  0.000  0.000   R1
MuonDigitChecker     INFO 0.200  0.000  0.000  0.000  0.000   R2
MuonDigitChecker     INFO 0.000  0.000  0.000  0.000  0.000   R3
MuonDigitChecker     INFO 0.000  0.000  0.000  0.000  0.200   R4
FSROutputStream...   INFO Set up File Summary Record
FSROutputStream...   INFO Events output: 1
DigiWriter           INFO Events output: 10
RawWriter            INFO Events output: 10
EventLoopMgr         INFO Histograms converted successfully according to request.
LHCb::RawDataCn...   INFO Closed connected MDF stream:PFN:Boole-10ev.mdf ID:0x1b94bbd0
RootCnvSvc           INFO Disconnected data IO:E6CD1DCB-87D5-E011-A5D7-000CF1F44509 [root://eoslhcb.cern.ch//eos/lhcb/grid/prod/lhcb/swtest/lhcb/swtest/boole.fixedfile-gauss-v39r4-mc10-sim/Gauss-v39r4-30000000-100ev-20110902-MC10.sim]
RootCnvSvc           INFO Disconnected data IO:F81641AF-9892-E711-B950-02163E01B992 [Boole-10ev.digi]
ToolSvc              INFO Removing all tools created by ToolSvc
ToolSvc.RichRaw...   INFO ========================================================================================================================
ToolSvc.RichRaw...   INFO                              RICH Level 1 : Encoding Summary : 10 events
ToolSvc.RichRaw...   INFO ------------------------------------------------------------------------------------------------------------------------
ToolSvc.RichRaw...   INFO  Rich2 L1ID(hard/log)  1/ 8 V129 | L1 size =  23.70 +- 1.54 pds :   95.40 +- 3.09 words :  133.60 +- 3.66 hits / event
ToolSvc.RichRaw...   INFO ------------------------------------------------------------------------------------------------------------------------
ToolSvc.RichRaw...   INFO  Rich1 L1ID(hard/log)  3/ 1 V129 | L1 size =  21.30 +- 1.46 pds :   81.30 +- 2.85 words :  120.30 +- 3.47 hits / event
ToolSvc.RichRaw...   INFO ------------------------------------------------------------------------------------------------------------------------
ToolSvc.RichRaw...   INFO  Rich2 L1ID(hard/log)  4/ 6 V129 | L1 size =  24.40 +- 1.56 pds :  129.50 +- 3.60 words :  221.60 +- 4.71 hits / event
ToolSvc.RichRaw...   INFO  Rich2 L1ID(hard/log)  5/ 7 V129 | L1 size =  24.90 +- 1.58 pds :  127.20 +- 3.57 words :  213.30 +- 4.62 hits / event
ToolSvc.RichRaw...   INFO  Rich2 L1ID(hard/log)  6/ 3 V129 | L1 size =  24.50 +- 1.57 pds :  143.40 +- 3.79 words :  261.50 +- 5.11 hits / event
ToolSvc.RichRaw...   INFO  Rich2 L1ID(hard/log)  8/ 2 V129 | L1 size =  23.40 +- 1.53 pds :  163.40 +- 4.04 words :  368.80 +- 6.07 hits / event
ToolSvc.RichRaw...   INFO  Rich2 L1ID(hard/log)  9/ 1 V129 | L1 size =  25.80 +- 1.61 pds :  150.50 +- 3.88 words :  291.70 +- 5.40 hits / event
ToolSvc.RichRaw...   INFO  Rich2 L1ID(hard/log) 11/ 4 V129 | L1 size =  22.70 +- 1.51 pds :  120.00 +- 3.46 words :  236.40 +- 4.86 hits / event
ToolSvc.RichRaw...   INFO  Rich2 L1ID(hard/log) 12/ 5 V129 | L1 size =  22.80 +- 1.51 pds :  101.30 +- 3.18 words :  159.10 +- 3.99 hits / event
ToolSvc.RichRaw...   INFO ------------------------------------------------------------------------------------------------------------------------
ToolSvc.RichRaw...   INFO  Rich1 L1ID(hard/log) 13/ 2 V129 | L1 size =  20.30 +- 1.42 pds :   88.80 +- 2.98 words :  170.10 +- 4.12 hits / event
ToolSvc.RichRaw...   INFO  Rich1 L1ID(hard/log) 14/ 3 V129 | L1 size =  14.40 +- 1.20 pds :   66.30 +- 2.57 words :  108.20 +- 3.29 hits / event
ToolSvc.RichRaw...   INFO  Rich1 L1ID(hard/log) 16/ 4 V129 | L1 size =   8.20 +- 0.91 pds :   54.20 +- 2.33 words :  111.00 +- 3.33 hits / event
ToolSvc.RichRaw...   INFO  Rich1 L1ID(hard/log) 17/ 5 V129 | L1 size =  10.30 +- 1.01 pds :   49.40 +- 2.22 words :   74.80 +- 2.73 hits / event
ToolSvc.RichRaw...   INFO  Rich1 L1ID(hard/log) 18/ 6 V129 | L1 size =  25.90 +- 1.61 pds :  169.90 +- 4.12 words :  331.00 +- 5.75 hits / event
ToolSvc.RichRaw...   INFO  Rich1 L1ID(hard/log) 20/ 7 V129 | L1 size =  23.80 +- 1.54 pds :  139.60 +- 3.74 words :  276.40 +- 5.26 hits / event
ToolSvc.RichRaw...   INFO ------------------------------------------------------------------------------------------------------------------------
ToolSvc.RichRaw...   INFO  Rich1 Average                   | L1 size = 124.20 +- 3.52 pds :  649.50 +- 8.06 words : 1191.80 +-10.92 hits / event
ToolSvc.RichRaw...   INFO  Rich2 Average                   | L1 size = 192.20 +- 4.38 pds : 1030.70 +-10.15 words : 1886.00 +-13.73 hits / event
ToolSvc.RichRaw...   INFO ========================================================================================================================
VeloPUSim.RadDa...SUCCESS Exceptions/Errors/Warnings/Infos Statistics : 0/0/1/0
VeloPUSim.RadDa...SUCCESS  #WARNINGS   = 1        Message = 'VELO radiation damage parameters not in conditions DB'
VeloSim.RadDamage SUCCESS Exceptions/Errors/Warnings/Infos Statistics : 0/0/1/0
VeloSim.RadDamage SUCCESS  #WARNINGS   = 1        Message = 'VELO radiation damage parameters not in conditions DB'
BooleInit.Boole...SUCCESS Booked 4 Histogram(s) : 1D=4
BooleInit.Boole...SUCCESS Number of counters : 2
 |    Counter                                      |     #     |    sum     | mean/eff^* | rms/err^*  |     min     |     max     |
 | "Delta Memory/MB"                               |         9 |    156.292 |     17.366 |     37.605 |      0.0000 |      122.29 |
 | "Total Memory/MB"                               |        10 |   14737.71 |     1473.8 |     44.681 |      1344.9 |      1501.2 |
ToolSvc.OTChann...SUCCESS Exceptions/Errors/Warnings/Infos Statistics : 0/0/1/0
ToolSvc.OTChann...SUCCESS  #WARNINGS   = 1        Message = 'Updating OT channel map for bank version 3 [OTFillRawBuffer]'
DataOnDemandSvc      INFO Handled "DataFault" incidents: 130/40/1110(Alg/Node/Total).
ApplicationMgr       INFO Application Manager Finalized successfully
ApplicationMgr       INFO Application Manager Terminated successfully
